File: /home/kamilos/qualitas_corpus/QualitasCorpus-20120401f/Systems/antlr/antlr-3.4/src/antlr-3.4/gunit/pom.xml
[INFO] Scanning for projects...
[INFO]                                                                         
[INFO] ------------------------------------------------------------------------
[INFO] Building ANTLR gUnit v3.4 3.4
[INFO] ------------------------------------------------------------------------
[INFO] 
[INFO] --- my-maven-enforcer-plugin:1.3.1:enforce (default-cli) @ gunit ---
[WARNING] 
Dependency convergence error for org.antlr:antlr-runtime:3.4 paths to dependency are:
+-org.antlr:gunit:3.4
  +-org.antlr:antlr:3.4
    +-org.antlr:antlr-runtime:3.4
and
+-org.antlr:gunit:3.4
  +-org.antlr:ST4:4.0.4
    +-org.antlr:antlr-runtime:3.3

[WARNING] Rule 0: org.apache.maven.plugins.enforcer.DependencyConvergence failed with message:
Failed while enforcing releasability the error(s) are [
Dependency convergence error for org.antlr:antlr-runtime:3.4 paths to dependency are:
+-org.antlr:gunit:3.4
  +-org.antlr:antlr:3.4
    +-org.antlr:antlr-runtime:3.4
and
+-org.antlr:gunit:3.4
  +-org.antlr:ST4:4.0.4
    +-org.antlr:antlr-runtime:3.3
]
[INFO] ------------------------------------------------------------------------
[INFO] BUILD FAILURE
[INFO] ------------------------------------------------------------------------
[INFO] Total time: 0.777s
[INFO] Finished at: Thu Jan 30 17:04:31 CET 2014
[INFO] Final Memory: 5M/119M
[INFO] ------------------------------------------------------------------------
[ERROR] Failed to execute goal org.apache.maven.plugins:my-maven-enforcer-plugin:1.3.1:enforce (default-cli) on project gunit: Some Enforcer rules have failed. Look above for specific messages explaining why the rule failed. -> [Help 1]
[ERROR] 
[ERROR] To see the full stack trace of the errors, re-run Maven with the -e switch.
[ERROR] Re-run Maven using the -X switch to enable full debug logging.
[ERROR] 
[ERROR] For more information about the errors and possible solutions, please read the following articles:
[ERROR] [Help 1] http://cwiki.apache.org/confluence/display/MAVEN/MojoExecutionException
