File: /home/kamilos/qualitas_corpus/QualitasCorpus-20120401f/Systems/hibernate/hibernate-3.6.1/src/hibernate-distribution-3.6.1.Final/project/testsuite/pom.xml
[INFO] Scanning for projects...
[INFO]                                                                         
[INFO] ------------------------------------------------------------------------
[INFO] Building Hibernate Testsuite 3.6.1.Final
[INFO] ------------------------------------------------------------------------
[INFO] 
[INFO] --- my-maven-enforcer-plugin:1.3.1:enforce (default-cli) @ hibernate-testsuite ---
[WARNING] Missing POM for commons-logging:commons-logging:jar:99.0-does-not-exist
[WARNING] Missing POM for commons-logging:commons-logging-api:jar:99.0-does-not-exist
[WARNING] 
Dependency convergence error for jaxen:jaxen:1.1 paths to dependency are:
+-org.hibernate:hibernate-testsuite:3.6.1.Final
  +-jaxen:jaxen:1.1
and
+-org.hibernate:hibernate-testsuite:3.6.1.Final
  +-jaxen:jaxen:1.1
    +-jaxen:jaxen:1.1-beta-6
and
+-org.hibernate:hibernate-testsuite:3.6.1.Final
  +-jaxen:jaxen:1.1
    +-jaxen:jaxen:1.0-FCS

[WARNING] Rule 0: org.apache.maven.plugins.enforcer.DependencyConvergence failed with message:
Failed while enforcing releasability the error(s) are [
Dependency convergence error for jaxen:jaxen:1.1 paths to dependency are:
+-org.hibernate:hibernate-testsuite:3.6.1.Final
  +-jaxen:jaxen:1.1
and
+-org.hibernate:hibernate-testsuite:3.6.1.Final
  +-jaxen:jaxen:1.1
    +-jaxen:jaxen:1.1-beta-6
and
+-org.hibernate:hibernate-testsuite:3.6.1.Final
  +-jaxen:jaxen:1.1
    +-jaxen:jaxen:1.0-FCS
]
[INFO] ------------------------------------------------------------------------
[INFO] BUILD FAILURE
[INFO] ------------------------------------------------------------------------
[INFO] Total time: 0.887s
[INFO] Finished at: Thu Jan 30 20:48:18 CET 2014
[INFO] Final Memory: 6M/150M
[INFO] ------------------------------------------------------------------------
[ERROR] Failed to execute goal org.apache.maven.plugins:my-maven-enforcer-plugin:1.3.1:enforce (default-cli) on project hibernate-testsuite: Some Enforcer rules have failed. Look above for specific messages explaining why the rule failed. -> [Help 1]
[ERROR] 
[ERROR] To see the full stack trace of the errors, re-run Maven with the -e switch.
[ERROR] Re-run Maven using the -X switch to enable full debug logging.
[ERROR] 
[ERROR] For more information about the errors and possible solutions, please read the following articles:
[ERROR] [Help 1] http://cwiki.apache.org/confluence/display/MAVEN/MojoExecutionException
