File: /home/kamilos/qualitas_corpus/QualitasCorpus-20120401f/Systems/hibernate/hibernate-3.6.8/src/hibernate-distribution-3.6.8.Final/project/hibernate-documentation/quickstart/tutorials/basic/pom.xml
[INFO] Scanning for projects...
[INFO]                                                                         
[INFO] ------------------------------------------------------------------------
[INFO] Building Hibernate hbm.xml Tutorial 3.6.8.Final
[INFO] ------------------------------------------------------------------------
[INFO] 
[INFO] --- my-maven-enforcer-plugin:1.3.1:enforce (default-cli) @ hibernate-tutorial-hbm ---
[WARNING] 
Dependency convergence error for org.slf4j:slf4j-api:1.5.8 paths to dependency are:
+-org.hibernate.tutorials:hibernate-tutorial-hbm:3.6.8.Final
  +-org.hibernate:hibernate-core:3.6.8.Final
    +-org.hibernate:hibernate-commons-annotations:3.2.0.Final
      +-org.slf4j:slf4j-api:1.5.8
and
+-org.hibernate.tutorials:hibernate-tutorial-hbm:3.6.8.Final
  +-org.hibernate:hibernate-core:3.6.8.Final
    +-org.slf4j:slf4j-api:1.6.1
and
+-org.hibernate.tutorials:hibernate-tutorial-hbm:3.6.8.Final
  +-org.slf4j:slf4j-simple:1.6.1
    +-org.slf4j:slf4j-api:1.6.1

[WARNING] Rule 0: org.apache.maven.plugins.enforcer.DependencyConvergence failed with message:
Failed while enforcing releasability the error(s) are [
Dependency convergence error for org.slf4j:slf4j-api:1.5.8 paths to dependency are:
+-org.hibernate.tutorials:hibernate-tutorial-hbm:3.6.8.Final
  +-org.hibernate:hibernate-core:3.6.8.Final
    +-org.hibernate:hibernate-commons-annotations:3.2.0.Final
      +-org.slf4j:slf4j-api:1.5.8
and
+-org.hibernate.tutorials:hibernate-tutorial-hbm:3.6.8.Final
  +-org.hibernate:hibernate-core:3.6.8.Final
    +-org.slf4j:slf4j-api:1.6.1
and
+-org.hibernate.tutorials:hibernate-tutorial-hbm:3.6.8.Final
  +-org.slf4j:slf4j-simple:1.6.1
    +-org.slf4j:slf4j-api:1.6.1
]
[INFO] ------------------------------------------------------------------------
[INFO] BUILD FAILURE
[INFO] ------------------------------------------------------------------------
[INFO] Total time: 0.689s
[INFO] Finished at: Thu Jan 30 20:50:33 CET 2014
[INFO] Final Memory: 6M/150M
[INFO] ------------------------------------------------------------------------
[ERROR] Failed to execute goal org.apache.maven.plugins:my-maven-enforcer-plugin:1.3.1:enforce (default-cli) on project hibernate-tutorial-hbm: Some Enforcer rules have failed. Look above for specific messages explaining why the rule failed. -> [Help 1]
[ERROR] 
[ERROR] To see the full stack trace of the errors, re-run Maven with the -e switch.
[ERROR] Re-run Maven using the -X switch to enable full debug logging.
[ERROR] 
[ERROR] For more information about the errors and possible solutions, please read the following articles:
[ERROR] [Help 1] http://cwiki.apache.org/confluence/display/MAVEN/MojoExecutionException
