File: /home/kamilos/qualitas_corpus/QualitasCorpus-20120401f/Systems/hibernate/hibernate-3.6.10/src/hibernate-distribution-3.6.10.Final/project/hibernate-core/pom.xml
[INFO] Scanning for projects...
[INFO]                                                                         
[INFO] ------------------------------------------------------------------------
[INFO] Building Hibernate Core 3.6.10.Final
[INFO] ------------------------------------------------------------------------
[INFO] 
[INFO] --- my-maven-enforcer-plugin:1.3.1:enforce (default-cli) @ hibernate-core ---
[WARNING] Missing POM for commons-logging:commons-logging:jar:99.0-does-not-exist
[WARNING] Missing POM for commons-logging:commons-logging-api:jar:99.0-does-not-exist
[WARNING] 
Dependency convergence error for javax.xml.bind:jaxb-api:2.2 paths to dependency are:
+-org.hibernate:hibernate-core:3.6.10.Final
  +-javax.xml.bind:jaxb-api:2.2
and
+-org.hibernate:hibernate-core:3.6.10.Final
  +-com.sun.xml.bind:jaxb-impl:2.1.12
    +-javax.xml.bind:jaxb-api:2.1

[WARNING] Rule 0: org.apache.maven.plugins.enforcer.DependencyConvergence failed with message:
Failed while enforcing releasability the error(s) are [
Dependency convergence error for javax.xml.bind:jaxb-api:2.2 paths to dependency are:
+-org.hibernate:hibernate-core:3.6.10.Final
  +-javax.xml.bind:jaxb-api:2.2
and
+-org.hibernate:hibernate-core:3.6.10.Final
  +-com.sun.xml.bind:jaxb-impl:2.1.12
    +-javax.xml.bind:jaxb-api:2.1
]
[INFO] ------------------------------------------------------------------------
[INFO] BUILD FAILURE
[INFO] ------------------------------------------------------------------------
[INFO] Total time: 0.884s
[INFO] Finished at: Thu Jan 30 20:54:46 CET 2014
[INFO] Final Memory: 6M/150M
[INFO] ------------------------------------------------------------------------
[ERROR] Failed to execute goal org.apache.maven.plugins:my-maven-enforcer-plugin:1.3.1:enforce (default-cli) on project hibernate-core: Some Enforcer rules have failed. Look above for specific messages explaining why the rule failed. -> [Help 1]
[ERROR] 
[ERROR] To see the full stack trace of the errors, re-run Maven with the -e switch.
[ERROR] Re-run Maven using the -X switch to enable full debug logging.
[ERROR] 
[ERROR] For more information about the errors and possible solutions, please read the following articles:
[ERROR] [Help 1] http://cwiki.apache.org/confluence/display/MAVEN/MojoExecutionException
