[INFO] Scanning for projects...
[INFO]                                                                         
[INFO] ------------------------------------------------------------------------
[INFO] Building Hibernate Distribution 3.6.4.Final
[INFO] ------------------------------------------------------------------------
[WARNING] The POM for org.jboss.cache:jbosscache-core:jar:3.2.1.GA is missing, no dependency information available
[WARNING] The POM for org.infinispan:infinispan-core:jar:4.2.1.CR1 is missing, no dependency information available
[WARNING] The POM for commons-logging:commons-logging:jar:99.0-does-not-exist is missing, no dependency information available
[WARNING] The POM for commons-logging:commons-logging-api:jar:99.0-does-not-exist is missing, no dependency information available
[INFO] ------------------------------------------------------------------------
[INFO] BUILD FAILURE
[INFO] ------------------------------------------------------------------------
[INFO] Total time: 0.769s
[INFO] Finished at: Tue Feb 04 15:07:55 CET 2014
[INFO] Final Memory: 5M/119M
[INFO] ------------------------------------------------------------------------
[ERROR] Failed to execute goal on project hibernate-distribution: Could not resolve dependencies for project org.hibernate:hibernate-distribution:pom:3.6.4.Final: The following artifacts could not be resolved: org.jboss.cache:jbosscache-core:jar:3.2.1.GA, org.infinispan:infinispan-core:jar:4.2.1.CR1: Failure to find org.jboss.cache:jbosscache-core:jar:3.2.1.GA in http://repo.maven.apache.org/maven2 was cached in the local repository, resolution will not be reattempted until the update interval of central has elapsed or updates are forced -> [Help 1]
[ERROR] 
[ERROR] To see the full stack trace of the errors, re-run Maven with the -e switch.
[ERROR] Re-run Maven using the -X switch to enable full debug logging.
[ERROR] 
[ERROR] For more information about the errors and possible solutions, please read the following articles:
[ERROR] [Help 1] http://cwiki.apache.org/confluence/display/MAVEN/DependencyResolutionException
