[INFO] Scanning for projects...
[WARNING] 
[WARNING] Some problems were encountered while building the effective model for org.apache.cayenne.build-tools:maven-cayenne-doc-plugin:maven-plugin:3.0.1
[WARNING] 'parent.relativePath' points at org.apache.cayenne.parents:cayenne-build-tools instead of org.apache.cayenne:cayenne-parent, please verify your project structure @ line 24, column 10
[WARNING] 'build.plugins.plugin.version' for org.apache.maven.plugins:maven-deploy-plugin is missing. @ line 73, column 12
[WARNING] 'build.plugins.plugin.version' for org.apache.maven.plugins:maven-compiler-plugin is missing. @ line 65, column 12
[WARNING] 'reporting.plugins.plugin.version' for org.apache.maven.plugins:maven-javadoc-plugin is missing. @ org.apache.cayenne:cayenne-parent:3.0.1, /home/kamilos/.m2/repository/org/apache/cayenne/cayenne-parent/3.0.1/cayenne-parent-3.0.1.pom, line 621, column 12
[WARNING] 
[WARNING] It is highly recommended to fix these problems because they threaten the stability of your build.
[WARNING] 
[WARNING] For this reason, future Maven versions might no longer support building such malformed projects.
[WARNING] 
[INFO]                                                                         
[INFO] ------------------------------------------------------------------------
[INFO] Building Cayenne Internal Documentation Build Plugin 3.0.1
[INFO] ------------------------------------------------------------------------
[WARNING] The POM for com.atlassian.confluence:confluence-soap:jar:2.0 is missing, no dependency information available
Downloading: http://objectstyle.org/maven2/axis/axis/1.4/axis-1.4.jar
Downloading: http://objectstyle.org/maven2/com/atlassian/confluence/confluence-soap/2.0/confluence-soap-2.0.jar
Downloading: http://objectstyle.org/maven2/org/apache/axis/axis-saaj/1.4/axis-saaj-1.4.jar
Downloading: http://objectstyle.org/maven2/axis/axis-wsdl4j/1.5.1/axis-wsdl4j-1.5.1.jar
Downloading: http://objectstyle.org/maven2/org/apache/axis/axis-jaxrpc/1.4/axis-jaxrpc-1.4.jar
Downloading: http://objectstyle.org/maven2/commons-discovery/commons-discovery/0.2/commons-discovery-0.2.jar
3/91 KB   4/91 KB   7/91 KB   11/91 KB   12/91 KB              14/91 KB   18/91 KB   22/91 KB   24/91 KB   27/91 KB   31/91 KB   35/91 KB   39/91 KB   43/91 KB   45/91 KB   48/91 KB   52/91 KB   56/91 KB   60/91 KB   64/91 KB   68/91 KB   72/91 KB   75/91 KB   78/91 KB   82/91 KB   86/91 KB   90/91 KB   91/91 KB   [WARNING] Checksum validation failed, no checksums available from the repository for http://objectstyle.org/maven2/com/atlassian/confluence/confluence-soap/2.0/confluence-soap-2.0.jar
           Downloaded: http://objectstyle.org/maven2/com/atlassian/confluence/confluence-soap/2.0/confluence-soap-2.0.jar (91 KB at 53.3 KB/sec)
Downloading: http://repo.maven.apache.org/maven2/axis/axis/1.4/axis-1.4.jar
Downloading: http://repo.maven.apache.org/maven2/org/apache/axis/axis-jaxrpc/1.4/axis-jaxrpc-1.4.jar
Downloading: http://repo.maven.apache.org/maven2/org/apache/axis/axis-saaj/1.4/axis-saaj-1.4.jar
Downloading: http://repo.maven.apache.org/maven2/axis/axis-wsdl4j/1.5.1/axis-wsdl4j-1.5.1.jar
Downloading: http://repo.maven.apache.org/maven2/commons-discovery/commons-discovery/0.2/commons-discovery-0.2.jar
3/31 KB    1/70 KB   1/19 KB   1/124 KB   3/31 KB   1/70 KB   1/19 KB   1/124 KB   3/31 KB   1/70 KB   1/19 KB   1/124 KB   3/31 KB   1/70 KB   5/19 KB   1/124 KB   3/31 KB   1/70 KB   5/19 KB   5/124 KB   3/31 KB   5/70 KB   5/19 KB   5/124 KB   3/31 KB   5/70 KB   5/19 KB   5/124 KB   7/31 KB   5/70 KB   9/19 KB   5/124 KB   7/31 KB   5/70 KB   9/19 KB   9/124 KB   7/31 KB   9/70 KB   9/19 KB   9/124 KB   7/31 KB   9/70 KB   9/19 KB   9/124 KB   11/31 KB   9/70 KB   13/19 KB   9/124 KB   11/31 KB   9/70 KB   13/19 KB   13/124 KB   11/31 KB   13/70 KB   13/19 KB   13/124 KB   11/31 KB   13/70 KB   13/19 KB   13/124 KB   14/31 KB   13/70 KB   14/19 KB   13/124 KB   14/31 KB   13/70 KB   14/19 KB   14/124 KB   14/31 KB   14/70 KB   14/19 KB   14/124 KB   14/31 KB   14/70 KB   14/19 KB   3/1563 KB   14/124 KB   14/31 KB   14/70 KB   14/19 KB   7/1563 KB   14/124 KB   14/31 KB   14/70 KB   14/19 KB   11/1563 KB   14/124 KB   14/31 KB   14/70 KB   14/19 KB   14/1563 KB   14/124 KB   14/31 KB   14/70 KB   14/19 KB   14/1563 KB   14/124 KB   17/31 KB   14/70 KB   14/19 KB   14/1563 KB   14/124 KB   21/31 KB   14/70 KB   16/19 KB   14/1563 KB   14/124 KB   21/31 KB   14/70 KB   19/19 KB   14/1563 KB   14/124 KB   25/31 KB   14/70 KB   19/19 KB   14/1563 KB   14/124 KB   25/31 KB   14/70 KB   19/19 KB   14/1563 KB   16/124 KB   25/31 KB   14/70 KB   19/19 KB   14/1563 KB   20/124 KB   25/31 KB   14/70 KB   19/19 KB   14/1563 KB   20/124 KB   29/31 KB   14/70 KB   19/19 KB   14/1563 KB   24/124 KB   29/31 KB   14/70 KB   19/19 KB   14/1563 KB   24/124 KB   31/31 KB   14/70 KB   19/19 KB   14/1563 KB   28/124 KB   31/31 KB   16/70 KB   19/19 KB   14/1563 KB   28/124 KB   31/31 KB   20/70 KB   19/19 KB   14/1563 KB   28/124 KB   31/31 KB   20/70 KB   19/19 KB   14/1563 KB   32/124 KB   31/31 KB   24/70 KB   19/19 KB   14/1563 KB   32/124 KB   31/31 KB   24/70 KB   19/19 KB   14/1563 KB   36/124 KB   31/31 KB   28/70 KB   19/19 KB   14/1563 KB   36/124 KB   31/31 KB   28/70 KB   19/19 KB   14/1563 KB   40/124 KB   31/31 KB   32/70 KB   19/19 KB   14/1563 KB   40/124 KB   31/31 KB   32/70 KB   19/19 KB   14/1563 KB   43/124 KB   31/31 KB   36/70 KB   19/19 KB   14/1563 KB   43/124 KB   31/31 KB   40/70 KB   19/19 KB   14/1563 KB   43/124 KB   31/31 KB   40/70 KB   19/19 KB   17/1563 KB   43/124 KB   31/31 KB   43/70 KB   19/19 KB   17/1563 KB   43/124 KB   31/31 KB   43/70 KB   19/19 KB   21/1563 KB   43/124 KB   31/31 KB   43/70 KB   19/19 KB   25/1563 KB   43/124 KB   31/31 KB   43/70 KB   19/19 KB   29/1563 KB   43/124 KB   31/31 KB   43/70 KB   19/19 KB   33/1563 KB   43/124 KB   31/31 KB   43/70 KB   19/19 KB   37/1563 KB   43/124 KB   31/31 KB   43/70 KB   19/19 KB   41/1563 KB   43/124 KB   31/31 KB   43/70 KB   19/19 KB   41/1563 KB   43/124 KB   31/31 KB   43/70 KB   19/19 KB   41/1563 KB   45/124 KB   31/31 KB   43/70 KB   19/19 KB   41/1563 KB   49/124 KB   31/31 KB   43/70 KB   19/19 KB   41/1563 KB   53/124 KB   31/31 KB   44/70 KB   19/19 KB   41/1563 KB   53/124 KB   31/31 KB   47/70 KB   19/19 KB   41/1563 KB   53/124 KB   31/31 KB   47/70 KB   19/19 KB   41/1563 KB   57/124 KB   31/31 KB   51/70 KB   19/19 KB   41/1563 KB   57/124 KB   31/31 KB   51/70 KB   19/19 KB   41/1563 KB   61/124 KB   31/31 KB   55/70 KB   19/19 KB   41/1563 KB   61/124 KB   31/31 KB   55/70 KB   19/19 KB   41/1563 KB   65/124 KB   31/31 KB   59/70 KB   19/19 KB   41/1563 KB   65/124 KB   31/31 KB                                                             Downloaded: http://repo.maven.apache.org/maven2/org/apache/axis/axis-saaj/1.4/axis-saaj-1.4.jar (19 KB at 197.2 KB/sec)
                                                          63/70 KB   41/1563 KB   65/124 KB                         Downloaded: http://repo.maven.apache.org/maven2/org/apache/axis/axis-jaxrpc/1.4/axis-jaxrpc-1.4.jar (31 KB at 324.0 KB/sec)
63/70 KB   41/1563 KB   69/124 KB   67/70 KB   41/1563 KB   69/124 KB   67/70 KB   41/1563 KB   69/124 KB   69/70 KB   41/1563 KB   69/124 KB   69/70 KB   44/1563 KB   69/124 KB   69/70 KB   48/1563 KB   69/124 KB   69/70 KB   52/1563 KB   69/124 KB   69/70 KB   56/1563 KB   69/124 KB   69/70 KB   60/1563 KB   69/124 KB   69/70 KB   64/1563 KB   69/124 KB   69/70 KB   68/1563 KB   69/124 KB   69/70 KB   69/1563 KB   69/124 KB   69/70 KB   69/1563 KB   72/124 KB   69/70 KB   69/1563 KB   76/124 KB   69/70 KB   69/1563 KB   80/124 KB   69/70 KB   69/1563 KB   84/124 KB   69/70 KB   69/1563 KB   88/124 KB   70/70 KB   69/1563 KB   88/124 KB   70/70 KB   69/1563 KB   92/124 KB   70/70 KB   69/1563 KB   96/124 KB   70/70 KB   69/1563 KB   100/124 KB   70/70 KB   69/1563 KB   104/124 KB   70/70 KB   69/1563 KB   108/124 KB   70/70 KB   71/1563 KB   108/124 KB   70/70 KB   71/1563 KB   112/124 KB   70/70 KB   75/1563 KB   112/124 KB   70/70 KB   75/1563 KB   113/124 KB   70/70 KB   79/1563 KB   113/124 KB   70/70 KB   83/1563 KB   113/124 KB   70/70 KB   87/1563 KB   113/124 KB   70/70 KB   91/1563 KB   113/124 KB   70/70 KB   95/1563 KB   113/124 KB   70/70 KB   99/1563 KB   113/124 KB   70/70 KB   103/1563 KB   113/124 KB   70/70 KB   107/1563 KB   113/124 KB   70/70 KB   111/1563 KB   113/124 KB   70/70 KB   113/1563 KB   113/124 KB   70/70 KB   113/1563 KB   116/124 KB   70/70 KB   113/1563 KB   120/124 KB   70/70 KB   113/1563 KB   124/124 KB   70/70 KB   113/1563 KB   124/124 KB                                         Downloaded: http://repo.maven.apache.org/maven2/commons-discovery/commons-discovery/0.2/commons-discovery-0.2.jar (70 KB at 516.8 KB/sec)
115/1563 KB   124/124 KB              119/1563 KB   124/124 KB   123/1563 KB   124/124 KB   127/1563 KB   124/124 KB   131/1563 KB   124/124 KB   135/1563 KB   124/124 KB   139/1563 KB   124/124 KB   143/1563 KB   124/124 KB   147/1563 KB   124/124 KB   151/1563 KB   124/124 KB   155/1563 KB   124/124 KB   156/1563 KB   124/124 KB                              Downloaded: http://repo.maven.apache.org/maven2/axis/axis-wsdl4j/1.5.1/axis-wsdl4j-1.5.1.jar (124 KB at 788.5 KB/sec)
158/1563 KB                162/1563 KB   166/1563 KB   170/1563 KB   174/1563 KB   178/1563 KB   182/1563 KB   186/1563 KB   190/1563 KB   194/1563 KB   198/1563 KB   199/1563 KB   202/1563 KB   206/1563 KB   210/1563 KB   214/1563 KB   218/1563 KB   222/1563 KB   226/1563 KB   230/1563 KB   234/1563 KB   238/1563 KB   242/1563 KB   246/1563 KB   250/1563 KB   254/1563 KB   258/1563 KB   260/1563 KB   263/1563 KB   267/1563 KB   271/1563 KB   275/1563 KB   279/1563 KB   283/1563 KB   287/1563 KB   291/1563 KB   295/1563 KB   299/1563 KB   303/1563 KB   307/1563 KB   308/1563 KB   311/1563 KB   314/1563 KB   315/1563 KB   317/1563 KB   318/1563 KB   320/1563 KB   321/1563 KB   322/1563 KB   324/1563 KB   325/1563 KB   327/1563 KB   328/1563 KB   330/1563 KB   331/1563 KB   332/1563 KB   334/1563 KB   335/1563 KB   337/1563 KB   338/1563 KB   339/1563 KB   341/1563 KB   342/1563 KB   344/1563 KB   345/1563 KB   347/1563 KB   349/1563 KB   351/1563 KB   352/1563 KB   354/1563 KB   355/1563 KB   356/1563 KB   358/1563 KB   359/1563 KB   361/1563 KB   362/1563 KB   363/1563 KB   365/1563 KB   366/1563 KB   368/1563 KB   369/1563 KB   373/1563 KB   377/1563 KB   381/1563 KB   385/1563 KB   389/1563 KB   393/1563 KB   397/1563 KB   401/1563 KB   405/1563 KB   409/1563 KB   413/1563 KB   417/1563 KB   421/1563 KB   425/1563 KB   429/1563 KB   433/1563 KB   437/1563 KB   441/1563 KB   445/1563 KB   449/1563 KB   453/1563 KB   457/1563 KB   461/1563 KB   465/1563 KB   468/1563 KB   471/1563 KB   472/1563 KB   474/1563 KB   477/1563 KB   478/1563 KB   479/1563 KB   481/1563 KB   482/1563 KB   484/1563 KB   485/1563 KB   487/1563 KB   488/1563 KB   489/1563 KB   491/1563 KB   492/1563 KB   494/1563 KB   495/1563 KB   496/1563 KB   498/1563 KB   499/1563 KB   501/1563 KB   503/1563 KB   505/1563 KB   506/1563 KB   508/1563 KB   509/1563 KB   511/1563 KB   512/1563 KB   513/1563 KB   515/1563 KB   516/1563 KB   518/1563 KB   519/1563 KB   520/1563 KB   522/1563 KB   523/1563 KB   525/1563 KB   529/1563 KB   533/1563 KB   537/1563 KB   541/1563 KB   545/1563 KB   549/1563 KB   553/1563 KB   557/1563 KB   561/1563 KB   565/1563 KB   569/1563 KB   573/1563 KB   577/1563 KB   581/1563 KB   585/1563 KB   589/1563 KB   593/1563 KB   597/1563 KB   597/1563 KB   598/1563 KB   600/1563 KB   602/1563 KB   604/1563 KB   605/1563 KB   607/1563 KB   608/1563 KB   610/1563 KB   611/1563 KB   614/1563 KB   615/1563 KB   617/1563 KB   618/1563 KB   619/1563 KB   621/1563 KB   622/1563 KB   624/1563 KB   625/1563 KB   627/1563 KB   628/1563 KB   629/1563 KB   631/1563 KB   632/1563 KB   634/1563 KB   635/1563 KB   636/1563 KB   638/1563 KB   639/1563 KB   641/1563 KB   642/1563 KB   645/1563 KB   648/1563 KB   651/1563 KB   653/1563 KB   655/1563 KB   656/1563 KB   658/1563 KB   659/1563 KB   660/1563 KB   663/1563 KB   665/1563 KB   666/1563 KB   668/1563 KB   669/1563 KB   670/1563 KB   672/1563 KB   673/1563 KB   675/1563 KB   676/1563 KB   677/1563 KB   679/1563 KB   680/1563 KB   682/1563 KB   683/1563 KB   684/1563 KB   686/1563 KB   687/1563 KB   689/1563 KB   690/1563 KB   692/1563 KB   693/1563 KB   694/1563 KB   696/1563 KB   697/1563 KB   699/1563 KB   700/1563 KB   701/1563 KB   703/1563 KB   704/1563 KB   706/1563 KB   707/1563 KB   709/1563 KB   710/1563 KB   711/1563 KB   713/1563 KB   714/1563 KB   716/1563 KB   717/1563 KB   718/1563 KB   721/1563 KB   723/1563 KB   724/1563 KB   725/1563 KB   727/1563 KB   728/1563 KB   730/1563 KB   731/1563 KB   733/1563 KB   734/1563 KB   735/1563 KB   737/1563 KB   738/1563 KB   740/1563 KB   741/1563 KB   742/1563 KB   744/1563 KB   745/1563 KB   747/1563 KB   748/1563 KB   750/1563 KB   751/1563 KB   752/1563 KB   754/1563 KB   755/1563 KB   757/1563 KB   758/1563 KB   759/1563 KB   761/1563 KB   762/1563 KB   764/1563 KB   765/1563 KB   768/1563 KB   771/1563 KB   774/1563 KB   775/1563 KB   776/1563 KB   778/1563 KB   779/1563 KB   782/1563 KB   783/1563 KB   785/1563 KB   786/1563 KB   788/1563 KB   789/1563 KB   792/1563 KB   795/1563 KB   798/1563 KB   799/1563 KB   800/1563 KB   802/1563 KB   803/1563 KB   806/1563 KB   808/1563 KB   809/1563 KB   810/1563 KB   812/1563 KB   813/1563 KB   815/1563 KB   816/1563 KB   817/1563 KB   819/1563 KB   820/1563 KB   823/1563 KB   824/1563 KB   826/1563 KB   827/1563 KB   829/1563 KB   832/1563 KB   833/1563 KB   836/1563 KB   839/1563 KB   840/1563 KB   841/1563 KB   843/1563 KB   844/1563 KB   846/1563 KB   847/1563 KB   850/1563 KB   851/1563 KB   853/1563 KB   856/1563 KB   857/1563 KB   860/1563 KB   863/1563 KB   864/1563 KB   865/1563 KB   867/1563 KB   868/1563 KB   871/1563 KB   874/1563 KB   875/1563 KB   877/1563 KB   878/1563 KB   880/1563 KB   881/1563 KB   882/1563 KB   884/1563 KB   885/1563 KB   888/1563 KB   890/1563 KB   891/1563 KB   892/1563 KB   894/1563 KB   895/1563 KB   897/1563 KB   898/1563 KB   899/1563 KB   901/1563 KB   902/1563 KB   904/1563 KB   905/1563 KB   906/1563 KB   908/1563 KB   909/1563 KB   911/1563 KB   912/1563 KB   915/1563 KB   916/1563 KB   918/1563 KB   921/1563 KB   922/1563 KB   925/1563 KB   926/1563 KB   929/1563 KB   932/1563 KB   935/1563 KB   936/1563 KB   938/1563 KB   939/1563 KB   940/1563 KB   942/1563 KB   943/1563 KB   945/1563 KB   946/1563 KB   949/1563 KB   950/1563 KB   952/1563 KB   953/1563 KB   955/1563 KB   957/1563 KB   959/1563 KB   960/1563 KB   963/1563 KB   966/1563 KB   969/1563 KB   970/1563 KB   972/1563 KB   973/1563 KB   974/1563 KB   976/1563 KB   977/1563 KB   980/1563 KB   983/1563 KB   984/1563 KB   987/1563 KB   989/1563 KB   990/1563 KB   991/1563 KB   994/1563 KB   996/1563 KB   997/1563 KB   998/1563 KB   1001/1563 KB   1003/1563 KB   1004/1563 KB   1005/1563 KB   1007/1563 KB   1008/1563 KB   1010/1563 KB   1011/1563 KB   1013/1563 KB   1014/1563 KB   1015/1563 KB   1017/1563 KB   1018/1563 KB   1020/1563 KB   1021/1563 KB   1024/1563 KB   1027/1563 KB   1028/1563 KB   1030/1563 KB   1032/1563 KB   1035/1563 KB   1037/1563 KB   1038/1563 KB   1039/1563 KB   1041/1563 KB   1042/1563 KB   1044/1563 KB   1046/1563 KB   1049/1563 KB   1052/1563 KB   1055/1563 KB   1056/1563 KB   1059/1563 KB   1061/1563 KB   1062/1563 KB   1063/1563 KB   1066/1563 KB   1068/1563 KB   1069/1563 KB   1071/1563 KB   1072/1563 KB   1073/1563 KB   1075/1563 KB   1076/1563 KB   1078/1563 KB   1079/1563 KB   1080/1563 KB   1082/1563 KB   1083/1563 KB   1085/1563 KB   1087/1563 KB   1089/1563 KB   1090/1563 KB   1093/1563 KB   1095/1563 KB   1096/1563 KB   1099/1563 KB   1102/1563 KB   1103/1563 KB   1104/1563 KB   1107/1563 KB   1109/1563 KB   1110/1563 KB   1112/1563 KB   1113/1563 KB   1114/1563 KB   1116/1563 KB   1117/1563 KB   1119/1563 KB   1120/1563 KB   1121/1563 KB   1123/1563 KB   1124/1563 KB   1126/1563 KB   1129/1563 KB   1130/1563 KB   1131/1563 KB   1133/1563 KB   1134/1563 KB   1136/1563 KB   1137/1563 KB   1138/1563 KB   1140/1563 KB   1141/1563 KB   1143/1563 KB   1144/1563 KB   1145/1563 KB   1147/1563 KB   1148/1563 KB   1150/1563 KB   1151/1563 KB   1153/1563 KB   1154/1563 KB   1155/1563 KB   1157/1563 KB   1158/1563 KB   1160/1563 KB   1161/1563 KB   1162/1563 KB   1164/1563 KB   1165/1563 KB   1167/1563 KB   1168/1563 KB   1170/1563 KB   1171/1563 KB   1172/1563 KB   1174/1563 KB   1175/1563 KB   1177/1563 KB   1178/1563 KB   1179/1563 KB   1181/1563 KB   1182/1563 KB   1184/1563 KB   1185/1563 KB   1186/1563 KB   1188/1563 KB   1189/1563 KB   1191/1563 KB   1194/1563 KB   1195/1563 KB   1196/1563 KB   1198/1563 KB   1199/1563 KB   1201/1563 KB   1202/1563 KB   1203/1563 KB   1205/1563 KB   1206/1563 KB   1208/1563 KB   1209/1563 KB   1211/1563 KB   1212/1563 KB   1213/1563 KB   1215/1563 KB   1216/1563 KB   1218/1563 KB   1219/1563 KB   1220/1563 KB   1222/1563 KB   1223/1563 KB   1225/1563 KB   1226/1563 KB   1227/1563 KB   1229/1563 KB   1230/1563 KB   1232/1563 KB   1233/1563 KB   1235/1563 KB   1236/1563 KB   1237/1563 KB   1239/1563 KB   1240/1563 KB   1242/1563 KB   1243/1563 KB   1244/1563 KB   1246/1563 KB   1247/1563 KB   1249/1563 KB   1252/1563 KB   1254/1563 KB   1257/1563 KB   1260/1563 KB   1263/1563 KB   1266/1563 KB   1267/1563 KB   1268/1563 KB   1270/1563 KB   1271/1563 KB   1273/1563 KB   1274/1563 KB   1276/1563 KB   1277/1563 KB   1278/1563 KB   1280/1563 KB   1281/1563 KB   1283/1563 KB   1284/1563 KB   1285/1563 KB   1287/1563 KB   1288/1563 KB   1290/1563 KB   1291/1563 KB   1293/1563 KB   1294/1563 KB   1295/1563 KB   1297/1563 KB   1300/1563 KB   1301/1563 KB   1302/1563 KB   1304/1563 KB   1305/1563 KB   1307/1563 KB   1308/1563 KB   1310/1563 KB   1311/1563 KB   1312/1563 KB   1314/1563 KB   1317/1563 KB   1318/1563 KB   1319/1563 KB   1321/1563 KB   1322/1563 KB   1324/1563 KB   1325/1563 KB   1328/1563 KB   1329/1563 KB   1331/1563 KB   1332/1563 KB   1334/1563 KB   1336/1563 KB   1338/1563 KB   1339/1563 KB   1341/1563 KB   1342/1563 KB   1343/1563 KB   1345/1563 KB   1346/1563 KB   1348/1563 KB   1349/1563 KB   1351/1563 KB   1352/1563 KB   1353/1563 KB   1355/1563 KB   1356/1563 KB   1358/1563 KB   1359/1563 KB   1360/1563 KB   1362/1563 KB   1363/1563 KB   1365/1563 KB   1366/1563 KB   1367/1563 KB   1369/1563 KB   1370/1563 KB   1372/1563 KB   1373/1563 KB   1375/1563 KB   1376/1563 KB   1377/1563 KB   1379/1563 KB   1380/1563 KB   1382/1563 KB   1383/1563 KB   1384/1563 KB   1386/1563 KB   1387/1563 KB   1389/1563 KB   1390/1563 KB   1392/1563 KB   1393/1563 KB   1394/1563 KB   1396/1563 KB   1397/1563 KB   1399/1563 KB   1400/1563 KB   1401/1563 KB   1403/1563 KB   1404/1563 KB   1406/1563 KB   1407/1563 KB   1408/1563 KB   1410/1563 KB   1411/1563 KB   1413/1563 KB   1414/1563 KB   1416/1563 KB   1417/1563 KB   1418/1563 KB   1420/1563 KB   1421/1563 KB   1423/1563 KB   1424/1563 KB   1425/1563 KB   1427/1563 KB   1428/1563 KB   1430/1563 KB   1431/1563 KB   1433/1563 KB   1434/1563 KB   1435/1563 KB   1437/1563 KB   1438/1563 KB   1440/1563 KB   1441/1563 KB   1442/1563 KB   1444/1563 KB   1445/1563 KB   1447/1563 KB   1448/1563 KB   1449/1563 KB   1451/1563 KB   1452/1563 KB   1454/1563 KB   1455/1563 KB   1457/1563 KB   1458/1563 KB   1459/1563 KB   1461/1563 KB   1462/1563 KB   1464/1563 KB   1465/1563 KB   1466/1563 KB   1468/1563 KB   1469/1563 KB   1471/1563 KB   1472/1563 KB   1474/1563 KB   1475/1563 KB   1478/1563 KB   1479/1563 KB   1481/1563 KB   1482/1563 KB   1483/1563 KB   1485/1563 KB   1486/1563 KB   1488/1563 KB   1489/1563 KB   1491/1563 KB   1492/1563 KB   1493/1563 KB   1495/1563 KB   1496/1563 KB   1498/1563 KB   1499/1563 KB   1500/1563 KB   1502/1563 KB   1503/1563 KB   1505/1563 KB   1506/1563 KB   1507/1563 KB   1509/1563 KB   1510/1563 KB   1512/1563 KB   1513/1563 KB   1515/1563 KB   1516/1563 KB   1517/1563 KB   1519/1563 KB   1520/1563 KB   1522/1563 KB   1523/1563 KB   1524/1563 KB   1526/1563 KB   1527/1563 KB   1529/1563 KB   1530/1563 KB   1532/1563 KB   1533/1563 KB   1534/1563 KB   1536/1563 KB   1537/1563 KB   1539/1563 KB   1540/1563 KB   1541/1563 KB   1543/1563 KB   1544/1563 KB   1546/1563 KB   1547/1563 KB   1548/1563 KB   1550/1563 KB   1551/1563 KB   1553/1563 KB   1554/1563 KB   1556/1563 KB   1557/1563 KB   1558/1563 KB   1560/1563 KB   1561/1563 KB   1563/1563 KB                  Downloaded: http://repo.maven.apache.org/maven2/axis/axis/1.4/axis-1.4.jar (1563 KB at 2460.0 KB/sec)
[INFO] 
[INFO] --- maven-plugin-plugin:2.9:descriptor (default-descriptor) @ maven-cayenne-doc-plugin ---
[ERROR] 

Artifact Ids of the format maven-___-plugin are reserved for 
plugins in the Group Id org.apache.maven.plugins
Please change your artifactId to the format ___-maven-plugin
In the future this error will break the build.


[WARNING] Using platform encoding (UTF-8 actually) to read mojo metadata, i.e. build is platform dependent!
[INFO] Applying mojo extractor for language: java
[INFO] Mojo extractor for language: java found 1 mojo descriptors.
[INFO] Applying mojo extractor for language: bsh
[INFO] Mojo extractor for language: bsh found 0 mojo descriptors.
[INFO] 
[INFO] --- maven-resources-plugin:2.4.3:resources (default-resources) @ maven-cayenne-doc-plugin ---
[INFO] Using 'UTF-8' encoding to copy filtered resources.
[INFO] Copying 1 resource
[INFO] 
[INFO] --- maven-compiler-plugin:2.3.2:compile (default-compile) @ maven-cayenne-doc-plugin ---
[WARNING] File encoding has not been set, using platform encoding UTF-8, i.e. build is platform dependent!
[INFO] Compiling 6 source files to /home/kamilos/qualitas_corpus/QualitasCorpus-20120401f/Systems/cayenne/cayenne-3.0.1/src/cayenne-3.0.1-src/build-tools/maven-cayenne-doc-plugin/target/classes
[INFO] 
[INFO] --- maven-resources-plugin:2.4.3:testResources (default-testResources) @ maven-cayenne-doc-plugin ---
[INFO] Using 'UTF-8' encoding to copy filtered resources.
[INFO] skip non existing resourceDirectory /home/kamilos/qualitas_corpus/QualitasCorpus-20120401f/Systems/cayenne/cayenne-3.0.1/src/cayenne-3.0.1-src/build-tools/maven-cayenne-doc-plugin/src/test/resources
[INFO] 
[INFO] --- maven-compiler-plugin:2.3.2:testCompile (default-testCompile) @ maven-cayenne-doc-plugin ---
[WARNING] File encoding has not been set, using platform encoding UTF-8, i.e. build is platform dependent!
[INFO] Compiling 1 source file to /home/kamilos/qualitas_corpus/QualitasCorpus-20120401f/Systems/cayenne/cayenne-3.0.1/src/cayenne-3.0.1-src/build-tools/maven-cayenne-doc-plugin/target/test-classes
[INFO] 
[INFO] --- maven-surefire-plugin:2.5:test (default-test) @ maven-cayenne-doc-plugin ---
Downloading: http://repo1.maven.org/maven2/org/apache/maven/surefire/surefire-junit/2.5/surefire-junit-2.5.pom
2/2 KB                  Downloaded: http://repo1.maven.org/maven2/org/apache/maven/surefire/surefire-junit/2.5/surefire-junit-2.5.pom (2 KB at 18.8 KB/sec)
Downloading: http://repo1.maven.org/maven2/org/apache/maven/surefire/surefire-providers/2.5/surefire-providers-2.5.pom
2/2 KB            Downloaded: http://repo1.maven.org/maven2/org/apache/maven/surefire/surefire-providers/2.5/surefire-providers-2.5.pom (2 KB at 33.6 KB/sec)
Downloading: http://repo1.maven.org/maven2/org/apache/maven/surefire/surefire-junit/2.5/surefire-junit-2.5.jar
3/16 KB   7/16 KB   11/16 KB   14/16 KB   16/16 KB              Downloaded: http://repo1.maven.org/maven2/org/apache/maven/surefire/surefire-junit/2.5/surefire-junit-2.5.jar (16 KB at 215.2 KB/sec)
[INFO] Surefire report directory: /home/kamilos/qualitas_corpus/QualitasCorpus-20120401f/Systems/cayenne/cayenne-3.0.1/src/cayenne-3.0.1-src/build-tools/maven-cayenne-doc-plugin/target/surefire-reports

-------------------------------------------------------
 T E S T S
-------------------------------------------------------
Running org.apache.cayenne.maven.plugin.confluence.DocPageTest
Tests run: 5, Failures: 0, Errors: 0, Skipped: 0, Time elapsed: 0.025 sec

Results :

Tests run: 5, Failures: 0, Errors: 0, Skipped: 0

[INFO] 
[INFO] --- maven-jar-plugin:2.3.1:jar (default-jar) @ maven-cayenne-doc-plugin ---
[INFO] Building jar: /home/kamilos/qualitas_corpus/QualitasCorpus-20120401f/Systems/cayenne/cayenne-3.0.1/src/cayenne-3.0.1-src/build-tools/maven-cayenne-doc-plugin/target/maven-cayenne-doc-plugin-3.0.1.jar
[INFO] 
[INFO] --- maven-plugin-plugin:2.9:addPluginArtifactMetadata (default-addPluginArtifactMetadata) @ maven-cayenne-doc-plugin ---
[INFO] 
[INFO] --- maven-install-plugin:2.3.1:install (default-install) @ maven-cayenne-doc-plugin ---
[INFO] Installing /home/kamilos/qualitas_corpus/QualitasCorpus-20120401f/Systems/cayenne/cayenne-3.0.1/src/cayenne-3.0.1-src/build-tools/maven-cayenne-doc-plugin/target/maven-cayenne-doc-plugin-3.0.1.jar to /home/kamilos/.m2/repository/org/apache/cayenne/build-tools/maven-cayenne-doc-plugin/3.0.1/maven-cayenne-doc-plugin-3.0.1.jar
[INFO] Installing /home/kamilos/qualitas_corpus/QualitasCorpus-20120401f/Systems/cayenne/cayenne-3.0.1/src/cayenne-3.0.1-src/build-tools/maven-cayenne-doc-plugin/pom.xml to /home/kamilos/.m2/repository/org/apache/cayenne/build-tools/maven-cayenne-doc-plugin/3.0.1/maven-cayenne-doc-plugin-3.0.1.pom
[INFO] ------------------------------------------------------------------------
[INFO] BUILD SUCCESS
[INFO] ------------------------------------------------------------------------
[INFO] Total time: 5.450s
[INFO] Finished at: Thu Jan 30 22:52:02 CET 2014
[INFO] Final Memory: 20M/215M
[INFO] ------------------------------------------------------------------------
