[INFO] Scanning for projects...
[INFO]                                                                         
[INFO] ------------------------------------------------------------------------
[INFO] Building Checkstyle 4.3
[INFO] ------------------------------------------------------------------------
Downloading: http://repo.maven.apache.org/maven2/commons-beanutils/commons-beanutils-core/1.7.0/commons-beanutils-core-1.7.0.jar
Downloading: http://repo.maven.apache.org/maven2/junit/junit/3.7/junit-3.7.jar
Downloading: http://repo.maven.apache.org/maven2/commons-lang/commons-lang/1.0/commons-lang-1.0.jar
Downloading: http://repo.maven.apache.org/maven2/antlr/antlr/2.7.6/antlr-2.7.6.jar
2/165 KB   1/63 KB   3/115 KB   2/165 KB   1/63 KB   3/115 KB   2/165 KB   1/63 KB   3/115 KB   6/165 KB   5/63 KB   3/115 KB   6/165 KB   5/63 KB   3/115 KB   6/165 KB   5/63 KB   7/115 KB   6/165 KB   9/63 KB   7/115 KB   10/165 KB   9/63 KB   7/115 KB   10/165 KB   9/63 KB   11/115 KB   10/165 KB   13/63 KB   11/115 KB   11/165 KB   13/63 KB   11/115 KB   11/165 KB   13/63 KB   15/115 KB   11/165 KB   17/63 KB   15/115 KB   11/165 KB   17/63 KB   19/115 KB   11/165 KB   21/63 KB   19/115 KB   11/165 KB   21/63 KB   23/115 KB   11/165 KB   25/63 KB   23/115 KB   11/165 KB   25/63 KB   27/115 KB   11/165 KB   29/63 KB   27/115 KB   11/165 KB   29/63 KB   31/115 KB   11/165 KB   33/63 KB   31/115 KB   11/165 KB   33/63 KB   35/115 KB   11/165 KB   37/63 KB   35/115 KB   11/165 KB   37/63 KB   39/115 KB   11/165 KB   41/63 KB   39/115 KB   11/165 KB   41/63 KB   41/115 KB   11/165 KB   41/63 KB   44/115 KB   11/165 KB   41/63 KB   48/115 KB   11/165 KB   41/63 KB   52/115 KB   11/165 KB   43/63 KB   52/115 KB   11/165 KB   47/63 KB   52/115 KB   11/165 KB   47/63 KB   56/115 KB   11/165 KB   51/63 KB   56/115 KB   11/165 KB   51/63 KB   60/115 KB   11/165 KB   55/63 KB   60/115 KB   13/165 KB   55/63 KB   60/115 KB   13/165 KB   55/63 KB   61/115 KB   13/165 KB   59/63 KB   61/115 KB   13/165 KB   59/63 KB   61/115 KB   13/165 KB   63/63 KB   61/115 KB   13/165 KB   63/63 KB   62/115 KB   13/165 KB   63/63 KB   65/115 KB   13/165 KB   63/63 KB   69/115 KB   13/165 KB   63/63 KB   73/115 KB   13/165 KB   63/63 KB   76/115 KB   13/165 KB   63/63 KB   79/115 KB   13/165 KB   63/63 KB   83/115 KB   13/165 KB   63/63 KB   87/115 KB   13/165 KB   63/63 KB   91/115 KB   13/165 KB   63/63 KB   95/115 KB   17/165 KB   63/63 KB   95/115 KB   17/165 KB   63/63 KB   99/115 KB   21/165 KB   63/63 KB   99/115 KB   21/165 KB   63/63 KB   103/115 KB   21/165 KB   63/63 KB   103/115 KB   21/165 KB   63/63 KB   107/115 KB   21/165 KB   63/63 KB   111/115 KB   21/165 KB   63/63 KB   115/115 KB                                       Downloaded: http://repo.maven.apache.org/maven2/commons-lang/commons-lang/1.0/commons-lang-1.0.jar (63 KB at 250.5 KB/sec)
24/165 KB   115/115 KB              28/165 KB   115/115 KB   32/165 KB   115/115 KB   33/165 KB   115/115 KB                            Downloaded: http://repo.maven.apache.org/maven2/junit/junit/3.7/junit-3.7.jar (115 KB at 423.5 KB/sec)
34/165 KB                35/165 KB   39/165 KB   43/165 KB   47/165 KB   51/165 KB               Downloaded: http://repo.maven.apache.org/maven2/antlr/antlr/2.7.6/antlr-2.7.6.jar (0 B at 0.0 KB/sec)
55/165 KB   59/165 KB   63/165 KB   65/165 KB   68/165 KB   72/165 KB   76/165 KB   80/165 KB   84/165 KB   85/165 KB   88/165 KB   92/165 KB   96/165 KB   100/165 KB   104/165 KB   105/165 KB   108/165 KB   112/165 KB   115/165 KB   119/165 KB   123/165 KB   125/165 KB   127/165 KB   131/165 KB   134/165 KB   137/165 KB   140/165 KB   144/165 KB   144/165 KB   147/165 KB   150/165 KB   153/165 KB   156/165 KB   160/165 KB   164/165 KB   164/165 KB   165/165 KB                Downloaded: http://repo.maven.apache.org/maven2/commons-beanutils/commons-beanutils-core/1.7.0/commons-beanutils-core-1.7.0.jar (165 KB at 363.0 KB/sec)
[INFO] 
[INFO] --- maven-resources-plugin:2.5:resources (default-resources) @ checkstyle ---
[debug] execute contextualize
[WARNING] Using platform encoding (UTF-8 actually) to copy filtered resources, i.e. build is platform dependent!
[INFO] skip non existing resourceDirectory /home/kamilos/qualitas_corpus/QualitasCorpus-20120401f/Systems/checkstyle/checkstyle-4.3/bin/checkstyle-4.3/src/main/resources
[INFO] 
[INFO] --- maven-compiler-plugin:2.3.2:compile (default-compile) @ checkstyle ---
[INFO] No sources to compile
[INFO] 
[INFO] --- maven-resources-plugin:2.5:testResources (default-testResources) @ checkstyle ---
[debug] execute contextualize
[WARNING] Using platform encoding (UTF-8 actually) to copy filtered resources, i.e. build is platform dependent!
[INFO] skip non existing resourceDirectory /home/kamilos/qualitas_corpus/QualitasCorpus-20120401f/Systems/checkstyle/checkstyle-4.3/bin/checkstyle-4.3/src/test/resources
[INFO] 
[INFO] --- maven-compiler-plugin:2.3.2:testCompile (default-testCompile) @ checkstyle ---
[INFO] No sources to compile
[INFO] 
[INFO] --- maven-surefire-plugin:2.10:test (default-test) @ checkstyle ---
[INFO] No tests to run.
[INFO] Surefire report directory: /home/kamilos/qualitas_corpus/QualitasCorpus-20120401f/Systems/checkstyle/checkstyle-4.3/bin/checkstyle-4.3/target/surefire-reports

-------------------------------------------------------
 T E S T S
-------------------------------------------------------

Results :

Tests run: 0, Failures: 0, Errors: 0, Skipped: 0

[INFO] 
[INFO] --- maven-jar-plugin:2.3.2:jar (default-jar) @ checkstyle ---
[WARNING] JAR will be empty - no content was marked for inclusion!
[INFO] Building jar: /home/kamilos/qualitas_corpus/QualitasCorpus-20120401f/Systems/checkstyle/checkstyle-4.3/bin/checkstyle-4.3/target/checkstyle-4.3.jar
[INFO] 
[INFO] --- maven-install-plugin:2.3.1:install (default-install) @ checkstyle ---
[INFO] Installing /home/kamilos/qualitas_corpus/QualitasCorpus-20120401f/Systems/checkstyle/checkstyle-4.3/bin/checkstyle-4.3/target/checkstyle-4.3.jar to /home/kamilos/.m2/repository/checkstyle/checkstyle/4.3/checkstyle-4.3.jar
[INFO] Installing /home/kamilos/qualitas_corpus/QualitasCorpus-20120401f/Systems/checkstyle/checkstyle-4.3/bin/checkstyle-4.3/pom.xml to /home/kamilos/.m2/repository/checkstyle/checkstyle/4.3/checkstyle-4.3.pom
[INFO] ------------------------------------------------------------------------
[INFO] BUILD SUCCESS
[INFO] ------------------------------------------------------------------------
[INFO] Total time: 1.890s
[INFO] Finished at: Thu Jan 30 22:52:19 CET 2014
[INFO] Final Memory: 9M/150M
[INFO] ------------------------------------------------------------------------
