[INFO] Scanning for projects...
[WARNING] 
[WARNING] Some problems were encountered while building the effective model for org.hibernate:hibernate-ehcache:jar:3.3.2.GA
[WARNING] The expression ${groupId} is deprecated. Please use ${project.groupId} instead.
[WARNING] The expression ${version} is deprecated. Please use ${project.version} instead.
[WARNING] The expression ${groupId} is deprecated. Please use ${project.groupId} instead.
[WARNING] The expression ${version} is deprecated. Please use ${project.version} instead.
[WARNING] 'reporting.plugins.plugin.version' for org.apache.maven.plugins:maven-javadoc-plugin is missing. @ org.hibernate:hibernate-parent:3.3.2.GA, /home/kamilos/qualitas_corpus/QualitasCorpus-20120401f/Systems/hibernate/hibernate-3.3.2-ga/src/hibernate-distribution-3.3.2.GA/project/parent/pom.xml, line 217, column 21
[WARNING] 
[WARNING] It is highly recommended to fix these problems because they threaten the stability of your build.
[WARNING] 
[WARNING] For this reason, future Maven versions might no longer support building such malformed projects.
[WARNING] 
[INFO]                                                                         
[INFO] ------------------------------------------------------------------------
[INFO] Building Hibernate Ehcache Integration 3.3.2.GA
[INFO] ------------------------------------------------------------------------
[WARNING] The POM for hsqldb:hsqldb:jar:1.8.0.2 is missing, no dependency information available
[WARNING] The POM for commons-logging:commons-logging:jar:99.0-does-not-exist is missing, no dependency information available
[WARNING] The POM for commons-logging:commons-logging-api:jar:99.0-does-not-exist is missing, no dependency information available
Downloading: http://repo.maven.apache.org/maven2/javassist/javassist/3.9.0.GA/javassist-3.9.0.GA.jar
Downloading: http://repo.maven.apache.org/maven2/asm/asm/3.1/asm-3.1.jar
Downloading: http://repo.maven.apache.org/maven2/org/hibernate/hibernate-core/3.3.2.GA/hibernate-core-3.3.2.GA.jar
Downloading: http://repo.maven.apache.org/maven2/org/hibernate/hibernate-testing/3.3.2.GA/hibernate-testing-3.3.2.GA.jar
Downloading: http://repo.maven.apache.org/maven2/cglib/cglib/2.2/cglib-2.2.jar
3/584 KB   7/584 KB   11/584 KB   14/584 KB   17/584 KB   21/584 KB   25/584 KB   29/584 KB   33/584 KB   37/584 KB   41/584 KB   41/584 KB   44/584 KB   48/584 KB   52/584 KB   56/584 KB   60/584 KB   64/584 KB   68/584 KB   69/584 KB   72/584 KB   76/584 KB   80/584 KB   84/584 KB   88/584 KB   92/584 KB   96/584 KB   100/584 KB   104/584 KB   106/584 KB   109/584 KB   113/584 KB   117/584 KB   121/584 KB   125/584 KB   129/584 KB   133/584 KB   137/584 KB   137/584 KB   140/584 KB   144/584 KB   148/584 KB   152/584 KB   156/584 KB   160/584 KB   164/584 KB   168/584 KB   172/584 KB   176/584 KB   180/584 KB   184/584 KB   188/584 KB   192/584 KB   192/584 KB   195/584 KB   199/584 KB   203/584 KB   207/584 KB   211/584 KB   215/584 KB   219/584 KB   223/584 KB   227/584 KB   231/584 KB   232/584 KB                Downloaded: http://repo.maven.apache.org/maven2/org/hibernate/hibernate-core/3.3.2.GA/hibernate-core-3.3.2.GA.jar (0 B at 0.0 KB/sec)
Downloading: http://repo.maven.apache.org/maven2/org/slf4j/jcl-over-slf4j/1.5.8/jcl-over-slf4j-1.5.8.jar
235/584 KB   239/584 KB   243/584 KB   247/584 KB   251/584 KB   255/584 KB   259/584 KB   263/584 KB   267/584 KB   267/584 KB   267/584 KB   3/17 KB   267/584 KB   7/17 KB   267/584 KB   11/17 KB   267/584 KB   14/17 KB   269/584 KB   14/17 KB   273/584 KB   14/17 KB   277/584 KB   14/17 KB   281/584 KB   14/17 KB   285/584 KB   14/17 KB   289/584 KB   14/17 KB   293/584 KB   14/17 KB   297/584 KB   14/17 KB   301/584 KB   14/17 KB   305/584 KB   14/17 KB   309/584 KB   14/17 KB   309/584 KB   16/17 KB   313/584 KB   16/17 KB   313/584 KB   17/17 KB   317/584 KB   17/17 KB   321/584 KB   17/17 KB   325/584 KB   17/17 KB   329/584 KB   17/17 KB   333/584 KB   17/17 KB   337/584 KB   17/17 KB   341/584 KB   17/17 KB   345/584 KB   17/17 KB   349/584 KB   17/17 KB   353/584 KB   17/17 KB   356/584 KB   17/17 KB   358/584 KB   17/17 KB   359/584 KB   17/17 KB   362/584 KB   17/17 KB   366/584 KB   17/17 KB   370/584 KB   17/17 KB   374/584 KB   17/17 KB   378/584 KB   17/17 KB   382/584 KB   17/17 KB   386/584 KB   17/17 KB   390/584 KB   17/17 KB   394/584 KB   17/17 KB   395/584 KB   17/17 KB                           Downloaded: http://repo.maven.apache.org/maven2/org/slf4j/jcl-over-slf4j/1.5.8/jcl-over-slf4j-1.5.8.jar (17 KB at 235.2 KB/sec)
Downloading: http://repo.maven.apache.org/maven2/org/slf4j/slf4j-log4j12/1.5.8/slf4j-log4j12-1.5.8.jar
396/584 KB              399/584 KB   400/584 KB   400/584 KB   1/10 KB   403/584 KB   1/10 KB   403/584 KB   5/10 KB   403/584 KB   9/10 KB   403/584 KB   10/10 KB   405/584 KB   10/10 KB   409/584 KB   10/10 KB   413/584 KB   10/10 KB   417/584 KB   10/10 KB   421/584 KB   10/10 KB   425/584 KB   10/10 KB   429/584 KB   10/10 KB   433/584 KB   10/10 KB   437/584 KB   10/10 KB   441/584 KB   10/10 KB   445/584 KB   10/10 KB   449/584 KB   10/10 KB   453/584 KB   10/10 KB   457/584 KB   10/10 KB   461/584 KB   10/10 KB   465/584 KB   10/10 KB   469/584 KB   10/10 KB   473/584 KB   10/10 KB   477/584 KB   10/10 KB   481/584 KB   10/10 KB   485/584 KB   10/10 KB   489/584 KB   10/10 KB   493/584 KB   10/10 KB   497/584 KB   10/10 KB   501/584 KB   10/10 KB   505/584 KB   10/10 KB                           Downloaded: http://repo.maven.apache.org/maven2/org/slf4j/slf4j-log4j12/1.5.8/slf4j-log4j12-1.5.8.jar (10 KB at 185.3 KB/sec)
509/584 KB              513/584 KB   517/584 KB   521/584 KB   525/584 KB   529/584 KB                Downloaded: http://repo.maven.apache.org/maven2/asm/asm/3.1/asm-3.1.jar (0 B at 0.0 KB/sec)
533/584 KB   537/584 KB   541/584 KB   545/584 KB   549/584 KB   550/584 KB   553/584 KB   554/584 KB   556/584 KB   559/584 KB   560/584 KB   563/584 KB   566/584 KB   569/584 KB   571/584 KB   574/584 KB   576/584 KB   577/584 KB   580/584 KB   583/584 KB   584/584 KB                Downloaded: http://repo.maven.apache.org/maven2/cglib/cglib/2.2/cglib-2.2.jar (0 B at 0.0 KB/sec)
             Downloaded: http://repo.maven.apache.org/maven2/javassist/javassist/3.9.0.GA/javassist-3.9.0.GA.jar (584 KB at 1203.0 KB/sec)
3/31 KB      7/31 KB   11/31 KB   14/31 KB   17/31 KB   21/31 KB   25/31 KB   29/31 KB   31/31 KB              Downloaded: http://repo.maven.apache.org/maven2/org/hibernate/hibernate-testing/3.3.2.GA/hibernate-testing-3.3.2.GA.jar (31 KB at 46.2 KB/sec)
[INFO] ------------------------------------------------------------------------
[INFO] BUILD FAILURE
[INFO] ------------------------------------------------------------------------
[INFO] Total time: 1.307s
[INFO] Finished at: Fri Jan 31 00:39:36 CET 2014
[INFO] Final Memory: 5M/119M
[INFO] ------------------------------------------------------------------------
[ERROR] Failed to execute goal on project hibernate-ehcache: Could not resolve dependencies for project org.hibernate:hibernate-ehcache:jar:3.3.2.GA: The following artifacts could not be resolved: hsqldb:hsqldb:jar:1.8.0.2, commons-logging:commons-logging:jar:99.0-does-not-exist, commons-logging:commons-logging-api:jar:99.0-does-not-exist: Failure to find hsqldb:hsqldb:jar:1.8.0.2 in http://repo.maven.apache.org/maven2 was cached in the local repository, resolution will not be reattempted until the update interval of central has elapsed or updates are forced -> [Help 1]
[ERROR] 
[ERROR] To see the full stack trace of the errors, re-run Maven with the -e switch.
[ERROR] Re-run Maven using the -X switch to enable full debug logging.
[ERROR] 
[ERROR] For more information about the errors and possible solutions, please read the following articles:
[ERROR] [Help 1] http://cwiki.apache.org/confluence/display/MAVEN/DependencyResolutionException
