[INFO] Scanning for projects...
[WARNING] 
[WARNING] Some problems were encountered while building the effective model for org.hibernate:hibernate-distribution:pom:3.3.0.SP1
[WARNING] The expression ${pom.url} is deprecated. Please use ${project.url} instead.
[WARNING] 'reporting.plugins.plugin.version' for org.apache.maven.plugins:maven-javadoc-plugin is missing. @ org.hibernate:hibernate-parent:3.3.0.SP1, /home/kamilos/qualitas_corpus/QualitasCorpus-20120401f/Systems/hibernate/hibernate-3.3.0-sp1/src/hibernate-distribution-3.3.0.SP1/project/parent/pom.xml, line 217, column 21
[WARNING] 
[WARNING] It is highly recommended to fix these problems because they threaten the stability of your build.
[WARNING] 
[WARNING] For this reason, future Maven versions might no longer support building such malformed projects.
[WARNING] 
[INFO]                                                                         
[INFO] ------------------------------------------------------------------------
[INFO] Building Hibernate Distribution 3.3.0.SP1
[INFO] ------------------------------------------------------------------------
[WARNING] The POM for org.jboss.cache:jbosscache-core:jar:2.1.1.GA is missing, no dependency information available
Downloading: http://repo.maven.apache.org/maven2/org/hibernate/hibernate-ehcache/3.3.0.SP1/hibernate-ehcache-3.3.0.SP1.jar
Downloading: http://repo.maven.apache.org/maven2/org/hibernate/hibernate-jbosscache/3.3.0.SP1/hibernate-jbosscache-3.3.0.SP1.jar
Downloading: http://repo.maven.apache.org/maven2/org/hibernate/hibernate-jbosscache2/3.3.0.SP1/hibernate-jbosscache2-3.3.0.SP1.jar
Downloading: http://repo.maven.apache.org/maven2/org/hibernate/hibernate-oscache/3.3.0.SP1/hibernate-oscache-3.3.0.SP1.jar
Downloading: http://repo.maven.apache.org/maven2/org/hibernate/hibernate-jmx/3.3.0.SP1/hibernate-jmx-3.3.0.SP1.jar
1/19 KB   3/5 KB   1/7 KB   1/59 KB   1/19 KB   3/5 KB   1/7 KB   1/59 KB   1/19 KB   3/5 KB   1/7 KB   1/59 KB   1/19 KB   3/5 KB   1/7 KB   1/59 KB   5/19 KB   3/5 KB   5/7 KB   1/59 KB   5/19 KB   3/5 KB   5/7 KB   1/59 KB   5/19 KB   3/5 KB   5/7 KB   5/59 KB   5/19 KB   5/5 KB   5/7 KB   5/59 KB   9/19 KB   5/5 KB   5/7 KB   5/59 KB   9/19 KB   5/5 KB   7/7 KB   9/59 KB   9/19 KB   5/5 KB   7/7 KB   9/59 KB   11/19 KB   5/5 KB   7/7 KB   9/59 KB   11/19 KB   5/5 KB   7/7 KB   13/59 KB   11/19 KB   5/5 KB   7/7 KB   14/59 KB   11/19 KB   5/5 KB   7/7 KB   17/59 KB   11/19 KB   5/5 KB   7/7 KB   21/59 KB   11/19 KB   5/5 KB   7/7 KB   25/59 KB   11/19 KB   5/5 KB   7/7 KB   29/59 KB   11/19 KB   5/5 KB   7/7 KB   33/59 KB   11/19 KB   5/5 KB   7/7 KB   37/59 KB   11/19 KB   5/5 KB   7/7 KB   41/59 KB   11/19 KB   5/5 KB   7/7 KB   42/59 KB                                           Downloaded: http://repo.maven.apache.org/maven2/org/hibernate/hibernate-oscache/3.3.0.SP1/hibernate-oscache-3.3.0.SP1.jar (5 KB at 23.6 KB/sec)
Downloading: http://repo.maven.apache.org/maven2/org/hibernate/hibernate-swarmcache/3.3.0.SP1/hibernate-swarmcache-3.3.0.SP1.jar
11/19 KB   7/7 KB   44/59 KB            11/19 KB   7/7 KB   48/59 KB   11/19 KB   7/7 KB   52/59 KB   11/19 KB   7/7 KB   56/59 KB   15/19 KB   7/7 KB   56/59 KB   15/19 KB   7/7 KB   59/59 KB   19/19 KB   7/7 KB   59/59 KB   3/12 KB   19/19 KB   7/7 KB   59/59 KB   3/12 KB   19/19 KB   3/5 KB   7/7 KB   59/59 KB   3/12 KB   19/19 KB   5/5 KB   7/7 KB   59/59 KB                                                                                                       Downloaded: http://repo.maven.apache.org/maven2/org/hibernate/hibernate-jbosscache2/3.3.0.SP1/hibernate-jbosscache2-3.3.0.SP1.jar (59 KB at 255.5 KB/sec)
Downloaded: http://repo.maven.apache.org/maven2/org/hibernate/hibernate-jbosscache/3.3.0.SP1/hibernate-jbosscache-3.3.0.SP1.jar (19 KB at 78.6 KB/sec)
Downloading: http://repo.maven.apache.org/maven2/org/hibernate/hibernate-c3p0/3.3.0.SP1/hibernate-c3p0-3.3.0.SP1.jar
Downloading: http://repo.maven.apache.org/maven2/org/hibernate/hibernate-proxool/3.3.0.SP1/hibernate-proxool-3.3.0.SP1.jar
4/12 KB   5/5 KB   7/7 KB                         7/12 KB   5/5 KB   7/7 KB                               Downloaded: http://repo.maven.apache.org/maven2/org/hibernate/hibernate-swarmcache/3.3.0.SP1/hibernate-swarmcache-3.3.0.SP1.jar (5 KB at 89.7 KB/sec)
10/12 KB   7/7 KB           12/12 KB   7/7 KB   12/12 KB   7/7 KB   3/5 KB   1/6 KB   12/12 KB   7/7 KB   3/5 KB   1/6 KB   12/12 KB   7/7 KB   5/5 KB   5/6 KB   12/12 KB   7/7 KB   5/5 KB   6/6 KB   12/12 KB   7/7 KB   5/5 KB                                         Downloaded: http://repo.maven.apache.org/maven2/org/hibernate/hibernate-jmx/3.3.0.SP1/hibernate-jmx-3.3.0.SP1.jar (12 KB at 39.6 KB/sec)
                                      Downloaded: http://repo.maven.apache.org/maven2/org/hibernate/hibernate-proxool/3.3.0.SP1/hibernate-proxool-3.3.0.SP1.jar (5 KB at 77.1 KB/sec)
                                      Downloaded: http://repo.maven.apache.org/maven2/org/hibernate/hibernate-c3p0/3.3.0.SP1/hibernate-c3p0-3.3.0.SP1.jar (6 KB at 93.9 KB/sec)
                                      Downloaded: http://repo.maven.apache.org/maven2/org/hibernate/hibernate-ehcache/3.3.0.SP1/hibernate-ehcache-3.3.0.SP1.jar (7 KB at 23.5 KB/sec)
[INFO] ------------------------------------------------------------------------
[INFO] BUILD FAILURE
[INFO] ------------------------------------------------------------------------
[INFO] Total time: 0.946s
[INFO] Finished at: Fri Jan 31 00:39:09 CET 2014
[INFO] Final Memory: 6M/150M
[INFO] ------------------------------------------------------------------------
[ERROR] Failed to execute goal on project hibernate-distribution: Could not resolve dependencies for project org.hibernate:hibernate-distribution:pom:3.3.0.SP1: Failure to find org.jboss.cache:jbosscache-core:jar:2.1.1.GA in http://repo.maven.apache.org/maven2 was cached in the local repository, resolution will not be reattempted until the update interval of central has elapsed or updates are forced -> [Help 1]
[ERROR] 
[ERROR] To see the full stack trace of the errors, re-run Maven with the -e switch.
[ERROR] Re-run Maven using the -X switch to enable full debug logging.
[ERROR] 
[ERROR] For more information about the errors and possible solutions, please read the following articles:
[ERROR] [Help 1] http://cwiki.apache.org/confluence/display/MAVEN/DependencyResolutionException
