[INFO] Scanning for projects...
[INFO]                                                                         
[INFO] ------------------------------------------------------------------------
[INFO] Building Hibernate Core 3.6.1.Final
[INFO] ------------------------------------------------------------------------
[WARNING] The POM for commons-logging:commons-logging:jar:99.0-does-not-exist is missing, no dependency information available
[WARNING] The POM for commons-logging:commons-logging-api:jar:99.0-does-not-exist is missing, no dependency information available
[INFO] ------------------------------------------------------------------------
[INFO] BUILD FAILURE
[INFO] ------------------------------------------------------------------------
[INFO] Total time: 0.715s
[INFO] Finished at: Fri Jan 31 00:44:25 CET 2014
[INFO] Final Memory: 6M/150M
[INFO] ------------------------------------------------------------------------
[ERROR] Failed to execute goal on project hibernate-core: Could not resolve dependencies for project org.hibernate:hibernate-core:jar:3.6.1.Final: The following artifacts could not be resolved: commons-logging:commons-logging:jar:99.0-does-not-exist, commons-logging:commons-logging-api:jar:99.0-does-not-exist: Failure to find commons-logging:commons-logging:jar:99.0-does-not-exist in http://repo.maven.apache.org/maven2 was cached in the local repository, resolution will not be reattempted until the update interval of central has elapsed or updates are forced -> [Help 1]
[ERROR] 
[ERROR] To see the full stack trace of the errors, re-run Maven with the -e switch.
[ERROR] Re-run Maven using the -X switch to enable full debug logging.
[ERROR] 
[ERROR] For more information about the errors and possible solutions, please read the following articles:
[ERROR] [Help 1] http://cwiki.apache.org/confluence/display/MAVEN/DependencyResolutionException
