[INFO] Scanning for projects...
[WARNING] 
[WARNING] Some problems were encountered while building the effective model for org.hibernate:hibernate-ehcache:jar:3.5.0-Beta-3
[WARNING] The expression ${groupId} is deprecated. Please use ${project.groupId} instead.
[WARNING] The expression ${version} is deprecated. Please use ${project.version} instead.
[WARNING] The expression ${groupId} is deprecated. Please use ${project.groupId} instead.
[WARNING] The expression ${version} is deprecated. Please use ${project.version} instead.
[WARNING] The expression ${inceptionYear} is deprecated. Please use ${project.inceptionYear} instead.
[WARNING] 
[WARNING] It is highly recommended to fix these problems because they threaten the stability of your build.
[WARNING] 
[WARNING] For this reason, future Maven versions might no longer support building such malformed projects.
[WARNING] 
[INFO]                                                                         
[INFO] ------------------------------------------------------------------------
[INFO] Building Hibernate Ehcache Integration 3.5.0-Beta-3
[INFO] ------------------------------------------------------------------------
[WARNING] The POM for hsqldb:hsqldb:jar:1.8.0.2 is missing, no dependency information available
[WARNING] The POM for commons-logging:commons-logging:jar:99.0-does-not-exist is missing, no dependency information available
[WARNING] The POM for commons-logging:commons-logging-api:jar:99.0-does-not-exist is missing, no dependency information available
Downloading: http://repo.maven.apache.org/maven2/org/hibernate/hibernate-core/3.5.0-Beta-3/hibernate-core-3.5.0-Beta-3.jar
Downloading: http://repo.maven.apache.org/maven2/org/hibernate/hibernate-testing/3.5.0-Beta-3/hibernate-testing-3.5.0-Beta-3.jar
3/31 KB   7/31 KB   11/31 KB   14/31 KB   17/31 KB   21/31 KB   25/31 KB   29/31 KB   31/31 KB              Downloaded: http://repo.maven.apache.org/maven2/org/hibernate/hibernate-testing/3.5.0-Beta-3/hibernate-testing-3.5.0-Beta-3.jar (31 KB at 56.7 KB/sec)
3/2418 KB   7/2418 KB   11/2418 KB   14/2418 KB   17/2418 KB   21/2418 KB   25/2418 KB   29/2418 KB   33/2418 KB   37/2418 KB   41/2418 KB   41/2418 KB   44/2418 KB   48/2418 KB   52/2418 KB   56/2418 KB   60/2418 KB   64/2418 KB   68/2418 KB   69/2418 KB   72/2418 KB   76/2418 KB   80/2418 KB   84/2418 KB   88/2418 KB   92/2418 KB   96/2418 KB   98/2418 KB   100/2418 KB   104/2418 KB   108/2418 KB   112/2418 KB   116/2418 KB   120/2418 KB   124/2418 KB   128/2418 KB   132/2418 KB   136/2418 KB   137/2418 KB   140/2418 KB   144/2418 KB   148/2418 KB   152/2418 KB   156/2418 KB   160/2418 KB   164/2418 KB   168/2418 KB   170/2418 KB   173/2418 KB   177/2418 KB   181/2418 KB   185/2418 KB   189/2418 KB   193/2418 KB   197/2418 KB   201/2418 KB   205/2418 KB   209/2418 KB   212/2418 KB   214/2418 KB   216/2418 KB   220/2418 KB   224/2418 KB   228/2418 KB   232/2418 KB   236/2418 KB   240/2418 KB   244/2418 KB   248/2418 KB   252/2418 KB   256/2418 KB   260/2418 KB   264/2418 KB   265/2418 KB   267/2418 KB   271/2418 KB   275/2418 KB   279/2418 KB   283/2418 KB   287/2418 KB   290/2418 KB   294/2418 KB   298/2418 KB   302/2418 KB   306/2418 KB   310/2418 KB   314/2418 KB   315/2418 KB   318/2418 KB   322/2418 KB   326/2418 KB   330/2418 KB   334/2418 KB   338/2418 KB   342/2418 KB   346/2418 KB   350/2418 KB   354/2418 KB   358/2418 KB   362/2418 KB   366/2418 KB   368/2418 KB   371/2418 KB   375/2418 KB   378/2418 KB   380/2418 KB   382/2418 KB   383/2418 KB   386/2418 KB   388/2418 KB   390/2418 KB   393/2418 KB   396/2418 KB   399/2418 KB   403/2418 KB   407/2418 KB   411/2418 KB   415/2418 KB   419/2418 KB   421/2418 KB   423/2418 KB   427/2418 KB   431/2418 KB   435/2418 KB   439/2418 KB   443/2418 KB   447/2418 KB   451/2418 KB   455/2418 KB   459/2418 KB   463/2418 KB   467/2418 KB   471/2418 KB   475/2418 KB   475/2418 KB   478/2418 KB   481/2418 KB   484/2418 KB   488/2418 KB   492/2418 KB   496/2418 KB   500/2418 KB   503/2418 KB   507/2418 KB   511/2418 KB   515/2418 KB   519/2418 KB   523/2418 KB   527/2418 KB   529/2418 KB   532/2418 KB   535/2418 KB   536/2418 KB   539/2418 KB   542/2418 KB   544/2418 KB   548/2418 KB   550/2418 KB   553/2418 KB   556/2418 KB   559/2418 KB   561/2418 KB   563/2418 KB   564/2418 KB   567/2418 KB   569/2418 KB   571/2418 KB   575/2418 KB   579/2418 KB   583/2418 KB   584/2418 KB   587/2418 KB   590/2418 KB   591/2418 KB   595/2418 KB   597/2418 KB   600/2418 KB   602/2418 KB   606/2418 KB   610/2418 KB   611/2418 KB   612/2418 KB   614/2418 KB   617/2418 KB   618/2418 KB   619/2418 KB   621/2418 KB   622/2418 KB   625/2418 KB   629/2418 KB   629/2418 KB   632/2418 KB   634/2418 KB   635/2418 KB   638/2418 KB   641/2418 KB   642/2418 KB   643/2418 KB   645/2418 KB   648/2418 KB   649/2418 KB   651/2418 KB   653/2418 KB   655/2418 KB   656/2418 KB   658/2418 KB   660/2418 KB   662/2418 KB   663/2418 KB   666/2418 KB   669/2418 KB   672/2418 KB   675/2418 KB   677/2418 KB   680/2418 KB   683/2418 KB   686/2418 KB   687/2418 KB   689/2418 KB   690/2418 KB   692/2418 KB   693/2418 KB   696/2418 KB   699/2418 KB   701/2418 KB   703/2418 KB   704/2418 KB   706/2418 KB   709/2418 KB   710/2418 KB   711/2418 KB   713/2418 KB   716/2418 KB   717/2418 KB   718/2418 KB   720/2418 KB   723/2418 KB   725/2418 KB   728/2418 KB   731/2418 KB   734/2418 KB   737/2418 KB   740/2418 KB   742/2418 KB   744/2418 KB   745/2418 KB   747/2418 KB   748/2418 KB   751/2418 KB   752/2418 KB   754/2418 KB   755/2418 KB   758/2418 KB   759/2418 KB   761/2418 KB   764/2418 KB   765/2418 KB   766/2418 KB   768/2418 KB   771/2418 KB   772/2418 KB   774/2418 KB   775/2418 KB   778/2418 KB   779/2418 KB   782/2418 KB   785/2418 KB   788/2418 KB   791/2418 KB   793/2418 KB   796/2418 KB   799/2418 KB   802/2418 KB   803/2418 KB   805/2418 KB   808/2418 KB   810/2418 KB   813/2418 KB   815/2418 KB   816/2418 KB   817/2418 KB   820/2418 KB   823/2418 KB   826/2418 KB   827/2418 KB   829/2418 KB   830/2418 KB   833/2418 KB   834/2418 KB   836/2418 KB   839/2418 KB   841/2418 KB   844/2418 KB   847/2418 KB   850/2418 KB   853/2418 KB   856/2418 KB   858/2418 KB   860/2418 KB   861/2418 KB   864/2418 KB   865/2418 KB   867/2418 KB   870/2418 KB   871/2418 KB   873/2418 KB   875/2418 KB   877/2418 KB   878/2418 KB   880/2418 KB   882/2418 KB   885/2418 KB   888/2418 KB   890/2418 KB   891/2418 KB   892/2418 KB   895/2418 KB   898/2418 KB   901/2418 KB   904/2418 KB   906/2418 KB   909/2418 KB   912/2418 KB   915/2418 KB   918/2418 KB   921/2418 KB   922/2418 KB   923/2418 KB   926/2418 KB   929/2418 KB   932/2418 KB   935/2418 KB   938/2418 KB   939/2418 KB   940/2418 KB   942/2418 KB   945/2418 KB   946/2418 KB   947/2418 KB   950/2418 KB   953/2418 KB   955/2418 KB   957/2418 KB   960/2418 KB   963/2418 KB   966/2418 KB   969/2418 KB   972/2418 KB   974/2418 KB   977/2418 KB   980/2418 KB   983/2418 KB   986/2418 KB   989/2418 KB   990/2418 KB   991/2418 KB   994/2418 KB   996/2418 KB   997/2418 KB   1000/2418 KB   1001/2418 KB   1003/2418 KB   1004/2418 KB   1007/2418 KB   1010/2418 KB   1013/2418 KB   1014/2418 KB   1017/2418 KB   1020/2418 KB   1022/2418 KB   1025/2418 KB   1027/2418 KB   1030/2418 KB   1032/2418 KB   1035/2418 KB   1038/2418 KB   1041/2418 KB   1044/2418 KB   1046/2418 KB   1049/2418 KB   1052/2418 KB   1055/2418 KB   1056/2418 KB   1058/2418 KB   1059/2418 KB   1061/2418 KB   1063/2418 KB   1065/2418 KB   1068/2418 KB   1071/2418 KB   1073/2418 KB   1075/2418 KB   1078/2418 KB   1080/2418 KB   1083/2418 KB   1086/2418 KB   1087/2418 KB   1089/2418 KB   1090/2418 KB   1093/2418 KB   1096/2418 KB   1099/2418 KB   1102/2418 KB   1104/2418 KB   1107/2418 KB   1110/2418 KB   1113/2418 KB   1116/2418 KB   1119/2418 KB   1121/2418 KB   1124/2418 KB   1126/2418 KB   1128/2418 KB   1131/2418 KB   1134/2418 KB   1136/2418 KB   1138/2418 KB   1141/2418 KB   1144/2418 KB   1147/2418 KB   1150/2418 KB   1151/2418 KB   1154/2418 KB   1157/2418 KB   1160/2418 KB   1162/2418 KB   1165/2418 KB   1168/2418 KB   1171/2418 KB   1174/2418 KB   1177/2418 KB   1179/2418 KB   1182/2418 KB   1185/2418 KB   1186/2418 KB   1189/2418 KB   1192/2418 KB   1195/2418 KB   1196/2418 KB   1199/2418 KB   1202/2418 KB   1203/2418 KB   1205/2418 KB   1208/2418 KB   1209/2418 KB   1212/2418 KB   1213/2418 KB   1216/2418 KB   1219/2418 KB   1222/2418 KB   1225/2418 KB   1227/2418 KB   1230/2418 KB   1233/2418 KB   1236/2418 KB   1239/2418 KB   1242/2418 KB   1244/2418 KB   1247/2418 KB   1249/2418 KB   1252/2418 KB   1254/2418 KB   1257/2418 KB   1259/2418 KB   1261/2418 KB   1264/2418 KB   1267/2418 KB   1270/2418 KB   1271/2418 KB   1274/2418 KB   1276/2418 KB   1277/2418 KB   1278/2418 KB   1281/2418 KB   1284/2418 KB   1287/2418 KB   1290/2418 KB   1293/2418 KB   1294/2418 KB   1295/2418 KB   1298/2418 KB   1301/2418 KB   1304/2418 KB   1307/2418 KB   1309/2418 KB   1311/2418 KB   1312/2418 KB   1314/2418 KB   1315/2418 KB   1317/2418 KB   1318/2418 KB   1319/2418 KB   1321/2418 KB   1324/2418 KB   1325/2418 KB   1326/2418 KB   1328/2418 KB   1329/2418 KB   1332/2418 KB   1334/2418 KB   1335/2418 KB   1336/2418 KB   1339/2418 KB   1341/2418 KB   1343/2418 KB   1346/2418 KB   1349/2418 KB   1352/2418 KB   1355/2418 KB   1358/2418 KB   1360/2418 KB   1362/2418 KB   1363/2418 KB   1366/2418 KB   1369/2418 KB   1372/2418 KB   1373/2418 KB   1375/2418 KB   1377/2418 KB   1379/2418 KB   1380/2418 KB   1382/2418 KB   1383/2418 KB   1386/2418 KB   1389/2418 KB   1392/2418 KB   1394/2418 KB   1397/2418 KB   1399/2418 KB   1401/2418 KB   1403/2418 KB   1406/2418 KB   1408/2418 KB   1411/2418 KB   1414/2418 KB   1417/2418 KB   1418/2418 KB   1420/2418 KB   1423/2418 KB   1425/2418 KB   1428/2418 KB   1431/2418 KB   1434/2418 KB   1437/2418 KB   1440/2418 KB   1441/2418 KB   1442/2418 KB   1445/2418 KB   1448/2418 KB   1451/2418 KB   1454/2418 KB   1457/2418 KB   1459/2418 KB   1461/2418 KB   1464/2418 KB   1465/2418 KB   1468/2418 KB   1471/2418 KB   1474/2418 KB   1476/2418 KB   1479/2418 KB   1482/2418 KB   1485/2418 KB   1488/2418 KB   1490/2418 KB   1493/2418 KB   1496/2418 KB   1498/2418 KB   1499/2418 KB   1502/2418 KB   1505/2418 KB   1507/2418 KB   1510/2418 KB   1513/2418 KB   1516/2418 KB   1519/2418 KB   1520/2418 KB   1523/2418 KB   1524/2418 KB   1527/2418 KB   1529/2418 KB   1532/2418 KB   1534/2418 KB   1537/2418 KB   1539/2418 KB   1540/2418 KB   1543/2418 KB   1546/2418 KB   1548/2418 KB   1551/2418 KB   1554/2418 KB   1557/2418 KB   1558/2418 KB   1560/2418 KB   1563/2418 KB   1565/2418 KB   1568/2418 KB   1571/2418 KB   1574/2418 KB   1577/2418 KB   1580/2418 KB   1582/2418 KB   1584/2418 KB   1587/2418 KB   1588/2418 KB   1591/2418 KB   1592/2418 KB   1595/2418 KB   1598/2418 KB   1599/2418 KB   1601/2418 KB   1604/2418 KB   1606/2418 KB   1609/2418 KB   1612/2418 KB   1615/2418 KB   1618/2418 KB   1621/2418 KB   1622/2418 KB   1623/2418 KB   1626/2418 KB   1629/2418 KB   1632/2418 KB   1633/2418 KB   1635/2418 KB   1638/2418 KB   1640/2418 KB   1643/2418 KB   1646/2418 KB   1647/2418 KB   1650/2418 KB   1652/2418 KB   1655/2418 KB   1656/2418 KB   1659/2418 KB   1662/2418 KB   1664/2418 KB   1667/2418 KB   1670/2418 KB   1673/2418 KB   1676/2418 KB   1679/2418 KB   1681/2418 KB   1683/2418 KB   1684/2418 KB   1687/2418 KB   1690/2418 KB   1693/2418 KB   1694/2418 KB   1696/2418 KB   1698/2418 KB   1701/2418 KB   1704/2418 KB   1707/2418 KB   1710/2418 KB   1711/2418 KB   1714/2418 KB   1715/2418 KB   1718/2418 KB   1720/2418 KB   1721/2418 KB   1722/2418 KB   1725/2418 KB   1728/2418 KB   1731/2418 KB   1734/2418 KB   1737/2418 KB   1739/2418 KB   1742/2418 KB   1744/2418 KB   1745/2418 KB   1748/2418 KB   1751/2418 KB   1754/2418 KB   1756/2418 KB   1759/2418 KB   1762/2418 KB   1765/2418 KB   1768/2418 KB   1770/2418 KB   1773/2418 KB   1775/2418 KB   1778/2418 KB   1779/2418 KB   1780/2418 KB   1782/2418 KB   1785/2418 KB   1786/2418 KB   1789/2418 KB   1792/2418 KB   1795/2418 KB   1797/2418 KB   1800/2418 KB   1803/2418 KB   1806/2418 KB   1809/2418 KB   1811/2418 KB   1814/2418 KB   1817/2418 KB   1820/2418 KB   1821/2418 KB   1824/2418 KB   1827/2418 KB   1830/2418 KB   1831/2418 KB   1833/2418 KB   1836/2418 KB   1838/2418 KB   1840/2418 KB   1841/2418 KB   1843/2418 KB   1845/2418 KB   1847/2418 KB   1850/2418 KB   1851/2418 KB   1854/2418 KB   1857/2418 KB   1860/2418 KB   1862/2418 KB   1865/2418 KB   1868/2418 KB   1871/2418 KB   1874/2418 KB   1877/2418 KB   1878/2418 KB   1879/2418 KB   1882/2418 KB   1885/2418 KB   1886/2418 KB   1889/2418 KB   1892/2418 KB   1895/2418 KB   1898/2418 KB   1901/2418 KB   1903/2418 KB   1906/2418 KB   1908/2418 KB   1910/2418 KB   1912/2418 KB   1915/2418 KB   1916/2418 KB   1919/2418 KB   1922/2418 KB   1925/2418 KB   1927/2418 KB   1929/2418 KB   1930/2418 KB   1933/2418 KB   1936/2418 KB   1939/2418 KB   1942/2418 KB   1944/2418 KB   1947/2418 KB   1950/2418 KB   1951/2418 KB   1954/2418 KB   1957/2418 KB   1960/2418 KB   1963/2418 KB   1966/2418 KB   1968/2418 KB   1971/2418 KB   1973/2418 KB   1976/2418 KB   1977/2418 KB   1980/2418 KB   1981/2418 KB   1984/2418 KB   1987/2418 KB   1990/2418 KB   1991/2418 KB   1992/2418 KB   1995/2418 KB   1998/2418 KB   2001/2418 KB   2002/2418 KB   2004/2418 KB   2007/2418 KB   2009/2418 KB   2011/2418 KB   2012/2418 KB   2015/2418 KB   2017/2418 KB   2018/2418 KB   2019/2418 KB   2021/2418 KB   2022/2418 KB   2024/2418 KB   2025/2418 KB   2026/2418 KB   2028/2418 KB   2029/2418 KB   2031/2418 KB   2032/2418 KB   2033/2418 KB   2035/2418 KB   2036/2418 KB   2038/2418 KB   2039/2418 KB   2041/2418 KB   2042/2418 KB   2043/2418 KB   2045/2418 KB   2046/2418 KB   2048/2418 KB   2049/2418 KB   2050/2418 KB   2052/2418 KB   2053/2418 KB   2055/2418 KB   2056/2418 KB   2058/2418 KB   2060/2418 KB   2063/2418 KB   2066/2418 KB   2069/2418 KB   2072/2418 KB   2075/2418 KB   2077/2418 KB   2080/2418 KB   2083/2418 KB   2086/2418 KB   2089/2418 KB   2091/2418 KB   2094/2418 KB   2097/2418 KB   2099/2418 KB   2100/2418 KB   2103/2418 KB   2106/2418 KB   2108/2418 KB   2110/2418 KB   2111/2418 KB   2113/2418 KB   2114/2418 KB   2117/2418 KB   2120/2418 KB   2123/2418 KB   2125/2418 KB   2128/2418 KB   2131/2418 KB   2134/2418 KB   2137/2418 KB   2140/2418 KB   2142/2418 KB   2145/2418 KB   2148/2418 KB   2151/2418 KB   2152/2418 KB   2154/2418 KB   2157/2418 KB   2159/2418 KB   2161/2418 KB   2162/2418 KB   2165/2418 KB   2168/2418 KB   2171/2418 KB   2172/2418 KB   2173/2418 KB   2175/2418 KB   2176/2418 KB   2179/2418 KB   2182/2418 KB   2185/2418 KB   2188/2418 KB   2189/2418 KB   2190/2418 KB   2193/2418 KB   2196/2418 KB   2199/2418 KB   2202/2418 KB   2205/2418 KB   2207/2418 KB   2210/2418 KB   2212/2418 KB   2213/2418 KB   2216/2418 KB   2217/2418 KB   2219/2418 KB   2222/2418 KB   2224/2418 KB   2226/2418 KB   2227/2418 KB   2230/2418 KB   2233/2418 KB   2236/2418 KB   2237/2418 KB   2239/2418 KB   2240/2418 KB   2241/2418 KB   2243/2418 KB   2244/2418 KB   2247/2418 KB   2250/2418 KB   2251/2418 KB   2253/2418 KB   2256/2418 KB   2257/2418 KB   2260/2418 KB   2263/2418 KB   2265/2418 KB   2267/2418 KB   2268/2418 KB   2271/2418 KB   2274/2418 KB   2275/2418 KB   2277/2418 KB   2280/2418 KB   2282/2418 KB   2285/2418 KB   2288/2418 KB   2291/2418 KB   2294/2418 KB   2297/2418 KB   2299/2418 KB   2302/2418 KB   2305/2418 KB   2308/2418 KB   2311/2418 KB   2313/2418 KB   2315/2418 KB   2316/2418 KB   2319/2418 KB   2322/2418 KB   2323/2418 KB   2326/2418 KB   2329/2418 KB   2330/2418 KB   2332/2418 KB   2335/2418 KB   2338/2418 KB   2339/2418 KB   2340/2418 KB   2343/2418 KB   2346/2418 KB   2347/2418 KB   2349/2418 KB   2352/2418 KB   2354/2418 KB   2357/2418 KB   2360/2418 KB   2362/2418 KB   2363/2418 KB   2366/2418 KB   2369/2418 KB   2371/2418 KB   2374/2418 KB   2377/2418 KB   2380/2418 KB   2383/2418 KB   2386/2418 KB   2388/2418 KB   2390/2418 KB   2393/2418 KB   2395/2418 KB   2398/2418 KB   2401/2418 KB   2404/2418 KB   2405/2418 KB   2407/2418 KB   2410/2418 KB   2412/2418 KB   2415/2418 KB   2418/2418 KB                  Downloaded: http://repo.maven.apache.org/maven2/org/hibernate/hibernate-core/3.5.0-Beta-3/hibernate-core-3.5.0-Beta-3.jar (2418 KB at 1085.8 KB/sec)
[INFO] ------------------------------------------------------------------------
[INFO] BUILD FAILURE
[INFO] ------------------------------------------------------------------------
[INFO] Total time: 3.097s
[INFO] Finished at: Fri Jan 31 00:40:25 CET 2014
[INFO] Final Memory: 8M/150M
[INFO] ------------------------------------------------------------------------
[ERROR] Failed to execute goal on project hibernate-ehcache: Could not resolve dependencies for project org.hibernate:hibernate-ehcache:jar:3.5.0-Beta-3: The following artifacts could not be resolved: hsqldb:hsqldb:jar:1.8.0.2, commons-logging:commons-logging:jar:99.0-does-not-exist, commons-logging:commons-logging-api:jar:99.0-does-not-exist: Failure to find hsqldb:hsqldb:jar:1.8.0.2 in http://repo.maven.apache.org/maven2 was cached in the local repository, resolution will not be reattempted until the update interval of central has elapsed or updates are forced -> [Help 1]
[ERROR] 
[ERROR] To see the full stack trace of the errors, re-run Maven with the -e switch.
[ERROR] Re-run Maven using the -X switch to enable full debug logging.
[ERROR] 
[ERROR] For more information about the errors and possible solutions, please read the following articles:
[ERROR] [Help 1] http://cwiki.apache.org/confluence/display/MAVEN/DependencyResolutionException
