[INFO] Scanning for projects...
[WARNING] 
[WARNING] Some problems were encountered while building the effective model for org.hibernate:hibernate-ehcache:jar:3.5.0-Beta-4
[WARNING] The expression ${groupId} is deprecated. Please use ${project.groupId} instead.
[WARNING] The expression ${version} is deprecated. Please use ${project.version} instead.
[WARNING] The expression ${groupId} is deprecated. Please use ${project.groupId} instead.
[WARNING] The expression ${version} is deprecated. Please use ${project.version} instead.
[WARNING] The expression ${inceptionYear} is deprecated. Please use ${project.inceptionYear} instead.
[WARNING] 
[WARNING] It is highly recommended to fix these problems because they threaten the stability of your build.
[WARNING] 
[WARNING] For this reason, future Maven versions might no longer support building such malformed projects.
[WARNING] 
[INFO]                                                                         
[INFO] ------------------------------------------------------------------------
[INFO] Building Hibernate Ehcache Integration 3.5.0-Beta-4
[INFO] ------------------------------------------------------------------------
[WARNING] The POM for hsqldb:hsqldb:jar:1.8.0.2 is missing, no dependency information available
[WARNING] The POM for commons-logging:commons-logging:jar:99.0-does-not-exist is missing, no dependency information available
[WARNING] The POM for commons-logging:commons-logging-api:jar:99.0-does-not-exist is missing, no dependency information available
Downloading: http://repo.maven.apache.org/maven2/org/hibernate/hibernate-core/3.5.0-Beta-4/hibernate-core-3.5.0-Beta-4.jar
Downloading: http://repo.maven.apache.org/maven2/org/hibernate/hibernate-testing/3.5.0-Beta-4/hibernate-testing-3.5.0-Beta-4.jar
3/37 KB   7/37 KB   11/37 KB   14/37 KB   17/37 KB   21/37 KB   25/37 KB   29/37 KB   33/37 KB   37/37 KB   37/37 KB              Downloaded: http://repo.maven.apache.org/maven2/org/hibernate/hibernate-testing/3.5.0-Beta-4/hibernate-testing-3.5.0-Beta-4.jar (37 KB at 56.2 KB/sec)
3/2426 KB   7/2426 KB   11/2426 KB   14/2426 KB   17/2426 KB   21/2426 KB   25/2426 KB   29/2426 KB   33/2426 KB   37/2426 KB   41/2426 KB   41/2426 KB   44/2426 KB   48/2426 KB   52/2426 KB   56/2426 KB   60/2426 KB   64/2426 KB   68/2426 KB   69/2426 KB   72/2426 KB   76/2426 KB   80/2426 KB   84/2426 KB   88/2426 KB   92/2426 KB   96/2426 KB   100/2426 KB   104/2426 KB   106/2426 KB   109/2426 KB   113/2426 KB   117/2426 KB   121/2426 KB   125/2426 KB   129/2426 KB   133/2426 KB   137/2426 KB   137/2426 KB   140/2426 KB   144/2426 KB   148/2426 KB   152/2426 KB   156/2426 KB   160/2426 KB   164/2426 KB   168/2426 KB   172/2426 KB   176/2426 KB   180/2426 KB   184/2426 KB   188/2426 KB   192/2426 KB   192/2426 KB   195/2426 KB   199/2426 KB   203/2426 KB   207/2426 KB   211/2426 KB   215/2426 KB   219/2426 KB   223/2426 KB   227/2426 KB   231/2426 KB   232/2426 KB   235/2426 KB   239/2426 KB   243/2426 KB   247/2426 KB   251/2426 KB   255/2426 KB   259/2426 KB   263/2426 KB   267/2426 KB   269/2426 KB   270/2426 KB   274/2426 KB   278/2426 KB   282/2426 KB   286/2426 KB   290/2426 KB   294/2426 KB   298/2426 KB   302/2426 KB   306/2426 KB   310/2426 KB   314/2426 KB   318/2426 KB   322/2426 KB   326/2426 KB   330/2426 KB   334/2426 KB   338/2426 KB   342/2426 KB   346/2426 KB   350/2426 KB   354/2426 KB   358/2426 KB   359/2426 KB   361/2426 KB   362/2426 KB   366/2426 KB   370/2426 KB   374/2426 KB   378/2426 KB   382/2426 KB   386/2426 KB   390/2426 KB   394/2426 KB   396/2426 KB   397/2426 KB   401/2426 KB   405/2426 KB   407/2426 KB   410/2426 KB   414/2426 KB   418/2426 KB   422/2426 KB   426/2426 KB   430/2426 KB   434/2426 KB   438/2426 KB   442/2426 KB   446/2426 KB   450/2426 KB   454/2426 KB   458/2426 KB   462/2426 KB   466/2426 KB   470/2426 KB   474/2426 KB   478/2426 KB   482/2426 KB   486/2426 KB   490/2426 KB   494/2426 KB   498/2426 KB   502/2426 KB   506/2426 KB   510/2426 KB   513/2426 KB   517/2426 KB   521/2426 KB   525/2426 KB   526/2426 KB   528/2426 KB   530/2426 KB   534/2426 KB   537/2426 KB   541/2426 KB   545/2426 KB   549/2426 KB   550/2426 KB   552/2426 KB   553/2426 KB   556/2426 KB   559/2426 KB   563/2426 KB   564/2426 KB   567/2426 KB   571/2426 KB   574/2426 KB   578/2426 KB   582/2426 KB   586/2426 KB   590/2426 KB   594/2426 KB   598/2426 KB   602/2426 KB   605/2426 KB   608/2426 KB   610/2426 KB   611/2426 KB   612/2426 KB   615/2426 KB   617/2426 KB   619/2426 KB   622/2426 KB   625/2426 KB   627/2426 KB   628/2426 KB   631/2426 KB   634/2426 KB   635/2426 KB   636/2426 KB   638/2426 KB   639/2426 KB   641/2426 KB   642/2426 KB   643/2426 KB   645/2426 KB   646/2426 KB   648/2426 KB   649/2426 KB   651/2426 KB   652/2426 KB   655/2426 KB   656/2426 KB   658/2426 KB   660/2426 KB   663/2426 KB   665/2426 KB   666/2426 KB   668/2426 KB   669/2426 KB   672/2426 KB   675/2426 KB   677/2426 KB   679/2426 KB   680/2426 KB   683/2426 KB   686/2426 KB   689/2426 KB   690/2426 KB   692/2426 KB   693/2426 KB   694/2426 KB   696/2426 KB   697/2426 KB   699/2426 KB   700/2426 KB   701/2426 KB   703/2426 KB   706/2426 KB   707/2426 KB   709/2426 KB   710/2426 KB   713/2426 KB   716/2426 KB   717/2426 KB   718/2426 KB   720/2426 KB   721/2426 KB   724/2426 KB   727/2426 KB   730/2426 KB   733/2426 KB   735/2426 KB   738/2426 KB   740/2426 KB   741/2426 KB   744/2426 KB   745/2426 KB   747/2426 KB   748/2426 KB   750/2426 KB   751/2426 KB   752/2426 KB   754/2426 KB   755/2426 KB   758/2426 KB   761/2426 KB   764/2426 KB   765/2426 KB   766/2426 KB   768/2426 KB   769/2426 KB   771/2426 KB   772/2426 KB   774/2426 KB   776/2426 KB   779/2426 KB   782/2426 KB   783/2426 KB   785/2426 KB   788/2426 KB   791/2426 KB   792/2426 KB   793/2426 KB   796/2426 KB   798/2426 KB   799/2426 KB   800/2426 KB   802/2426 KB   803/2426 KB   805/2426 KB   806/2426 KB   808/2426 KB   810/2426 KB   813/2426 KB   816/2426 KB   817/2426 KB   820/2426 KB   823/2426 KB   824/2426 KB   826/2426 KB   829/2426 KB   830/2426 KB   832/2426 KB   833/2426 KB   836/2426 KB   839/2426 KB   841/2426 KB   844/2426 KB   847/2426 KB   849/2426 KB   850/2426 KB   853/2426 KB   854/2426 KB   856/2426 KB   857/2426 KB   860/2426 KB   861/2426 KB   864/2426 KB   867/2426 KB   870/2426 KB   873/2426 KB   874/2426 KB   875/2426 KB   877/2426 KB   880/2426 KB   882/2426 KB   884/2426 KB   885/2426 KB   888/2426 KB   890/2426 KB   891/2426 KB   892/2426 KB   894/2426 KB   895/2426 KB   898/2426 KB   899/2426 KB   901/2426 KB   902/2426 KB   904/2426 KB   905/2426 KB   906/2426 KB   909/2426 KB   911/2426 KB   912/2426 KB   914/2426 KB   915/2426 KB   916/2426 KB   918/2426 KB   921/2426 KB   923/2426 KB   926/2426 KB   929/2426 KB   932/2426 KB   933/2426 KB   936/2426 KB   939/2426 KB   942/2426 KB   943/2426 KB   945/2426 KB   946/2426 KB   947/2426 KB   950/2426 KB   952/2426 KB   953/2426 KB   955/2426 KB   956/2426 KB   957/2426 KB   959/2426 KB   960/2426 KB   963/2426 KB   966/2426 KB   967/2426 KB   969/2426 KB   970/2426 KB   972/2426 KB   974/2426 KB   977/2426 KB   980/2426 KB   981/2426 KB   983/2426 KB   986/2426 KB   989/2426 KB   990/2426 KB   991/2426 KB   993/2426 KB   996/2426 KB   998/2426 KB   1000/2426 KB   1001/2426 KB   1004/2426 KB   1005/2426 KB   1007/2426 KB   1008/2426 KB   1010/2426 KB   1011/2426 KB   1013/2426 KB   1015/2426 KB   1017/2426 KB   1018/2426 KB   1020/2426 KB   1022/2426 KB   1024/2426 KB   1025/2426 KB   1027/2426 KB   1028/2426 KB   1031/2426 KB   1034/2426 KB   1035/2426 KB   1037/2426 KB   1038/2426 KB   1039/2426 KB   1042/2426 KB   1044/2426 KB   1045/2426 KB   1048/2426 KB   1049/2426 KB   1051/2426 KB   1052/2426 KB   1055/2426 KB   1058/2426 KB   1061/2426 KB   1062/2426 KB   1063/2426 KB   1066/2426 KB   1069/2426 KB   1072/2426 KB   1073/2426 KB   1075/2426 KB   1076/2426 KB   1078/2426 KB   1079/2426 KB   1080/2426 KB   1082/2426 KB   1085/2426 KB   1087/2426 KB   1090/2426 KB   1093/2426 KB   1096/2426 KB   1099/2426 KB   1102/2426 KB   1104/2426 KB   1107/2426 KB   1109/2426 KB   1112/2426 KB   1114/2426 KB   1116/2426 KB   1117/2426 KB   1119/2426 KB   1120/2426 KB   1123/2426 KB   1126/2426 KB   1127/2426 KB   1128/2426 KB   1130/2426 KB   1131/2426 KB   1133/2426 KB   1134/2426 KB   1137/2426 KB   1138/2426 KB   1141/2426 KB   1143/2426 KB   1144/2426 KB   1147/2426 KB   1150/2426 KB   1153/2426 KB   1155/2426 KB   1157/2426 KB   1158/2426 KB   1161/2426 KB   1164/2426 KB   1165/2426 KB   1167/2426 KB   1168/2426 KB   1171/2426 KB   1172/2426 KB   1174/2426 KB   1175/2426 KB   1177/2426 KB   1179/2426 KB   1181/2426 KB   1182/2426 KB   1184/2426 KB   1185/2426 KB   1186/2426 KB   1188/2426 KB   1191/2426 KB   1194/2426 KB   1195/2426 KB   1196/2426 KB   1198/2426 KB   1199/2426 KB   1201/2426 KB   1203/2426 KB   1206/2426 KB   1209/2426 KB   1212/2426 KB   1215/2426 KB   1218/2426 KB   1220/2426 KB   1223/2426 KB   1226/2426 KB   1227/2426 KB   1229/2426 KB   1230/2426 KB   1232/2426 KB   1233/2426 KB   1235/2426 KB   1236/2426 KB   1237/2426 KB   1239/2426 KB   1240/2426 KB   1242/2426 KB   1244/2426 KB   1246/2426 KB   1249/2426 KB   1250/2426 KB   1252/2426 KB   1253/2426 KB   1254/2426 KB   1257/2426 KB   1259/2426 KB   1260/2426 KB   1261/2426 KB   1264/2426 KB   1267/2426 KB   1270/2426 KB   1273/2426 KB   1274/2426 KB   1276/2426 KB   1278/2426 KB   1280/2426 KB   1281/2426 KB   1284/2426 KB   1287/2426 KB   1290/2426 KB   1291/2426 KB   1293/2426 KB   1294/2426 KB   1295/2426 KB   1298/2426 KB   1300/2426 KB   1302/2426 KB   1304/2426 KB   1305/2426 KB   1307/2426 KB   1309/2426 KB   1312/2426 KB   1315/2426 KB   1318/2426 KB   1319/2426 KB   1321/2426 KB   1322/2426 KB   1324/2426 KB   1325/2426 KB   1328/2426 KB   1329/2426 KB   1331/2426 KB   1334/2426 KB   1336/2426 KB   1339/2426 KB   1342/2426 KB   1345/2426 KB   1346/2426 KB   1348/2426 KB   1351/2426 KB   1353/2426 KB   1356/2426 KB   1358/2426 KB   1359/2426 KB   1360/2426 KB   1363/2426 KB   1365/2426 KB   1367/2426 KB   1370/2426 KB   1373/2426 KB   1376/2426 KB   1377/2426 KB   1379/2426 KB   1382/2426 KB   1383/2426 KB   1384/2426 KB   1386/2426 KB   1389/2426 KB   1392/2426 KB   1394/2426 KB   1396/2426 KB   1397/2426 KB   1400/2426 KB   1401/2426 KB   1403/2426 KB   1404/2426 KB   1406/2426 KB   1408/2426 KB   1411/2426 KB   1413/2426 KB   1414/2426 KB   1417/2426 KB   1418/2426 KB   1420/2426 KB   1423/2426 KB   1424/2426 KB   1425/2426 KB   1427/2426 KB   1430/2426 KB   1431/2426 KB   1433/2426 KB   1435/2426 KB   1438/2426 KB   1440/2426 KB   1441/2426 KB   1444/2426 KB   1445/2426 KB   1447/2426 KB   1448/2426 KB   1451/2426 KB   1454/2426 KB   1457/2426 KB   1458/2426 KB   1459/2426 KB   1462/2426 KB   1465/2426 KB   1468/2426 KB   1471/2426 KB   1474/2426 KB   1476/2426 KB   1479/2426 KB   1482/2426 KB   1485/2426 KB   1486/2426 KB   1488/2426 KB   1489/2426 KB   1490/2426 KB   1492/2426 KB   1495/2426 KB   1498/2426 KB   1499/2426 KB   1500/2426 KB   1503/2426 KB   1506/2426 KB   1507/2426 KB   1509/2426 KB   1510/2426 KB   1513/2426 KB   1516/2426 KB   1519/2426 KB   1522/2426 KB   1524/2426 KB   1526/2426 KB   1527/2426 KB   1530/2426 KB   1533/2426 KB   1536/2426 KB   1539/2426 KB   1541/2426 KB   1543/2426 KB   1544/2426 KB   1546/2426 KB   1547/2426 KB   1550/2426 KB   1551/2426 KB   1553/2426 KB   1554/2426 KB   1556/2426 KB   1557/2426 KB   1560/2426 KB   1563/2426 KB   1564/2426 KB   1565/2426 KB   1568/2426 KB   1570/2426 KB   1571/2426 KB   1573/2426 KB   1574/2426 KB   1575/2426 KB   1578/2426 KB   1581/2426 KB   1584/2426 KB   1587/2426 KB   1588/2426 KB   1589/2426 KB   1592/2426 KB   1595/2426 KB   1598/2426 KB   1599/2426 KB   1601/2426 KB   1604/2426 KB   1606/2426 KB   1608/2426 KB   1609/2426 KB   1611/2426 KB   1612/2426 KB   1615/2426 KB   1616/2426 KB   1618/2426 KB   1619/2426 KB   1621/2426 KB   1623/2426 KB   1625/2426 KB   1626/2426 KB   1629/2426 KB   1632/2426 KB   1635/2426 KB   1636/2426 KB   1639/2426 KB   1642/2426 KB   1645/2426 KB   1647/2426 KB   1650/2426 KB   1653/2426 KB   1656/2426 KB   1659/2426 KB   1660/2426 KB   1662/2426 KB   1664/2426 KB   1666/2426 KB   1667/2426 KB   1669/2426 KB   1670/2426 KB   1673/2426 KB   1674/2426 KB   1676/2426 KB   1679/2426 KB   1680/2426 KB   1681/2426 KB   1683/2426 KB   1684/2426 KB   1686/2426 KB   1687/2426 KB   1688/2426 KB   1690/2426 KB   1693/2426 KB   1696/2426 KB   1697/2426 KB   1700/2426 KB   1703/2426 KB   1705/2426 KB   1708/2426 KB   1711/2426 KB   1714/2426 KB   1717/2426 KB   1720/2426 KB   1722/2426 KB   1724/2426 KB   1725/2426 KB   1727/2426 KB   1728/2426 KB   1729/2426 KB   1731/2426 KB   1734/2426 KB   1735/2426 KB   1737/2426 KB   1738/2426 KB   1739/2426 KB   1742/2426 KB   1744/2426 KB   1745/2426 KB   1746/2426 KB   1748/2426 KB   1751/2426 KB   1754/2426 KB   1756/2426 KB   1758/2426 KB   1759/2426 KB   1761/2426 KB   1762/2426 KB   1763/2426 KB   1766/2426 KB   1769/2426 KB   1772/2426 KB   1775/2426 KB   1778/2426 KB   1780/2426 KB   1782/2426 KB   1783/2426 KB   1786/2426 KB   1787/2426 KB   1789/2426 KB   1790/2426 KB   1792/2426 KB   1795/2426 KB   1796/2426 KB   1797/2426 KB   1800/2426 KB   1802/2426 KB   1803/2426 KB   1806/2426 KB   1809/2426 KB   1811/2426 KB   1814/2426 KB   1817/2426 KB   1819/2426 KB   1820/2426 KB   1823/2426 KB   1824/2426 KB   1827/2426 KB   1830/2426 KB   1833/2426 KB   1834/2426 KB   1836/2426 KB   1838/2426 KB   1840/2426 KB   1841/2426 KB   1843/2426 KB   1844/2426 KB   1847/2426 KB   1848/2426 KB   1850/2426 KB   1851/2426 KB   1852/2426 KB   1855/2426 KB   1858/2426 KB   1861/2426 KB   1862/2426 KB   1864/2426 KB   1867/2426 KB   1869/2426 KB   1872/2426 KB   1875/2426 KB   1878/2426 KB   1881/2426 KB   1882/2426 KB   1885/2426 KB   1886/2426 KB   1889/2426 KB   1892/2426 KB   1895/2426 KB   1898/2426 KB   1901/2426 KB   1902/2426 KB   1903/2426 KB   1905/2426 KB   1906/2426 KB   1909/2426 KB   1910/2426 KB   1912/2426 KB   1915/2426 KB   1918/2426 KB   1920/2426 KB   1923/2426 KB   1926/2426 KB   1929/2426 KB   1932/2426 KB   1935/2426 KB   1936/2426 KB   1937/2426 KB   1940/2426 KB   1942/2426 KB   1943/2426 KB   1944/2426 KB   1947/2426 KB   1949/2426 KB   1950/2426 KB   1951/2426 KB   1954/2426 KB   1957/2426 KB   1960/2426 KB   1963/2426 KB   1966/2426 KB   1967/2426 KB   1968/2426 KB   1970/2426 KB   1971/2426 KB   1974/2426 KB   1976/2426 KB   1977/2426 KB   1980/2426 KB   1983/2426 KB   1985/2426 KB   1988/2426 KB   1991/2426 KB   1994/2426 KB   1995/2426 KB   1997/2426 KB   2000/2426 KB   2002/2426 KB   2005/2426 KB   2007/2426 KB   2008/2426 KB   2009/2426 KB   2012/2426 KB   2014/2426 KB   2017/2426 KB   2018/2426 KB   2019/2426 KB   2022/2426 KB   2025/2426 KB   2028/2426 KB   2031/2426 KB   2032/2426 KB   2033/2426 KB   2036/2426 KB   2039/2426 KB   2041/2426 KB   2042/2426 KB   2045/2426 KB   2048/2426 KB   2050/2426 KB   2053/2426 KB   2056/2426 KB   2059/2426 KB   2062/2426 KB   2065/2426 KB   2066/2426 KB   2067/2426 KB   2069/2426 KB   2072/2426 KB   2073/2426 KB   2076/2426 KB   2077/2426 KB   2079/2426 KB   2080/2426 KB   2082/2426 KB   2083/2426 KB   2084/2426 KB   2086/2426 KB   2089/2426 KB   2090/2426 KB   2091/2426 KB   2093/2426 KB   2094/2426 KB   2097/2426 KB   2100/2426 KB   2103/2426 KB   2106/2426 KB   2108/2426 KB   2111/2426 KB   2114/2426 KB   2117/2426 KB   2120/2426 KB   2123/2426 KB   2125/2426 KB   2128/2426 KB   2131/2426 KB   2132/2426 KB   2135/2426 KB   2137/2426 KB   2138/2426 KB   2140/2426 KB   2141/2426 KB   2142/2426 KB   2144/2426 KB   2145/2426 KB   2148/2426 KB   2149/2426 KB   2151/2426 KB   2152/2426 KB   2154/2426 KB   2155/2426 KB   2158/2426 KB   2161/2426 KB   2164/2426 KB   2166/2426 KB   2169/2426 KB   2172/2426 KB   2175/2426 KB   2178/2426 KB   2181/2426 KB   2183/2426 KB   2186/2426 KB   2188/2426 KB   2189/2426 KB   2192/2426 KB   2195/2426 KB   2196/2426 KB   2198/2426 KB   2199/2426 KB   2200/2426 KB   2202/2426 KB   2203/2426 KB   2205/2426 KB   2207/2426 KB   2209/2426 KB   2210/2426 KB   2212/2426 KB   2213/2426 KB   2214/2426 KB   2216/2426 KB   2217/2426 KB   2219/2426 KB   2220/2426 KB   2222/2426 KB   2224/2426 KB   2227/2426 KB   2230/2426 KB   2233/2426 KB   2236/2426 KB   2239/2426 KB   2241/2426 KB   2244/2426 KB   2247/2426 KB   2250/2426 KB   2253/2426 KB   2256/2426 KB   2258/2426 KB   2260/2426 KB   2261/2426 KB   2263/2426 KB   2264/2426 KB   2267/2426 KB   2268/2426 KB   2270/2426 KB   2271/2426 KB   2272/2426 KB   2274/2426 KB   2275/2426 KB   2277/2426 KB   2280/2426 KB   2282/2426 KB   2284/2426 KB   2285/2426 KB   2288/2426 KB   2291/2426 KB   2294/2426 KB   2297/2426 KB   2299/2426 KB   2302/2426 KB   2305/2426 KB   2308/2426 KB   2311/2426 KB   2312/2426 KB   2313/2426 KB   2316/2426 KB   2318/2426 KB   2319/2426 KB   2321/2426 KB   2322/2426 KB   2323/2426 KB   2325/2426 KB   2328/2426 KB   2329/2426 KB   2330/2426 KB   2332/2426 KB   2333/2426 KB   2335/2426 KB   2336/2426 KB   2338/2426 KB   2339/2426 KB   2340/2426 KB   2342/2426 KB   2343/2426 KB   2345/2426 KB   2346/2426 KB   2349/2426 KB   2352/2426 KB   2353/2426 KB   2356/2426 KB   2359/2426 KB   2362/2426 KB   2364/2426 KB   2367/2426 KB   2370/2426 KB   2373/2426 KB   2376/2426 KB   2379/2426 KB   2380/2426 KB   2381/2426 KB   2384/2426 KB   2386/2426 KB   2387/2426 KB   2390/2426 KB   2391/2426 KB   2393/2426 KB   2394/2426 KB   2395/2426 KB   2397/2426 KB   2398/2426 KB   2400/2426 KB   2401/2426 KB   2403/2426 KB   2404/2426 KB   2405/2426 KB   2407/2426 KB   2410/2426 KB   2411/2426 KB   2414/2426 KB   2417/2426 KB   2418/2426 KB   2420/2426 KB   2421/2426 KB   2424/2426 KB   2426/2426 KB                  Downloaded: http://repo.maven.apache.org/maven2/org/hibernate/hibernate-core/3.5.0-Beta-4/hibernate-core-3.5.0-Beta-4.jar (2426 KB at 1081.5 KB/sec)
[INFO] ------------------------------------------------------------------------
[INFO] BUILD FAILURE
[INFO] ------------------------------------------------------------------------
[INFO] Total time: 3.105s
[INFO] Finished at: Fri Jan 31 00:40:42 CET 2014
[INFO] Final Memory: 8M/150M
[INFO] ------------------------------------------------------------------------
[ERROR] Failed to execute goal on project hibernate-ehcache: Could not resolve dependencies for project org.hibernate:hibernate-ehcache:jar:3.5.0-Beta-4: The following artifacts could not be resolved: hsqldb:hsqldb:jar:1.8.0.2, commons-logging:commons-logging:jar:99.0-does-not-exist, commons-logging:commons-logging-api:jar:99.0-does-not-exist: Failure to find hsqldb:hsqldb:jar:1.8.0.2 in http://repo.maven.apache.org/maven2 was cached in the local repository, resolution will not be reattempted until the update interval of central has elapsed or updates are forced -> [Help 1]
[ERROR] 
[ERROR] To see the full stack trace of the errors, re-run Maven with the -e switch.
[ERROR] Re-run Maven using the -X switch to enable full debug logging.
[ERROR] 
[ERROR] For more information about the errors and possible solutions, please read the following articles:
[ERROR] [Help 1] http://cwiki.apache.org/confluence/display/MAVEN/DependencyResolutionException
