[INFO] Scanning for projects...
[WARNING] 
[WARNING] Some problems were encountered while building the effective model for org.hibernate:hibernate-jbosscache:jar:3.3.0.CR1
[WARNING] The expression ${groupId} is deprecated. Please use ${project.groupId} instead.
[WARNING] The expression ${version} is deprecated. Please use ${project.version} instead.
[WARNING] The expression ${groupId} is deprecated. Please use ${project.groupId} instead.
[WARNING] The expression ${version} is deprecated. Please use ${project.version} instead.
[WARNING] The expression ${pom.url} is deprecated. Please use ${project.url} instead.
[WARNING] 
[WARNING] It is highly recommended to fix these problems because they threaten the stability of your build.
[WARNING] 
[WARNING] For this reason, future Maven versions might no longer support building such malformed projects.
[WARNING] 
[INFO]                                                                         
[INFO] ------------------------------------------------------------------------
[INFO] Building Hibernate JBossCache Integration 3.3.0.CR1
[INFO] ------------------------------------------------------------------------
[WARNING] The POM for hsqldb:hsqldb:jar:1.8.0.2 is missing, no dependency information available
[WARNING] The POM for commons-logging:commons-logging:jar:99.0-does-not-exist is missing, no dependency information available
[WARNING] The POM for commons-logging:commons-logging-api:jar:99.0-does-not-exist is missing, no dependency information available
Downloading: http://repo.maven.apache.org/maven2/slide/webdavlib/2.0/webdavlib-2.0.jar
Downloading: http://repo.maven.apache.org/maven2/jboss/jboss-cache/1.4.1.GA/jboss-cache-1.4.1.GA.jar
Downloading: http://repo.maven.apache.org/maven2/jboss/jboss-system/4.0.2/jboss-system-4.0.2.jar
Downloading: http://repo.maven.apache.org/maven2/jboss/jboss-minimal/4.0.2/jboss-minimal-4.0.2.jar
Downloading: http://repo.maven.apache.org/maven2/jboss/jboss-common/4.0.2/jboss-common-4.0.2.jar
1/458 KB   3/129 KB   1/691 KB   1/164 KB   1/458 KB   3/129 KB   1/691 KB   1/164 KB   1/458 KB   3/129 KB   1/691 KB   1/164 KB   1/458 KB   3/129 KB   1/691 KB   1/164 KB   5/458 KB   3/129 KB   5/691 KB   5/164 KB   5/458 KB   3/129 KB   5/691 KB   5/164 KB   5/458 KB   3/129 KB   5/691 KB   5/164 KB   5/458 KB   7/129 KB   5/691 KB   5/164 KB   9/458 KB   7/129 KB   5/691 KB   5/164 KB   9/458 KB   7/129 KB   9/691 KB   9/164 KB   9/458 KB   7/129 KB   9/691 KB   9/164 KB   9/458 KB   11/129 KB   9/691 KB   9/164 KB   13/458 KB   11/129 KB   9/691 KB   9/164 KB   13/458 KB   11/129 KB   9/691 KB   10/164 KB   13/458 KB   11/129 KB   13/691 KB   10/164 KB   13/458 KB   14/129 KB   13/691 KB   10/164 KB   14/458 KB   14/129 KB   13/691 KB   10/164 KB   14/458 KB   14/129 KB   14/691 KB   10/164 KB   14/458 KB   17/129 KB   14/691 KB   10/164 KB   14/458 KB   21/129 KB   14/691 KB   10/164 KB   14/458 KB   25/129 KB   14/691 KB   10/164 KB   14/458 KB   29/129 KB   14/691 KB   10/164 KB   14/458 KB   33/129 KB   14/691 KB   10/164 KB   16/458 KB   33/129 KB   14/691 KB   10/164 KB   16/458 KB   37/129 KB   14/691 KB   10/164 KB   18/458 KB   37/129 KB   14/691 KB   10/164 KB   22/458 KB   37/129 KB   14/691 KB   10/164 KB   22/458 KB   41/129 KB   14/691 KB   10/164 KB   26/458 KB   41/129 KB   14/691 KB   10/164 KB   26/458 KB   41/129 KB   14/691 KB   10/164 KB   30/458 KB   41/129 KB   14/691 KB   10/164 KB   34/458 KB   41/129 KB   14/691 KB   10/164 KB   38/458 KB   41/129 KB   14/691 KB   10/164 KB   41/458 KB   41/129 KB   14/691 KB   10/164 KB   41/458 KB   44/129 KB   14/691 KB   10/164 KB   41/458 KB   47/129 KB   14/691 KB   10/164 KB   41/458 KB   51/129 KB   14/691 KB   10/164 KB   41/458 KB   55/129 KB   14/691 KB   10/164 KB   41/458 KB   59/129 KB   14/691 KB   10/164 KB   41/458 KB   63/129 KB   14/691 KB   10/164 KB   43/458 KB   63/129 KB   14/691 KB   10/164 KB   45/458 KB   63/129 KB   14/691 KB   10/164 KB   45/458 KB   67/129 KB   14/691 KB   10/164 KB   49/458 KB   67/129 KB   14/691 KB   10/164 KB   49/458 KB   69/129 KB   14/691 KB   10/164 KB   53/458 KB   69/129 KB   14/691 KB   10/164 KB   57/458 KB   69/129 KB   14/691 KB   10/164 KB   57/458 KB   69/129 KB   14/691 KB   11/164 KB   61/458 KB   69/129 KB   14/691 KB   11/164 KB   61/458 KB   69/129 KB   14/691 KB   13/164 KB   61/458 KB   69/129 KB   14/691 KB   17/164 KB   61/458 KB   69/129 KB   16/691 KB   17/164 KB   65/458 KB   69/129 KB   16/691 KB   17/164 KB   65/458 KB   69/129 KB   18/691 KB   17/164 KB   65/458 KB   69/129 KB   18/691 KB   21/164 KB   69/458 KB   69/129 KB   18/691 KB   21/164 KB   69/458 KB   69/129 KB   22/691 KB   21/164 KB   69/458 KB   69/129 KB   22/691 KB   23/164 KB   71/458 KB   69/129 KB   22/691 KB   23/164 KB   71/458 KB   69/129 KB   26/691 KB   23/164 KB   71/458 KB   69/129 KB   27/691 KB   23/164 KB   71/458 KB   72/129 KB   27/691 KB   23/164 KB   71/458 KB   76/129 KB   27/691 KB   23/164 KB   71/458 KB   80/129 KB   27/691 KB   23/164 KB   71/458 KB   84/129 KB   27/691 KB   23/164 KB   71/458 KB   88/129 KB   27/691 KB   23/164 KB   71/458 KB   92/129 KB   27/691 KB   23/164 KB   71/458 KB   96/129 KB   27/691 KB   23/164 KB   71/458 KB   100/129 KB   27/691 KB   23/164 KB   72/458 KB   100/129 KB   27/691 KB   23/164 KB   76/458 KB   100/129 KB   27/691 KB   23/164 KB   76/458 KB   104/129 KB   27/691 KB   23/164 KB   80/458 KB   104/129 KB   27/691 KB   23/164 KB   80/458 KB   108/129 KB   27/691 KB   23/164 KB   84/458 KB   108/129 KB   27/691 KB   23/164 KB   84/458 KB   108/129 KB   27/691 KB   24/164 KB   84/458 KB   108/129 KB   27/691 KB   28/164 KB   84/458 KB   112/129 KB   28/691 KB   28/164 KB   84/458 KB   112/129 KB   28/691 KB   28/164 KB   88/458 KB   112/129 KB   28/691 KB   28/164 KB   88/458 KB   112/129 KB   32/691 KB   28/164 KB   88/458 KB   112/129 KB   32/691 KB   30/164 KB   88/458 KB   115/129 KB   32/691 KB   30/164 KB   91/458 KB   115/129 KB   32/691 KB   30/164 KB   91/458 KB   115/129 KB   36/691 KB   30/164 KB   91/458 KB   115/129 KB   40/691 KB   30/164 KB   91/458 KB   115/129 KB   40/691 KB   2/228 KB   30/164 KB   91/458 KB   115/129 KB   40/691 KB   3/228 KB   30/164 KB   91/458 KB   115/129 KB   44/691 KB   3/228 KB   30/164 KB   91/458 KB   115/129 KB   48/691 KB   3/228 KB   30/164 KB   91/458 KB   115/129 KB   52/691 KB   3/228 KB   30/164 KB   91/458 KB   115/129 KB   54/691 KB   3/228 KB   30/164 KB   91/458 KB   117/129 KB   54/691 KB   3/228 KB   30/164 KB   91/458 KB   121/129 KB   54/691 KB   3/228 KB   30/164 KB   91/458 KB   125/129 KB   54/691 KB   3/228 KB   30/164 KB   91/458 KB   129/129 KB   54/691 KB   3/228 KB   30/164 KB   92/458 KB   129/129 KB   54/691 KB   3/228 KB   30/164 KB   96/458 KB   129/129 KB   54/691 KB   3/228 KB   30/164 KB   96/458 KB   129/129 KB   54/691 KB   3/228 KB   31/164 KB   100/458 KB   129/129 KB   54/691 KB   3/228 KB   35/164 KB   100/458 KB   129/129 KB   54/691 KB   3/228 KB   35/164 KB   100/458 KB   129/129 KB   55/691 KB   3/228 KB   35/164 KB   102/458 KB   129/129 KB   55/691 KB   3/228 KB   35/164 KB   102/458 KB   129/129 KB   55/691 KB   3/228 KB   39/164 KB   102/458 KB   129/129 KB   58/691 KB   3/228 KB   39/164 KB   102/458 KB   129/129 KB   62/691 KB   3/228 KB   39/164 KB   102/458 KB   129/129 KB   62/691 KB   3/228 KB   43/164 KB   102/458 KB   129/129 KB   66/691 KB   3/228 KB   47/164 KB   102/458 KB   129/129 KB   66/691 KB   3/228 KB   47/164 KB   102/458 KB   129/129 KB   66/691 KB   4/228 KB   47/164 KB   102/458 KB   129/129 KB   70/691 KB   4/228 KB   47/164 KB   102/458 KB   129/129 KB   70/691 KB   7/228 KB   50/164 KB   102/458 KB   129/129 KB   70/691 KB   7/228 KB   50/164 KB   102/458 KB   129/129 KB   70/691 KB   9/228 KB   50/164 KB   102/458 KB   129/129 KB   72/691 KB   9/228 KB   50/164 KB   106/458 KB   129/129 KB   72/691 KB   9/228 KB   50/164 KB   110/458 KB   129/129 KB   72/691 KB   9/228 KB   50/164 KB   114/458 KB   129/129 KB   72/691 KB   9/228 KB   50/164 KB   118/458 KB   129/129 KB   72/691 KB   9/228 KB   50/164 KB   118/458 KB   129/129 KB   72/691 KB   9/228 KB   51/164 KB   118/458 KB   129/129 KB   72/691 KB   9/228 KB   55/164 KB   122/458 KB   129/129 KB   72/691 KB   9/228 KB   55/164 KB   122/458 KB   129/129 KB   74/691 KB   9/228 KB   55/164 KB   122/458 KB   129/129 KB   74/691 KB   9/228 KB   59/164 KB   126/458 KB   129/129 KB   74/691 KB   9/228 KB   59/164 KB   126/458 KB   129/129 KB   78/691 KB   9/228 KB   59/164 KB   126/458 KB   129/129 KB   78/691 KB   9/228 KB   62/164 KB   130/458 KB   129/129 KB   78/691 KB   9/228 KB   62/164 KB   130/458 KB   129/129 KB   78/691 KB   9/228 KB   62/164 KB                                                                130/458 KB   81/691 KB   9/228 KB   62/164 KB                130/458 KB   81/691 KB   9/228 KB   66/164 KB   Downloaded: http://repo.maven.apache.org/maven2/slide/webdavlib/2.0/webdavlib-2.0.jar (129 KB at 456.8 KB/sec)
130/458 KB   85/691 KB   9/228 KB   66/164 KB   134/458 KB   85/691 KB   9/228 KB   66/164 KB   Downloading: http://repo.maven.apache.org/maven2/jboss/jboss-j2se/200504122039/jboss-j2se-200504122039.jar
134/458 KB   85/691 KB   10/228 KB   66/164 KB   134/458 KB   85/691 KB   10/228 KB   67/164 KB   134/458 KB   85/691 KB   11/228 KB   67/164 KB   134/458 KB   89/691 KB   11/228 KB   67/164 KB   138/458 KB   93/691 KB   11/228 KB   67/164 KB   138/458 KB   93/691 KB   11/228 KB   67/164 KB   142/458 KB   93/691 KB   11/228 KB   67/164 KB   142/458 KB   93/691 KB   11/228 KB   67/164 KB   146/458 KB   93/691 KB   11/228 KB   67/164 KB   149/458 KB   93/691 KB   11/228 KB   67/164 KB   153/458 KB   93/691 KB   11/228 KB   67/164 KB   157/458 KB   93/691 KB   11/228 KB   67/164 KB   161/458 KB   93/691 KB   11/228 KB   67/164 KB   161/458 KB   93/691 KB   11/228 KB   68/164 KB   161/458 KB   93/691 KB   11/228 KB   69/164 KB   165/458 KB   93/691 KB   11/228 KB   69/164 KB   165/458 KB   93/691 KB   11/228 KB   73/164 KB   165/458 KB   95/691 KB   11/228 KB   73/164 KB   169/458 KB   95/691 KB   11/228 KB   73/164 KB   169/458 KB   98/691 KB   11/228 KB   73/164 KB   169/458 KB   98/691 KB   11/228 KB   76/164 KB   169/458 KB   98/691 KB   11/228 KB   80/164 KB   169/458 KB   99/691 KB   11/228 KB   80/164 KB   173/458 KB   99/691 KB   11/228 KB   80/164 KB   173/458 KB   100/691 KB   11/228 KB   80/164 KB   173/458 KB   100/691 KB   11/228 KB   84/164 KB   177/458 KB   100/691 KB   11/228 KB   84/164 KB   177/458 KB   102/691 KB   11/228 KB   84/164 KB   177/458 KB   103/691 KB   11/228 KB   84/164 KB   178/458 KB   103/691 KB   11/228 KB   84/164 KB   178/458 KB   105/691 KB   11/228 KB   84/164 KB   178/458 KB   109/691 KB   11/228 KB   84/164 KB   178/458 KB   109/691 KB   13/228 KB   84/164 KB   178/458 KB   110/691 KB   13/228 KB   84/164 KB   178/458 KB   113/691 KB   13/228 KB   84/164 KB   178/458 KB   113/691 KB   17/228 KB   84/164 KB   178/458 KB   116/691 KB   17/228 KB   84/164 KB   178/458 KB   116/691 KB   21/228 KB   84/164 KB   178/458 KB   116/691 KB   25/228 KB   84/164 KB   178/458 KB   116/691 KB   27/228 KB   84/164 KB   1/351 KB   178/458 KB   116/691 KB   27/228 KB   84/164 KB   4/351 KB   178/458 KB   116/691 KB   27/228 KB   84/164 KB   7/351 KB   178/458 KB   116/691 KB   27/228 KB   84/164 KB   11/351 KB   178/458 KB   116/691 KB   27/228 KB   84/164 KB   15/351 KB   178/458 KB   116/691 KB   27/228 KB   84/164 KB   19/351 KB   178/458 KB   116/691 KB   27/228 KB   84/164 KB   23/351 KB   178/458 KB   116/691 KB   27/228 KB   84/164 KB   27/351 KB   178/458 KB   116/691 KB   27/228 KB   84/164 KB   31/351 KB   178/458 KB   116/691 KB   27/228 KB   84/164 KB   35/351 KB   178/458 KB   116/691 KB   27/228 KB   84/164 KB   37/351 KB   178/458 KB   116/691 KB   27/228 KB   84/164 KB   37/351 KB   181/458 KB   116/691 KB   27/228 KB   84/164 KB   37/351 KB   185/458 KB   116/691 KB   27/228 KB   84/164 KB   37/351 KB   189/458 KB   116/691 KB   27/228 KB   84/164 KB   37/351 KB   193/458 KB   116/691 KB   27/228 KB   84/164 KB   37/351 KB   197/458 KB   116/691 KB   27/228 KB   84/164 KB   37/351 KB   197/458 KB   116/691 KB   27/228 KB   85/164 KB   37/351 KB   201/458 KB   116/691 KB   27/228 KB   85/164 KB   37/351 KB   201/458 KB   116/691 KB   27/228 KB   89/164 KB   37/351 KB   205/458 KB   117/691 KB   27/228 KB   89/164 KB   37/351 KB   205/458 KB   117/691 KB   27/228 KB   89/164 KB   37/351 KB   205/458 KB   117/691 KB   27/228 KB   92/164 KB   37/351 KB   205/458 KB   119/691 KB   27/228 KB   92/164 KB   37/351 KB   205/458 KB   119/691 KB   27/228 KB   95/164 KB   37/351 KB   209/458 KB   120/691 KB   27/228 KB   95/164 KB   37/351 KB   209/458 KB   120/691 KB   27/228 KB   95/164 KB   37/351 KB   209/458 KB   122/691 KB   27/228 KB   95/164 KB   37/351 KB   209/458 KB   122/691 KB   27/228 KB   99/164 KB   37/351 KB   213/458 KB   122/691 KB   27/228 KB   99/164 KB   37/351 KB   213/458 KB   123/691 KB   27/228 KB   99/164 KB   37/351 KB   213/458 KB   123/691 KB   27/228 KB   102/164 KB   37/351 KB   213/458 KB   125/691 KB   27/228 KB   102/164 KB   37/351 KB   217/458 KB   125/691 KB   27/228 KB   102/164 KB   37/351 KB   217/458 KB   127/691 KB   27/228 KB   102/164 KB   37/351 KB   217/458 KB   130/691 KB   27/228 KB   102/164 KB   37/351 KB   219/458 KB   130/691 KB   27/228 KB   102/164 KB   37/351 KB   219/458 KB   130/691 KB   28/228 KB   102/164 KB   37/351 KB   219/458 KB   132/691 KB   28/228 KB   102/164 KB   37/351 KB   219/458 KB   132/691 KB   30/228 KB   102/164 KB   37/351 KB   219/458 KB   134/691 KB   30/228 KB   102/164 KB   37/351 KB   219/458 KB   134/691 KB   33/228 KB   102/164 KB   37/351 KB   219/458 KB   134/691 KB   35/228 KB   102/164 KB   37/351 KB   219/458 KB   136/691 KB   35/228 KB   102/164 KB   37/351 KB   219/458 KB   136/691 KB   37/228 KB   102/164 KB   37/351 KB   219/458 KB   137/691 KB   37/228 KB   102/164 KB   37/351 KB   219/458 KB   139/691 KB   37/228 KB   102/164 KB   37/351 KB   219/458 KB   139/691 KB   38/228 KB   102/164 KB   37/351 KB   221/458 KB   139/691 KB   38/228 KB   102/164 KB   37/351 KB   222/458 KB   139/691 KB   38/228 KB   102/164 KB   37/351 KB   225/458 KB   139/691 KB   38/228 KB   102/164 KB   37/351 KB   226/458 KB   139/691 KB   38/228 KB   102/164 KB   37/351 KB   228/458 KB   139/691 KB   38/228 KB   102/164 KB   37/351 KB   229/458 KB   139/691 KB   38/228 KB   102/164 KB   37/351 KB   231/458 KB   139/691 KB   38/228 KB   102/164 KB   37/351 KB   232/458 KB   139/691 KB   38/228 KB   102/164 KB   37/351 KB   235/458 KB   139/691 KB   38/228 KB   102/164 KB   37/351 KB   238/458 KB   139/691 KB   38/228 KB   102/164 KB   37/351 KB   240/458 KB   139/691 KB   38/228 KB   102/164 KB   37/351 KB   244/458 KB   139/691 KB   38/228 KB   102/164 KB   37/351 KB   248/458 KB   139/691 KB   38/228 KB   102/164 KB   37/351 KB   250/458 KB   139/691 KB   38/228 KB   102/164 KB   37/351 KB   253/458 KB   139/691 KB   38/228 KB   102/164 KB   37/351 KB   253/458 KB   139/691 KB   38/228 KB   103/164 KB   37/351 KB   255/458 KB   139/691 KB   38/228 KB   103/164 KB   37/351 KB   255/458 KB   139/691 KB   38/228 KB   105/164 KB   37/351 KB   256/458 KB   139/691 KB   38/228 KB   105/164 KB   37/351 KB   257/458 KB   139/691 KB   38/228 KB   105/164 KB   37/351 KB   260/458 KB   139/691 KB   38/228 KB   105/164 KB   37/351 KB   260/458 KB   139/691 KB   38/228 KB   106/164 KB   37/351 KB   260/458 KB   139/691 KB   38/228 KB   108/164 KB   37/351 KB   260/458 KB   140/691 KB   38/228 KB   108/164 KB   37/351 KB   260/458 KB   141/691 KB   38/228 KB   108/164 KB   37/351 KB   260/458 KB   141/691 KB   38/228 KB   109/164 KB   37/351 KB   260/458 KB   141/691 KB   38/228 KB   110/164 KB   37/351 KB   260/458 KB   141/691 KB   38/228 KB   112/164 KB   37/351 KB   260/458 KB   141/691 KB   38/228 KB   113/164 KB   37/351 KB   260/458 KB   143/691 KB   38/228 KB   113/164 KB   37/351 KB   260/458 KB   144/691 KB   38/228 KB   113/164 KB   37/351 KB   260/458 KB   144/691 KB   38/228 KB   115/164 KB   37/351 KB   260/458 KB   144/691 KB   38/228 KB   116/164 KB   37/351 KB   260/458 KB   144/691 KB   38/228 KB   117/164 KB   37/351 KB   260/458 KB   146/691 KB   38/228 KB   117/164 KB   37/351 KB   260/458 KB   147/691 KB   38/228 KB   117/164 KB   37/351 KB   260/458 KB   147/691 KB   38/228 KB   119/164 KB   37/351 KB   260/458 KB   147/691 KB   38/228 KB   120/164 KB   37/351 KB   260/458 KB   149/691 KB   38/228 KB   120/164 KB   37/351 KB   260/458 KB   150/691 KB   38/228 KB   120/164 KB   37/351 KB   260/458 KB   151/691 KB   38/228 KB   120/164 KB   37/351 KB   260/458 KB   153/691 KB   38/228 KB   120/164 KB   37/351 KB   260/458 KB   153/691 KB   40/228 KB   120/164 KB   37/351 KB   260/458 KB   153/691 KB   41/228 KB   120/164 KB   37/351 KB   260/458 KB   154/691 KB   41/228 KB   120/164 KB   37/351 KB   260/458 KB   156/691 KB   41/228 KB   120/164 KB   37/351 KB   260/458 KB   157/691 KB   41/228 KB   120/164 KB   37/351 KB   260/458 KB   157/691 KB   43/228 KB   120/164 KB   37/351 KB   260/458 KB   157/691 KB   44/228 KB   120/164 KB   37/351 KB   260/458 KB   157/691 KB   45/228 KB   120/164 KB   37/351 KB   260/458 KB   157/691 KB   47/228 KB   120/164 KB   37/351 KB   260/458 KB   157/691 KB   48/228 KB   120/164 KB   37/351 KB   260/458 KB   157/691 KB   50/228 KB   120/164 KB   37/351 KB   260/458 KB   158/691 KB   50/228 KB   120/164 KB   37/351 KB   260/458 KB   160/691 KB   50/228 KB   120/164 KB   37/351 KB   260/458 KB   160/691 KB   51/228 KB   120/164 KB   38/351 KB   260/458 KB   160/691 KB   51/228 KB   120/164 KB   40/351 KB   260/458 KB   160/691 KB   51/228 KB   120/164 KB   41/351 KB   260/458 KB   160/691 KB   51/228 KB   120/164 KB   42/351 KB   260/458 KB   160/691 KB   51/228 KB   120/164 KB   44/351 KB   260/458 KB   160/691 KB   51/228 KB   120/164 KB   45/351 KB   260/458 KB   160/691 KB   51/228 KB   120/164 KB   48/351 KB   260/458 KB   160/691 KB   51/228 KB   120/164 KB   50/351 KB   260/458 KB   160/691 KB   51/228 KB   120/164 KB   52/351 KB   260/458 KB   160/691 KB   51/228 KB   120/164 KB   56/351 KB   260/458 KB   160/691 KB   51/228 KB   120/164 KB   60/351 KB   260/458 KB   160/691 KB   51/228 KB   120/164 KB   64/351 KB   260/458 KB   160/691 KB   51/228 KB   120/164 KB   68/351 KB   260/458 KB   160/691 KB   51/228 KB   120/164 KB   72/351 KB   260/458 KB   160/691 KB   51/228 KB   120/164 KB   76/351 KB   260/458 KB   160/691 KB   51/228 KB   120/164 KB   80/351 KB   260/458 KB   160/691 KB   51/228 KB   120/164 KB   84/351 KB   260/458 KB   160/691 KB   51/228 KB   120/164 KB   88/351 KB   260/458 KB   160/691 KB   51/228 KB   120/164 KB   92/351 KB   260/458 KB   160/691 KB   51/228 KB   120/164 KB   96/351 KB   260/458 KB   160/691 KB   51/228 KB   120/164 KB   100/351 KB   260/458 KB   160/691 KB   51/228 KB   120/164 KB   104/351 KB   260/458 KB   160/691 KB   51/228 KB   120/164 KB   108/351 KB   260/458 KB   160/691 KB   51/228 KB   120/164 KB   112/351 KB   260/458 KB   160/691 KB   51/228 KB   120/164 KB   116/351 KB   260/458 KB   160/691 KB   51/228 KB   120/164 KB   120/351 KB   260/458 KB   160/691 KB   51/228 KB   120/164 KB   124/351 KB   260/458 KB   160/691 KB   51/228 KB   120/164 KB   127/351 KB   260/458 KB   160/691 KB   51/228 KB   120/164 KB   127/351 KB   262/458 KB   160/691 KB   51/228 KB   120/164 KB   127/351 KB   263/458 KB   160/691 KB   51/228 KB   120/164 KB   127/351 KB   265/458 KB   160/691 KB   51/228 KB   120/164 KB   127/351 KB   266/458 KB   160/691 KB   51/228 KB   120/164 KB   127/351 KB   267/458 KB   160/691 KB   51/228 KB   120/164 KB   127/351 KB   269/458 KB   160/691 KB   51/228 KB   120/164 KB   127/351 KB   272/458 KB   160/691 KB   51/228 KB   120/164 KB   127/351 KB   273/458 KB   160/691 KB   51/228 KB   120/164 KB   127/351 KB   274/458 KB   160/691 KB   51/228 KB   120/164 KB   127/351 KB   276/458 KB   160/691 KB   51/228 KB   120/164 KB   127/351 KB   277/458 KB   160/691 KB   51/228 KB   120/164 KB   127/351 KB   280/458 KB   160/691 KB   51/228 KB   120/164 KB   127/351 KB   281/458 KB   160/691 KB   51/228 KB   120/164 KB   127/351 KB   283/458 KB   160/691 KB   51/228 KB   120/164 KB   127/351 KB   286/458 KB   160/691 KB   51/228 KB   120/164 KB   127/351 KB   287/458 KB   160/691 KB   51/228 KB   120/164 KB   127/351 KB   289/458 KB   160/691 KB   51/228 KB   120/164 KB   127/351 KB   291/458 KB   160/691 KB   51/228 KB   120/164 KB   127/351 KB   293/458 KB   160/691 KB   51/228 KB   120/164 KB   127/351 KB   294/458 KB   160/691 KB   51/228 KB   120/164 KB   127/351 KB   294/458 KB   160/691 KB   51/228 KB   122/164 KB   127/351 KB   294/458 KB   160/691 KB   51/228 KB   123/164 KB   127/351 KB   296/458 KB   160/691 KB   51/228 KB   123/164 KB   127/351 KB   297/458 KB   160/691 KB   51/228 KB   123/164 KB   127/351 KB   298/458 KB   160/691 KB   51/228 KB   123/164 KB   127/351 KB   300/458 KB   160/691 KB   51/228 KB   123/164 KB   127/351 KB   300/458 KB   160/691 KB   51/228 KB   125/164 KB   127/351 KB   300/458 KB   160/691 KB   51/228 KB   126/164 KB   127/351 KB   300/458 KB   161/691 KB   51/228 KB   126/164 KB   127/351 KB   300/458 KB   163/691 KB   51/228 KB   126/164 KB   127/351 KB   300/458 KB   163/691 KB   51/228 KB   127/164 KB   127/351 KB   300/458 KB   163/691 KB   51/228 KB   129/164 KB   127/351 KB   300/458 KB   163/691 KB   51/228 KB   130/164 KB   127/351 KB   300/458 KB   163/691 KB   51/228 KB   132/164 KB   127/351 KB   300/458 KB   164/691 KB   51/228 KB   132/164 KB   127/351 KB   300/458 KB   166/691 KB   51/228 KB   132/164 KB   127/351 KB   300/458 KB   166/691 KB   51/228 KB   133/164 KB   127/351 KB   300/458 KB   166/691 KB   51/228 KB   134/164 KB   127/351 KB   300/458 KB   167/691 KB   51/228 KB   134/164 KB   127/351 KB   300/458 KB   168/691 KB   51/228 KB   134/164 KB   127/351 KB   300/458 KB   168/691 KB   51/228 KB   136/164 KB   127/351 KB   300/458 KB   168/691 KB   51/228 KB   137/164 KB   127/351 KB   300/458 KB   170/691 KB   51/228 KB   137/164 KB   127/351 KB   300/458 KB   171/691 KB   51/228 KB   137/164 KB   127/351 KB   300/458 KB   173/691 KB   51/228 KB   137/164 KB   127/351 KB   300/458 KB   174/691 KB   51/228 KB   137/164 KB   127/351 KB   300/458 KB   174/691 KB   52/228 KB   137/164 KB   127/351 KB   300/458 KB   175/691 KB   52/228 KB   137/164 KB   127/351 KB   300/458 KB   177/691 KB   54/228 KB   137/164 KB   127/351 KB   300/458 KB   177/691 KB   54/228 KB   137/164 KB   127/351 KB   300/458 KB   178/691 KB   54/228 KB   137/164 KB   127/351 KB   300/458 KB   180/691 KB   54/228 KB   137/164 KB   127/351 KB   300/458 KB   180/691 KB   55/228 KB   137/164 KB   127/351 KB   300/458 KB   180/691 KB   57/228 KB   137/164 KB   127/351 KB   300/458 KB   180/691 KB   58/228 KB   137/164 KB   127/351 KB   300/458 KB   180/691 KB   59/228 KB   137/164 KB   127/351 KB   300/458 KB   180/691 KB   61/228 KB   137/164 KB   127/351 KB   300/458 KB   181/691 KB   61/228 KB   137/164 KB   127/351 KB   300/458 KB   182/691 KB   61/228 KB   137/164 KB   127/351 KB   300/458 KB   182/691 KB   62/228 KB   137/164 KB   127/351 KB   300/458 KB   182/691 KB   64/228 KB   137/164 KB   129/351 KB   300/458 KB   182/691 KB   64/228 KB   137/164 KB   130/351 KB   300/458 KB   182/691 KB   64/228 KB   137/164 KB   132/351 KB   300/458 KB   182/691 KB   64/228 KB   137/164 KB   133/351 KB   300/458 KB   182/691 KB   64/228 KB   137/164 KB   134/351 KB   300/458 KB   182/691 KB   64/228 KB   137/164 KB   136/351 KB   300/458 KB   182/691 KB   64/228 KB   137/164 KB   139/351 KB   300/458 KB   182/691 KB   64/228 KB   137/164 KB   140/351 KB   300/458 KB   182/691 KB   64/228 KB   137/164 KB   141/351 KB   300/458 KB   182/691 KB   64/228 KB   137/164 KB   144/351 KB   300/458 KB   182/691 KB   64/228 KB   137/164 KB   146/351 KB   300/458 KB   182/691 KB   64/228 KB   137/164 KB   147/351 KB   300/458 KB   182/691 KB   64/228 KB   137/164 KB   150/351 KB   300/458 KB   182/691 KB   64/228 KB   137/164 KB   151/351 KB   300/458 KB   182/691 KB   64/228 KB   137/164 KB   153/351 KB   300/458 KB   182/691 KB   64/228 KB   137/164 KB   156/351 KB   300/458 KB   182/691 KB   64/228 KB   137/164 KB   157/351 KB   300/458 KB   182/691 KB   64/228 KB   137/164 KB   158/351 KB   300/458 KB   182/691 KB   64/228 KB   137/164 KB   160/351 KB   300/458 KB   182/691 KB   64/228 KB   137/164 KB   161/351 KB   300/458 KB   182/691 KB   64/228 KB   137/164 KB   164/351 KB   300/458 KB   182/691 KB   64/228 KB   137/164 KB   166/351 KB   300/458 KB   182/691 KB   64/228 KB   137/164 KB   168/351 KB   300/458 KB   182/691 KB   64/228 KB   137/164 KB   171/351 KB   300/458 KB   182/691 KB   64/228 KB   137/164 KB   173/351 KB   300/458 KB   182/691 KB   64/228 KB   137/164 KB   174/351 KB   300/458 KB   182/691 KB   64/228 KB   137/164 KB   174/351 KB   303/458 KB   182/691 KB   64/228 KB   137/164 KB   174/351 KB   304/458 KB   182/691 KB   64/228 KB   137/164 KB   174/351 KB   306/458 KB   182/691 KB   64/228 KB   137/164 KB   174/351 KB   308/458 KB   182/691 KB   64/228 KB   137/164 KB   174/351 KB   311/458 KB   182/691 KB   64/228 KB   137/164 KB   174/351 KB   313/458 KB   182/691 KB   64/228 KB   137/164 KB   174/351 KB   314/458 KB   182/691 KB   64/228 KB   137/164 KB   174/351 KB   315/458 KB   182/691 KB   64/228 KB   137/164 KB   174/351 KB   317/458 KB   182/691 KB   64/228 KB   137/164 KB   174/351 KB   318/458 KB   182/691 KB   64/228 KB   137/164 KB   174/351 KB   320/458 KB   182/691 KB   64/228 KB   137/164 KB   174/351 KB   321/458 KB   182/691 KB   64/228 KB   137/164 KB   174/351 KB   322/458 KB   182/691 KB   64/228 KB   137/164 KB   174/351 KB   324/458 KB   182/691 KB   64/228 KB   137/164 KB   174/351 KB   327/458 KB   182/691 KB   64/228 KB   137/164 KB   174/351 KB   328/458 KB   182/691 KB   64/228 KB   137/164 KB   174/351 KB   330/458 KB   182/691 KB   64/228 KB   137/164 KB   174/351 KB   331/458 KB   182/691 KB   64/228 KB   137/164 KB   174/351 KB   332/458 KB   182/691 KB   64/228 KB   137/164 KB   174/351 KB   334/458 KB   182/691 KB   64/228 KB   137/164 KB   174/351 KB   335/458 KB   182/691 KB   64/228 KB   137/164 KB   174/351 KB   335/458 KB   182/691 KB   64/228 KB   139/164 KB   174/351 KB   335/458 KB   182/691 KB   64/228 KB   140/164 KB   174/351 KB   338/458 KB   182/691 KB   64/228 KB   140/164 KB   174/351 KB   339/458 KB   182/691 KB   64/228 KB   140/164 KB   174/351 KB   341/458 KB   182/691 KB   64/228 KB   140/164 KB   174/351 KB   341/458 KB   182/691 KB   64/228 KB   141/164 KB   174/351 KB   341/458 KB   182/691 KB   64/228 KB   143/164 KB   174/351 KB   341/458 KB   184/691 KB   64/228 KB   143/164 KB   174/351 KB   341/458 KB   185/691 KB   64/228 KB   143/164 KB   174/351 KB   341/458 KB   185/691 KB   64/228 KB   144/164 KB   174/351 KB   341/458 KB   185/691 KB   64/228 KB   146/164 KB   174/351 KB   341/458 KB   185/691 KB   64/228 KB   147/164 KB   174/351 KB   341/458 KB   185/691 KB   64/228 KB   149/164 KB   174/351 KB   341/458 KB   187/691 KB   64/228 KB   149/164 KB   174/351 KB   341/458 KB   188/691 KB   64/228 KB   149/164 KB   174/351 KB   341/458 KB   188/691 KB   64/228 KB   150/164 KB   174/351 KB   341/458 KB   188/691 KB   64/228 KB   151/164 KB   174/351 KB   341/458 KB   190/691 KB   64/228 KB   151/164 KB   174/351 KB   341/458 KB   191/691 KB   64/228 KB   151/164 KB   174/351 KB   341/458 KB   191/691 KB   64/228 KB   153/164 KB   174/351 KB   341/458 KB   191/691 KB   64/228 KB   154/164 KB   174/351 KB   341/458 KB   192/691 KB   64/228 KB   154/164 KB   174/351 KB   341/458 KB   194/691 KB   64/228 KB   154/164 KB   174/351 KB   341/458 KB   195/691 KB   64/228 KB   154/164 KB   174/351 KB   341/458 KB   197/691 KB   64/228 KB   154/164 KB   174/351 KB   341/458 KB   198/691 KB   64/228 KB   154/164 KB   174/351 KB   341/458 KB   199/691 KB   64/228 KB   154/164 KB   174/351 KB   341/458 KB   199/691 KB   65/228 KB   154/164 KB   174/351 KB   341/458 KB   199/691 KB   67/228 KB   154/164 KB   174/351 KB   341/458 KB   201/691 KB   67/228 KB   154/164 KB   174/351 KB   341/458 KB   202/691 KB   67/228 KB   154/164 KB   174/351 KB   341/458 KB   202/691 KB   68/228 KB   154/164 KB   174/351 KB   341/458 KB   202/691 KB   69/228 KB   154/164 KB   174/351 KB   341/458 KB   202/691 KB   71/228 KB   154/164 KB   174/351 KB   341/458 KB   202/691 KB   72/228 KB   154/164 KB   174/351 KB   341/458 KB   204/691 KB   72/228 KB   154/164 KB   174/351 KB   341/458 KB   205/691 KB   72/228 KB   154/164 KB   174/351 KB   341/458 KB   205/691 KB   74/228 KB   154/164 KB   174/351 KB   341/458 KB   205/691 KB   75/228 KB   154/164 KB   175/351 KB   341/458 KB   205/691 KB   75/228 KB   154/164 KB   177/351 KB   341/458 KB   205/691 KB   75/228 KB   154/164 KB   178/351 KB   341/458 KB   205/691 KB   75/228 KB   154/164 KB   180/351 KB   341/458 KB   205/691 KB   75/228 KB   154/164 KB   181/351 KB   341/458 KB   205/691 KB   75/228 KB   154/164 KB   182/351 KB   341/458 KB   205/691 KB   75/228 KB   154/164 KB   184/351 KB   341/458 KB   205/691 KB   75/228 KB   154/164 KB   185/351 KB   341/458 KB   205/691 KB   75/228 KB   154/164 KB   187/351 KB   341/458 KB   205/691 KB   75/228 KB   154/164 KB   188/351 KB   341/458 KB   205/691 KB   75/228 KB   154/164 KB   190/351 KB   341/458 KB   205/691 KB   75/228 KB   154/164 KB   191/351 KB   341/458 KB   205/691 KB   75/228 KB   154/164 KB   192/351 KB   341/458 KB   205/691 KB   75/228 KB   154/164 KB   194/351 KB   341/458 KB   205/691 KB   75/228 KB   154/164 KB   195/351 KB   341/458 KB   205/691 KB   75/228 KB   154/164 KB   197/351 KB   341/458 KB   205/691 KB   75/228 KB   154/164 KB   198/351 KB   341/458 KB   205/691 KB   75/228 KB   154/164 KB   201/351 KB   341/458 KB   205/691 KB   75/228 KB   154/164 KB   202/351 KB   341/458 KB   205/691 KB   75/228 KB   154/164 KB   204/351 KB   341/458 KB   205/691 KB   75/228 KB   154/164 KB   205/351 KB   341/458 KB   205/691 KB   75/228 KB   154/164 KB   207/351 KB   341/458 KB   205/691 KB   75/228 KB   154/164 KB   208/351 KB   341/458 KB   205/691 KB   75/228 KB   154/164 KB   209/351 KB   341/458 KB   205/691 KB   75/228 KB   154/164 KB   211/351 KB   341/458 KB   205/691 KB   75/228 KB   154/164 KB   212/351 KB   341/458 KB   205/691 KB   75/228 KB   154/164 KB   214/351 KB   341/458 KB   205/691 KB   75/228 KB   154/164 KB   215/351 KB   341/458 KB   205/691 KB   75/228 KB   154/164 KB   216/351 KB   341/458 KB   205/691 KB   75/228 KB   154/164 KB   218/351 KB   341/458 KB   205/691 KB   75/228 KB   154/164 KB   219/351 KB   341/458 KB   205/691 KB   75/228 KB   154/164 KB   221/351 KB   341/458 KB   205/691 KB   75/228 KB   154/164 KB   222/351 KB   341/458 KB   205/691 KB   75/228 KB   154/164 KB   222/351 KB   342/458 KB   205/691 KB   75/228 KB   154/164 KB   222/351 KB   344/458 KB   205/691 KB   75/228 KB   154/164 KB   222/351 KB   345/458 KB   205/691 KB   75/228 KB   154/164 KB   222/351 KB   347/458 KB   205/691 KB   75/228 KB   154/164 KB   222/351 KB   348/458 KB   205/691 KB   75/228 KB   154/164 KB   222/351 KB   349/458 KB   205/691 KB   75/228 KB   154/164 KB   222/351 KB   351/458 KB   205/691 KB   75/228 KB   154/164 KB   222/351 KB   352/458 KB   205/691 KB   75/228 KB   154/164 KB   222/351 KB   354/458 KB   205/691 KB   75/228 KB   154/164 KB   222/351 KB   356/458 KB   205/691 KB   75/228 KB   154/164 KB   222/351 KB   358/458 KB   205/691 KB   75/228 KB   154/164 KB   222/351 KB   359/458 KB   205/691 KB   75/228 KB   154/164 KB   222/351 KB   361/458 KB   205/691 KB   75/228 KB   154/164 KB   222/351 KB   362/458 KB   205/691 KB   75/228 KB   154/164 KB   222/351 KB   363/458 KB   205/691 KB   75/228 KB   154/164 KB   222/351 KB   365/458 KB   205/691 KB   75/228 KB   154/164 KB   222/351 KB   368/458 KB   205/691 KB   75/228 KB   154/164 KB   222/351 KB   369/458 KB   205/691 KB   75/228 KB   154/164 KB   222/351 KB   371/458 KB   205/691 KB   75/228 KB   154/164 KB   222/351 KB   372/458 KB   205/691 KB   75/228 KB   154/164 KB   222/351 KB   373/458 KB   205/691 KB   75/228 KB   154/164 KB   222/351 KB   375/458 KB   205/691 KB   75/228 KB   154/164 KB   222/351 KB   376/458 KB   205/691 KB   75/228 KB   154/164 KB   222/351 KB   376/458 KB   205/691 KB   75/228 KB   156/164 KB   222/351 KB   376/458 KB   205/691 KB   75/228 KB   157/164 KB   222/351 KB   379/458 KB   205/691 KB   75/228 KB   157/164 KB   222/351 KB   380/458 KB   205/691 KB   75/228 KB   157/164 KB   222/351 KB   382/458 KB   205/691 KB   75/228 KB   157/164 KB   222/351 KB   383/458 KB   205/691 KB   75/228 KB   157/164 KB   222/351 KB   383/458 KB   205/691 KB   75/228 KB   158/164 KB   222/351 KB   383/458 KB   205/691 KB   75/228 KB   160/164 KB   222/351 KB   383/458 KB   208/691 KB   75/228 KB   160/164 KB   222/351 KB   383/458 KB   208/691 KB   75/228 KB   161/164 KB   222/351 KB   383/458 KB   208/691 KB   75/228 KB   164/164 KB   222/351 KB   383/458 KB   211/691 KB   75/228 KB   164/164 KB   222/351 KB   383/458 KB   214/691 KB   75/228 KB   164/164 KB   222/351 KB   383/458 KB   216/691 KB   75/228 KB   164/164 KB   222/351 KB   383/458 KB   218/691 KB   75/228 KB   164/164 KB   222/351 KB   383/458 KB   219/691 KB   75/228 KB   164/164 KB   222/351 KB   383/458 KB   221/691 KB   75/228 KB   164/164 KB   222/351 KB   383/458 KB   222/691 KB   75/228 KB   164/164 KB   222/351 KB   383/458 KB   222/691 KB   76/228 KB   164/164 KB   222/351 KB   383/458 KB   222/691 KB   78/228 KB   164/164 KB   222/351 KB   383/458 KB   223/691 KB   78/228 KB   164/164 KB   222/351 KB   383/458 KB   225/691 KB   78/228 KB   164/164 KB   222/351 KB   383/458 KB   225/691 KB   79/228 KB   164/164 KB   222/351 KB   383/458 KB   225/691 KB   81/228 KB   164/164 KB   222/351 KB   383/458 KB   225/691 KB   82/228 KB   164/164 KB   222/351 KB   383/458 KB   225/691 KB   84/228 KB   164/164 KB   222/351 KB   383/458 KB   226/691 KB   84/228 KB   164/164 KB   222/351 KB   383/458 KB   228/691 KB   84/228 KB   164/164 KB   222/351 KB   383/458 KB   228/691 KB   85/228 KB   164/164 KB   222/351 KB   383/458 KB   228/691 KB   86/228 KB   164/164 KB   223/351 KB   383/458 KB   228/691 KB   86/228 KB   164/164 KB   225/351 KB   383/458 KB   228/691 KB   86/228 KB   164/164 KB   226/351 KB   383/458 KB   228/691 KB   86/228 KB   164/164 KB   228/351 KB   383/458 KB   228/691 KB   86/228 KB   164/164 KB   229/351 KB   383/458 KB   228/691 KB   86/228 KB   164/164 KB   231/351 KB   383/458 KB   228/691 KB   86/228 KB   164/164 KB   232/351 KB   383/458 KB   228/691 KB   86/228 KB   164/164 KB   233/351 KB   383/458 KB   228/691 KB   86/228 KB   164/164 KB   235/351 KB   383/458 KB   228/691 KB   86/228 KB   164/164 KB   236/351 KB   383/458 KB   228/691 KB   86/228 KB   164/164 KB   238/351 KB   383/458 KB   228/691 KB   86/228 KB   164/164 KB   239/351 KB   383/458 KB   228/691 KB   86/228 KB   164/164 KB   240/351 KB   383/458 KB   228/691 KB   86/228 KB   164/164 KB   242/351 KB   383/458 KB   228/691 KB   86/228 KB   164/164 KB   243/351 KB   383/458 KB   228/691 KB   86/228 KB   164/164 KB   245/351 KB   383/458 KB   228/691 KB   86/228 KB   164/164 KB   246/351 KB   383/458 KB   228/691 KB   86/228 KB   164/164 KB   248/351 KB   383/458 KB   228/691 KB   86/228 KB   164/164 KB   249/351 KB   383/458 KB   228/691 KB   86/228 KB   164/164 KB   252/351 KB   383/458 KB   228/691 KB   86/228 KB   164/164 KB   253/351 KB   383/458 KB   228/691 KB   86/228 KB   164/164 KB   255/351 KB   383/458 KB   228/691 KB   86/228 KB   164/164 KB   256/351 KB   383/458 KB   228/691 KB   86/228 KB   164/164 KB   257/351 KB   383/458 KB   228/691 KB   86/228 KB   164/164 KB   259/351 KB   383/458 KB   228/691 KB   86/228 KB   164/164 KB   260/351 KB   383/458 KB   228/691 KB   86/228 KB   164/164 KB   262/351 KB   383/458 KB   228/691 KB   86/228 KB   164/164 KB   263/351 KB   383/458 KB   228/691 KB   86/228 KB   164/164 KB   264/351 KB   383/458 KB   228/691 KB   86/228 KB   164/164 KB   266/351 KB   383/458 KB   228/691 KB   86/228 KB   164/164 KB   267/351 KB   383/458 KB   228/691 KB   86/228 KB   164/164 KB   269/351 KB   383/458 KB   228/691 KB   86/228 KB   164/164 KB   270/351 KB   383/458 KB   228/691 KB   86/228 KB   164/164 KB   270/351 KB   385/458 KB   228/691 KB   86/228 KB   164/164 KB   270/351 KB   386/458 KB   228/691 KB   86/228 KB   164/164 KB   270/351 KB   388/458 KB   228/691 KB   86/228 KB   164/164 KB   270/351 KB   389/458 KB   228/691 KB   86/228 KB   164/164 KB   270/351 KB   390/458 KB   228/691 KB   86/228 KB   164/164 KB   270/351 KB   392/458 KB   228/691 KB   86/228 KB   164/164 KB   270/351 KB   395/458 KB   228/691 KB   86/228 KB   164/164 KB   270/351 KB   397/458 KB   228/691 KB   86/228 KB   164/164 KB   270/351 KB   399/458 KB   228/691 KB   86/228 KB   164/164 KB   270/351 KB   400/458 KB   228/691 KB   86/228 KB   164/164 KB   270/351 KB   402/458 KB   228/691 KB   86/228 KB   164/164 KB   270/351 KB   403/458 KB   228/691 KB   86/228 KB   164/164 KB   270/351 KB   405/458 KB   228/691 KB   86/228 KB   164/164 KB   270/351 KB   406/458 KB   228/691 KB   86/228 KB   164/164 KB   270/351 KB   407/458 KB   228/691 KB   86/228 KB   164/164 KB   270/351 KB   409/458 KB   228/691 KB   86/228 KB   164/164 KB   270/351 KB   412/458 KB   228/691 KB   86/228 KB   164/164 KB   270/351 KB   413/458 KB   228/691 KB   86/228 KB   164/164 KB   270/351 KB   416/458 KB   228/691 KB   86/228 KB   164/164 KB   270/351 KB   417/458 KB   228/691 KB   86/228 KB   164/164 KB   270/351 KB   419/458 KB   228/691 KB   86/228 KB   164/164 KB   270/351 KB   421/458 KB   228/691 KB   86/228 KB   164/164 KB   270/351 KB   423/458 KB   228/691 KB   86/228 KB   164/164 KB   270/351 KB   424/458 KB   228/691 KB   86/228 KB   164/164 KB   270/351 KB   424/458 KB   231/691 KB   86/228 KB   164/164 KB   270/351 KB   424/458 KB   232/691 KB   86/228 KB   164/164 KB   270/351 KB   424/458 KB   235/691 KB   86/228 KB   164/164 KB   270/351 KB   424/458 KB   238/691 KB   86/228 KB   164/164 KB   270/351 KB   424/458 KB   239/691 KB   86/228 KB   164/164 KB   270/351 KB   424/458 KB   240/691 KB   86/228 KB   164/164 KB   270/351 KB   424/458 KB   243/691 KB   86/228 KB   164/164 KB   270/351 KB   424/458 KB   245/691 KB   86/228 KB   164/164 KB   270/351 KB   424/458 KB   246/691 KB   86/228 KB   164/164 KB   270/351 KB   424/458 KB   246/691 KB   88/228 KB   164/164 KB   270/351 KB   424/458 KB   246/691 KB   89/228 KB   164/164 KB   270/351 KB   424/458 KB   248/691 KB   89/228 KB   164/164 KB   270/351 KB   424/458 KB   249/691 KB   89/228 KB   164/164 KB   270/351 KB   424/458 KB   249/691 KB   91/228 KB   164/164 KB   270/351 KB   424/458 KB   249/691 KB   92/228 KB   164/164 KB                                                                   Downloaded: http://repo.maven.apache.org/maven2/jboss/jboss-minimal/4.0.2/jboss-minimal-4.0.2.jar (164 KB at 379.2 KB/sec)
270/351 KB   424/458 KB   249/691 KB   93/228 KB                Downloading: http://repo.maven.apache.org/maven2/concurrent/concurrent/1.3.4/concurrent-1.3.4.jar
270/351 KB   424/458 KB   250/691 KB   95/228 KB   270/351 KB   424/458 KB   250/691 KB   95/228 KB   270/351 KB   424/458 KB   252/691 KB   95/228 KB   270/351 KB   424/458 KB   252/691 KB   96/228 KB   270/351 KB   424/458 KB   252/691 KB   98/228 KB   272/351 KB   424/458 KB   252/691 KB   98/228 KB   273/351 KB   424/458 KB   252/691 KB   98/228 KB   274/351 KB   424/458 KB   252/691 KB   98/228 KB   276/351 KB   424/458 KB   252/691 KB   98/228 KB   277/351 KB   424/458 KB   252/691 KB   98/228 KB   279/351 KB   424/458 KB   252/691 KB   98/228 KB   280/351 KB   424/458 KB   252/691 KB   98/228 KB   281/351 KB   424/458 KB   252/691 KB   98/228 KB   283/351 KB   424/458 KB   252/691 KB   98/228 KB   284/351 KB   424/458 KB   252/691 KB   98/228 KB   286/351 KB   424/458 KB   252/691 KB   98/228 KB   289/351 KB   424/458 KB   252/691 KB   98/228 KB   290/351 KB   424/458 KB   252/691 KB   98/228 KB   291/351 KB   424/458 KB   252/691 KB   98/228 KB   293/351 KB   424/458 KB   252/691 KB   98/228 KB   294/351 KB   424/458 KB   252/691 KB   98/228 KB   296/351 KB   424/458 KB   252/691 KB   98/228 KB   297/351 KB   424/458 KB   252/691 KB   98/228 KB   298/351 KB   424/458 KB   252/691 KB   98/228 KB   300/351 KB   424/458 KB   252/691 KB   98/228 KB   301/351 KB   424/458 KB   252/691 KB   98/228 KB   303/351 KB   424/458 KB   252/691 KB   98/228 KB   304/351 KB   424/458 KB   252/691 KB   98/228 KB   306/351 KB   424/458 KB   252/691 KB   98/228 KB   307/351 KB   424/458 KB   252/691 KB   98/228 KB   308/351 KB   424/458 KB   252/691 KB   98/228 KB   310/351 KB   424/458 KB   252/691 KB   98/228 KB   311/351 KB   424/458 KB   252/691 KB   98/228 KB   313/351 KB   424/458 KB   252/691 KB   98/228 KB   314/351 KB   424/458 KB   252/691 KB   98/228 KB   315/351 KB   424/458 KB   252/691 KB   98/228 KB   317/351 KB   424/458 KB   252/691 KB   98/228 KB   318/351 KB   424/458 KB   252/691 KB   98/228 KB   320/351 KB   424/458 KB   252/691 KB   98/228 KB   320/351 KB   426/458 KB   252/691 KB   98/228 KB   320/351 KB   427/458 KB   252/691 KB   98/228 KB   320/351 KB   429/458 KB   252/691 KB   98/228 KB   320/351 KB   430/458 KB   252/691 KB   98/228 KB   320/351 KB   431/458 KB   252/691 KB   98/228 KB   320/351 KB   433/458 KB   252/691 KB   98/228 KB   320/351 KB   436/458 KB   252/691 KB   98/228 KB   320/351 KB   437/458 KB   252/691 KB   98/228 KB   320/351 KB   440/458 KB   252/691 KB   98/228 KB   320/351 KB   443/458 KB   252/691 KB   98/228 KB   320/351 KB   444/458 KB   252/691 KB   98/228 KB   320/351 KB   446/458 KB   252/691 KB   98/228 KB   320/351 KB   447/458 KB   252/691 KB   98/228 KB   320/351 KB   448/458 KB   252/691 KB   98/228 KB   320/351 KB   450/458 KB   252/691 KB   98/228 KB   320/351 KB   451/458 KB   252/691 KB   98/228 KB   320/351 KB   453/458 KB   252/691 KB   98/228 KB   320/351 KB   454/458 KB   252/691 KB   98/228 KB   320/351 KB   455/458 KB   252/691 KB   98/228 KB   320/351 KB   458/458 KB   252/691 KB   98/228 KB   320/351 KB   458/458 KB   253/691 KB   98/228 KB   320/351 KB   458/458 KB   255/691 KB   98/228 KB   320/351 KB   458/458 KB   256/691 KB   98/228 KB   320/351 KB   458/458 KB   257/691 KB   98/228 KB   320/351 KB   458/458 KB   259/691 KB   98/228 KB   320/351 KB   458/458 KB   260/691 KB   98/228 KB   320/351 KB   458/458 KB   262/691 KB   98/228 KB   320/351 KB   458/458 KB   263/691 KB   98/228 KB   320/351 KB   458/458 KB   264/691 KB   98/228 KB   320/351 KB   458/458 KB   267/691 KB   98/228 KB   320/351 KB   458/458 KB   270/691 KB   98/228 KB   320/351 KB   458/458 KB   270/691 KB   99/228 KB   320/351 KB   458/458 KB   270/691 KB   100/228 KB   320/351 KB   458/458 KB   273/691 KB   100/228 KB   320/351 KB   458/458 KB   273/691 KB   102/228 KB   320/351 KB   458/458 KB   273/691 KB   103/228 KB   320/351 KB   458/458 KB   273/691 KB   106/228 KB   320/351 KB   458/458 KB   274/691 KB   106/228 KB   320/351 KB   458/458 KB   276/691 KB   106/228 KB   320/351 KB   458/458 KB   276/691 KB   108/228 KB   320/351 KB   458/458 KB   276/691 KB   109/228 KB   320/351 KB   458/458 KB   276/691 KB   109/228 KB   2/185 KB   320/351 KB   458/458 KB   276/691 KB   109/228 KB   6/185 KB   320/351 KB   458/458 KB   276/691 KB   109/228 KB   10/185 KB   320/351 KB   458/458 KB   276/691 KB   109/228 KB   14/185 KB   320/351 KB   458/458 KB   276/691 KB   109/228 KB   18/185 KB   321/351 KB   458/458 KB   276/691 KB   109/228 KB   18/185 KB   321/351 KB   458/458 KB   276/691 KB   109/228 KB   18/185 KB   322/351 KB   458/458 KB   276/691 KB   109/228 KB   18/185 KB   324/351 KB   458/458 KB   276/691 KB   109/228 KB   18/185 KB   327/351 KB   458/458 KB   276/691 KB   109/228 KB   18/185 KB   328/351 KB   458/458 KB   276/691 KB   109/228 KB   18/185 KB   330/351 KB   458/458 KB   276/691 KB   109/228 KB   18/185 KB   331/351 KB   458/458 KB   276/691 KB   109/228 KB   18/185 KB   334/351 KB   458/458 KB   276/691 KB   109/228 KB   18/185 KB   335/351 KB   458/458 KB   276/691 KB   109/228 KB   18/185 KB   337/351 KB   458/458 KB   276/691 KB   109/228 KB   18/185 KB   338/351 KB   458/458 KB   276/691 KB   109/228 KB   18/185 KB   339/351 KB   458/458 KB   276/691 KB   109/228 KB   18/185 KB   341/351 KB   458/458 KB   276/691 KB   109/228 KB   18/185 KB   342/351 KB   458/458 KB   276/691 KB   109/228 KB   18/185 KB   344/351 KB   458/458 KB   276/691 KB   109/228 KB   18/185 KB   345/351 KB   458/458 KB   276/691 KB   109/228 KB   18/185 KB   348/351 KB   458/458 KB   276/691 KB   109/228 KB   18/185 KB   349/351 KB   458/458 KB   276/691 KB   109/228 KB   18/185 KB   351/351 KB   458/458 KB   276/691 KB   109/228 KB   18/185 KB   351/351 KB   458/458 KB   279/691 KB   109/228 KB   18/185 KB   351/351 KB   458/458 KB   281/691 KB   109/228 KB   18/185 KB   351/351 KB   458/458 KB   283/691 KB   109/228 KB   18/185 KB   351/351 KB   458/458 KB   284/691 KB   109/228 KB   18/185 KB   351/351 KB   458/458 KB   286/691 KB   109/228 KB   18/185 KB                                                                   351/351 KB   287/691 KB   109/228 KB   18/185 KB                Downloaded: http://repo.maven.apache.org/maven2/jboss/jboss-common/4.0.2/jboss-common-4.0.2.jar (458 KB at 972.0 KB/sec)
351/351 KB   289/691 KB   109/228 KB   18/185 KB   351/351 KB   291/691 KB   109/228 KB   18/185 KB   351/351 KB   294/691 KB   109/228 KB   18/185 KB   351/351 KB   294/691 KB   112/228 KB   18/185 KB   351/351 KB   296/691 KB   112/228 KB   18/185 KB   351/351 KB   297/691 KB   112/228 KB   18/185 KB   351/351 KB   297/691 KB   115/228 KB   18/185 KB   351/351 KB   297/691 KB   116/228 KB   18/185 KB   351/351 KB   297/691 KB   117/228 KB   18/185 KB   351/351 KB   297/691 KB   119/228 KB   18/185 KB   351/351 KB   298/691 KB   119/228 KB   18/185 KB   351/351 KB   300/691 KB   119/228 KB   18/185 KB   351/351 KB   300/691 KB   120/228 KB   18/185 KB   351/351 KB   300/691 KB   122/228 KB   18/185 KB   351/351 KB   300/691 KB   122/228 KB   20/185 KB   351/351 KB   300/691 KB   122/228 KB   21/185 KB   351/351 KB   300/691 KB   122/228 KB   23/185 KB   351/351 KB   300/691 KB   122/228 KB   24/185 KB   351/351 KB   300/691 KB   122/228 KB   26/185 KB   351/351 KB   300/691 KB   122/228 KB   27/185 KB   351/351 KB   300/691 KB   122/228 KB   28/185 KB   351/351 KB   300/691 KB   122/228 KB   30/185 KB   351/351 KB   300/691 KB   122/228 KB   31/185 KB   351/351 KB   300/691 KB   122/228 KB   33/185 KB   351/351 KB   300/691 KB   122/228 KB   34/185 KB   351/351 KB   300/691 KB   122/228 KB   35/185 KB   351/351 KB   300/691 KB   122/228 KB   37/185 KB   351/351 KB   300/691 KB   122/228 KB   38/185 KB                                                      Downloaded: http://repo.maven.apache.org/maven2/jboss/jboss-j2se/200504122039/jboss-j2se-200504122039.jar (351 KB at 1742.0 KB/sec)
303/691 KB   122/228 KB   38/185 KB                306/691 KB   122/228 KB   38/185 KB   308/691 KB   122/228 KB   38/185 KB   311/691 KB   122/228 KB   38/185 KB   314/691 KB   122/228 KB   38/185 KB   315/691 KB   122/228 KB   38/185 KB   318/691 KB   122/228 KB   38/185 KB   318/691 KB   125/228 KB   38/185 KB   320/691 KB   125/228 KB   38/185 KB   321/691 KB   125/228 KB   38/185 KB   321/691 KB   126/228 KB   38/185 KB   321/691 KB   127/228 KB   38/185 KB   321/691 KB   130/228 KB   38/185 KB   322/691 KB   130/228 KB   38/185 KB   324/691 KB   130/228 KB   38/185 KB   324/691 KB   133/228 KB   38/185 KB   324/691 KB   133/228 KB   40/185 KB   324/691 KB   133/228 KB   41/185 KB   324/691 KB   133/228 KB   44/185 KB   324/691 KB   133/228 KB   45/185 KB   324/691 KB   133/228 KB   47/185 KB   324/691 KB   133/228 KB   48/185 KB   324/691 KB   133/228 KB   50/185 KB   324/691 KB   133/228 KB   51/185 KB   324/691 KB   133/228 KB   52/185 KB   324/691 KB   133/228 KB   54/185 KB   324/691 KB   133/228 KB   55/185 KB   324/691 KB   133/228 KB   57/185 KB   324/691 KB   133/228 KB   58/185 KB   327/691 KB   133/228 KB   58/185 KB   330/691 KB   133/228 KB   58/185 KB   332/691 KB   133/228 KB   58/185 KB   335/691 KB   133/228 KB   58/185 KB   338/691 KB   133/228 KB   58/185 KB   339/691 KB   133/228 KB   58/185 KB   341/691 KB   133/228 KB   58/185 KB   342/691 KB   133/228 KB   58/185 KB   342/691 KB   136/228 KB   58/185 KB   342/691 KB   137/228 KB   58/185 KB   342/691 KB   139/228 KB   58/185 KB   344/691 KB   139/228 KB   58/185 KB   345/691 KB   139/228 KB   58/185 KB   345/691 KB   142/228 KB   58/185 KB   345/691 KB   143/228 KB   58/185 KB   345/691 KB   144/228 KB   58/185 KB   347/691 KB   144/228 KB   58/185 KB   348/691 KB   144/228 KB   58/185 KB   348/691 KB   147/228 KB   58/185 KB   348/691 KB   147/228 KB   61/185 KB   348/691 KB   147/228 KB   64/185 KB   348/691 KB   147/228 KB   65/185 KB   348/691 KB   147/228 KB   67/185 KB   348/691 KB   147/228 KB   68/185 KB   348/691 KB   147/228 KB   69/185 KB   348/691 KB   147/228 KB   71/185 KB   348/691 KB   147/228 KB   72/185 KB   348/691 KB   147/228 KB   74/185 KB   348/691 KB   147/228 KB   75/185 KB   348/691 KB   147/228 KB   76/185 KB   348/691 KB   147/228 KB   78/185 KB   351/691 KB   147/228 KB   78/185 KB   354/691 KB   147/228 KB   78/185 KB   356/691 KB   147/228 KB   78/185 KB   359/691 KB   147/228 KB   78/185 KB   362/691 KB   147/228 KB   78/185 KB   365/691 KB   147/228 KB   78/185 KB   365/691 KB   150/228 KB   78/185 KB   365/691 KB   151/228 KB   78/185 KB   365/691 KB   153/228 KB   78/185 KB   366/691 KB   153/228 KB   78/185 KB   368/691 KB   153/228 KB   78/185 KB   368/691 KB   154/228 KB   78/185 KB   368/691 KB   156/228 KB   78/185 KB   368/691 KB   158/228 KB   78/185 KB   369/691 KB   158/228 KB   78/185 KB   371/691 KB   158/228 KB   78/185 KB   371/691 KB   160/228 KB   78/185 KB   371/691 KB   161/228 KB   78/185 KB   371/691 KB   161/228 KB   81/185 KB   371/691 KB   161/228 KB   84/185 KB   371/691 KB   161/228 KB   85/185 KB   371/691 KB   161/228 KB   86/185 KB   371/691 KB   161/228 KB   88/185 KB   371/691 KB   161/228 KB   89/185 KB   371/691 KB   161/228 KB   92/185 KB   371/691 KB   161/228 KB   93/185 KB   371/691 KB   161/228 KB   95/185 KB   371/691 KB   161/228 KB   96/185 KB   371/691 KB   161/228 KB   98/185 KB   373/691 KB   161/228 KB   98/185 KB   375/691 KB   161/228 KB   98/185 KB   376/691 KB   161/228 KB   98/185 KB   379/691 KB   161/228 KB   98/185 KB   382/691 KB   161/228 KB   98/185 KB   385/691 KB   161/228 KB   98/185 KB   388/691 KB   161/228 KB   98/185 KB   390/691 KB   161/228 KB   98/185 KB   390/691 KB   164/228 KB   98/185 KB   390/691 KB   166/228 KB   98/185 KB   390/691 KB   167/228 KB   98/185 KB   392/691 KB   167/228 KB   98/185 KB   393/691 KB   167/228 KB   98/185 KB   393/691 KB   168/228 KB   98/185 KB   393/691 KB   171/228 KB   98/185 KB   393/691 KB   173/228 KB   98/185 KB   395/691 KB   173/228 KB   98/185 KB   396/691 KB   173/228 KB   98/185 KB   396/691 KB   175/228 KB   98/185 KB   396/691 KB   175/228 KB   100/185 KB   396/691 KB   175/228 KB   103/185 KB   396/691 KB   175/228 KB   105/185 KB   396/691 KB   175/228 KB   106/185 KB   396/691 KB   175/228 KB   108/185 KB   396/691 KB   175/228 KB   109/185 KB   396/691 KB   175/228 KB   112/185 KB   396/691 KB   175/228 KB   115/185 KB   396/691 KB   175/228 KB   117/185 KB   399/691 KB   175/228 KB   117/185 KB   400/691 KB   175/228 KB   117/185 KB   402/691 KB   175/228 KB   117/185 KB   403/691 KB   175/228 KB   117/185 KB   404/691 KB   175/228 KB   117/185 KB   407/691 KB   175/228 KB   117/185 KB   410/691 KB   175/228 KB   117/185 KB   412/691 KB   175/228 KB   117/185 KB   413/691 KB   175/228 KB   117/185 KB   416/691 KB   175/228 KB   117/185 KB   416/691 KB   178/228 KB   117/185 KB   416/691 KB   181/228 KB   117/185 KB   417/691 KB   181/228 KB   117/185 KB   419/691 KB   181/228 KB   117/185 KB   419/691 KB   183/228 KB   117/185 KB   419/691 KB   184/228 KB   117/185 KB   419/691 KB   185/228 KB   117/185 KB   420/691 KB   185/228 KB   117/185 KB   421/691 KB   185/228 KB   117/185 KB   421/691 KB   188/228 KB   117/185 KB   421/691 KB   190/228 KB   117/185 KB   421/691 KB   190/228 KB   120/185 KB   421/691 KB   190/228 KB   123/185 KB   421/691 KB   190/228 KB   126/185 KB   421/691 KB   190/228 KB   127/185 KB   421/691 KB   190/228 KB   129/185 KB   421/691 KB   190/228 KB   130/185 KB   421/691 KB   190/228 KB   132/185 KB   421/691 KB   190/228 KB   134/185 KB   421/691 KB   190/228 KB   137/185 KB   424/691 KB   190/228 KB   137/185 KB   426/691 KB   190/228 KB   137/185 KB   427/691 KB   190/228 KB   137/185 KB   430/691 KB   190/228 KB   137/185 KB   431/691 KB   190/228 KB   137/185 KB   433/691 KB   190/228 KB   137/185 KB   436/691 KB   190/228 KB   137/185 KB   437/691 KB   190/228 KB   137/185 KB   438/691 KB   190/228 KB   137/185 KB   441/691 KB   190/228 KB   137/185 KB   441/691 KB   192/228 KB   137/185 KB   441/691 KB   194/228 KB   137/185 KB   441/691 KB   195/228 KB   137/185 KB   441/691 KB   197/228 KB   137/185 KB   443/691 KB   197/228 KB   137/185 KB   444/691 KB   197/228 KB   137/185 KB   444/691 KB   198/228 KB   137/185 KB   444/691 KB   199/228 KB   137/185 KB   445/691 KB   199/228 KB   137/185 KB   447/691 KB   199/228 KB   137/185 KB   447/691 KB   202/228 KB   137/185 KB   447/691 KB   204/228 KB   137/185 KB   447/691 KB   204/228 KB   140/185 KB   447/691 KB   204/228 KB   142/185 KB   447/691 KB   204/228 KB   144/185 KB   447/691 KB   204/228 KB   146/185 KB   447/691 KB   204/228 KB   147/185 KB   447/691 KB   204/228 KB   150/185 KB   447/691 KB   204/228 KB   151/185 KB   447/691 KB   204/228 KB   153/185 KB   447/691 KB   204/228 KB   154/185 KB   447/691 KB   204/228 KB   156/185 KB   447/691 KB   204/228 KB   158/185 KB   450/691 KB   204/228 KB   158/185 KB   453/691 KB   204/228 KB   158/185 KB   455/691 KB   204/228 KB   158/185 KB   458/691 KB   204/228 KB   158/185 KB   461/691 KB   204/228 KB   158/185 KB   464/691 KB   204/228 KB   158/185 KB   465/691 KB   204/228 KB   158/185 KB   467/691 KB   204/228 KB   158/185 KB   467/691 KB   207/228 KB   158/185 KB   467/691 KB   208/228 KB   158/185 KB   467/691 KB   209/228 KB   158/185 KB   467/691 KB   211/228 KB   158/185 KB   468/691 KB   211/228 KB   158/185 KB   470/691 KB   211/228 KB   158/185 KB   470/691 KB   212/228 KB   158/185 KB   470/691 KB   214/228 KB   158/185 KB   472/691 KB   214/228 KB   158/185 KB   472/691 KB   216/228 KB   158/185 KB   472/691 KB   218/228 KB   158/185 KB   472/691 KB   218/228 KB   161/185 KB   472/691 KB   218/228 KB   164/185 KB   472/691 KB   218/228 KB   166/185 KB   472/691 KB   218/228 KB   167/185 KB   472/691 KB   218/228 KB   168/185 KB   472/691 KB   218/228 KB   170/185 KB   472/691 KB   218/228 KB   171/185 KB   472/691 KB   218/228 KB   174/185 KB   472/691 KB   218/228 KB   175/185 KB   472/691 KB   218/228 KB   177/185 KB   472/691 KB   218/228 KB   178/185 KB   472/691 KB   218/228 KB   180/185 KB   475/691 KB   218/228 KB   180/185 KB   477/691 KB   218/228 KB   180/185 KB   479/691 KB   218/228 KB   180/185 KB   482/691 KB   218/228 KB   180/185 KB   485/691 KB   218/228 KB   180/185 KB   488/691 KB   218/228 KB   180/185 KB   491/691 KB   218/228 KB   180/185 KB   494/691 KB   218/228 KB   180/185 KB   494/691 KB   221/228 KB   180/185 KB   494/691 KB   222/228 KB   180/185 KB   494/691 KB   224/228 KB   180/185 KB   494/691 KB   225/228 KB   180/185 KB   495/691 KB   225/228 KB   180/185 KB   496/691 KB   225/228 KB   180/185 KB   496/691 KB   226/228 KB   180/185 KB   496/691 KB   228/228 KB   180/185 KB   498/691 KB   228/228 KB   180/185 KB   499/691 KB   228/228 KB   180/185 KB   499/691 KB   228/228 KB   180/185 KB   499/691 KB   228/228 KB   181/185 KB   499/691 KB   228/228 KB   183/185 KB   499/691 KB   228/228 KB   185/185 KB   502/691 KB   228/228 KB   185/185 KB   505/691 KB   228/228 KB   185/185 KB   506/691 KB   228/228 KB   185/185 KB   508/691 KB   228/228 KB   185/185 KB   509/691 KB   228/228 KB   185/185 KB   512/691 KB   228/228 KB   185/185 KB   515/691 KB   228/228 KB   185/185 KB   518/691 KB   228/228 KB   185/185 KB   520/691 KB   228/228 KB   185/185 KB   523/691 KB   228/228 KB   185/185 KB   526/691 KB   228/228 KB   185/185 KB                                          Downloaded: http://repo.maven.apache.org/maven2/jboss/jboss-system/4.0.2/jboss-system-4.0.2.jar (228 KB at 341.6 KB/sec)
                                       Downloaded: http://repo.maven.apache.org/maven2/concurrent/concurrent/1.3.4/concurrent-1.3.4.jar (185 KB at 779.9 KB/sec)
529/691 KB                             532/691 KB   533/691 KB   535/691 KB   537/691 KB   539/691 KB   542/691 KB   544/691 KB   547/691 KB   550/691 KB   553/691 KB   556/691 KB   559/691 KB   561/691 KB   564/691 KB   567/691 KB   569/691 KB   571/691 KB   574/691 KB   577/691 KB   580/691 KB   583/691 KB   584/691 KB   587/691 KB   590/691 KB   593/691 KB   595/691 KB   598/691 KB   600/691 KB   602/691 KB   605/691 KB   608/691 KB   611/691 KB   614/691 KB   615/691 KB   617/691 KB   618/691 KB   621/691 KB   624/691 KB   626/691 KB   629/691 KB   631/691 KB   634/691 KB   635/691 KB   636/691 KB   639/691 KB   642/691 KB   643/691 KB   645/691 KB   648/691 KB   651/691 KB   652/691 KB   653/691 KB   655/691 KB   658/691 KB   660/691 KB   662/691 KB   663/691 KB   665/691 KB   668/691 KB   670/691 KB   673/691 KB   676/691 KB   679/691 KB   680/691 KB   682/691 KB   684/691 KB   686/691 KB   689/691 KB   691/691 KB                Downloaded: http://repo.maven.apache.org/maven2/jboss/jboss-cache/1.4.1.GA/jboss-cache-1.4.1.GA.jar (691 KB at 849.2 KB/sec)
[INFO] ------------------------------------------------------------------------
[INFO] BUILD FAILURE
[INFO] ------------------------------------------------------------------------
[INFO] Total time: 1.479s
[INFO] Finished at: Fri Jan 31 00:38:10 CET 2014
[INFO] Final Memory: 6M/150M
[INFO] ------------------------------------------------------------------------
[ERROR] Failed to execute goal on project hibernate-jbosscache: Could not resolve dependencies for project org.hibernate:hibernate-jbosscache:jar:3.3.0.CR1: The following artifacts could not be resolved: hsqldb:hsqldb:jar:1.8.0.2, commons-logging:commons-logging:jar:99.0-does-not-exist, commons-logging:commons-logging-api:jar:99.0-does-not-exist: Failure to find hsqldb:hsqldb:jar:1.8.0.2 in http://repo.maven.apache.org/maven2 was cached in the local repository, resolution will not be reattempted until the update interval of central has elapsed or updates are forced -> [Help 1]
[ERROR] 
[ERROR] To see the full stack trace of the errors, re-run Maven with the -e switch.
[ERROR] Re-run Maven using the -X switch to enable full debug logging.
[ERROR] 
[ERROR] For more information about the errors and possible solutions, please read the following articles:
[ERROR] [Help 1] http://cwiki.apache.org/confluence/display/MAVEN/DependencyResolutionException
