[INFO] Scanning for projects...
[WARNING] 
[WARNING] Some problems were encountered while building the effective model for org.hibernate:hibernate-ehcache:jar:3.5.0-Beta-2
[WARNING] The expression ${groupId} is deprecated. Please use ${project.groupId} instead.
[WARNING] The expression ${version} is deprecated. Please use ${project.version} instead.
[WARNING] The expression ${groupId} is deprecated. Please use ${project.groupId} instead.
[WARNING] The expression ${version} is deprecated. Please use ${project.version} instead.
[WARNING] The expression ${inceptionYear} is deprecated. Please use ${project.inceptionYear} instead.
[WARNING] 
[WARNING] It is highly recommended to fix these problems because they threaten the stability of your build.
[WARNING] 
[WARNING] For this reason, future Maven versions might no longer support building such malformed projects.
[WARNING] 
[INFO]                                                                         
[INFO] ------------------------------------------------------------------------
[INFO] Building Hibernate Ehcache Integration 3.5.0-Beta-2
[INFO] ------------------------------------------------------------------------
[WARNING] The POM for hsqldb:hsqldb:jar:1.8.0.2 is missing, no dependency information available
[WARNING] The POM for commons-logging:commons-logging:jar:99.0-does-not-exist is missing, no dependency information available
[WARNING] The POM for commons-logging:commons-logging-api:jar:99.0-does-not-exist is missing, no dependency information available
Downloading: http://repo.maven.apache.org/maven2/org/hibernate/hibernate-core/3.5.0-Beta-2/hibernate-core-3.5.0-Beta-2.jar
Downloading: http://repo.maven.apache.org/maven2/net/sf/jsr107cache/jsr107cache/1.0/jsr107cache-1.0.jar
Downloading: http://repo.maven.apache.org/maven2/net/sf/ehcache/ehcache/1.5.0/ehcache-1.5.0.jar
Downloading: http://repo.maven.apache.org/maven2/org/hibernate/hibernate-testing/3.5.0-Beta-2/hibernate-testing-3.5.0-Beta-2.jar
2/259 KB   3/9 KB   2/259 KB   3/9 KB   6/259 KB   3/9 KB   6/259 KB   7/9 KB   10/259 KB   7/9 KB   10/259 KB   9/9 KB   14/259 KB   9/9 KB   14/259 KB   9/9 KB   17/259 KB   9/9 KB   21/259 KB   9/9 KB   25/259 KB   9/9 KB   29/259 KB   9/9 KB   33/259 KB   9/9 KB   1/2357 KB   33/259 KB   9/9 KB   5/2357 KB   33/259 KB   9/9 KB   5/2357 KB   37/259 KB   9/9 KB   9/2357 KB   41/259 KB   9/9 KB   9/2357 KB   41/259 KB   9/9 KB   13/2357 KB   43/259 KB   9/9 KB   13/2357 KB   43/259 KB   9/9 KB   14/2357 KB   43/259 KB   9/9 KB   17/2357 KB   43/259 KB   9/9 KB   21/2357 KB   43/259 KB   9/9 KB   25/2357 KB   43/259 KB   9/9 KB   29/2357 KB   43/259 KB   9/9 KB   33/2357 KB   43/259 KB   9/9 KB   37/2357 KB   43/259 KB   9/9 KB   41/2357 KB   44/259 KB   9/9 KB   41/2357 KB   44/259 KB   9/9 KB   41/2357 KB   48/259 KB   9/9 KB   41/2357 KB   48/259 KB   9/9 KB   41/2357 KB   52/259 KB   9/9 KB   41/2357 KB   56/259 KB   9/9 KB   41/2357 KB   60/259 KB   9/9 KB                                     41/2357 KB   64/259 KB            Downloaded: http://repo.maven.apache.org/maven2/net/sf/jsr107cache/jsr107cache/1.0/jsr107cache-1.0.jar (9 KB at 35.6 KB/sec)
41/2357 KB   68/259 KB   41/2357 KB   71/259 KB   41/2357 KB   74/259 KB   41/2357 KB   78/259 KB   42/2357 KB   78/259 KB   46/2357 KB   78/259 KB   46/2357 KB   82/259 KB   50/2357 KB   82/259 KB   50/2357 KB   86/259 KB   54/2357 KB   86/259 KB   54/2357 KB   90/259 KB   58/2357 KB   90/259 KB   58/2357 KB   94/259 KB   61/2357 KB   94/259 KB   61/2357 KB   96/259 KB   61/2357 KB   99/259 KB   62/2357 KB   99/259 KB   64/2357 KB   99/259 KB   64/2357 KB   100/259 KB   64/2357 KB   104/259 KB   64/2357 KB   108/259 KB   64/2357 KB   112/259 KB   64/2357 KB   116/259 KB   64/2357 KB   120/259 KB   64/2357 KB   124/259 KB   64/2357 KB   128/259 KB   64/2357 KB   132/259 KB   64/2357 KB   136/259 KB   64/2357 KB   140/259 KB   64/2357 KB   144/259 KB   64/2357 KB   148/259 KB   64/2357 KB   152/259 KB   64/2357 KB   156/259 KB   65/2357 KB   156/259 KB   69/2357 KB   156/259 KB   73/2357 KB   156/259 KB   77/2357 KB   156/259 KB   81/2357 KB   156/259 KB   85/2357 KB   156/259 KB   89/2357 KB   156/259 KB   93/2357 KB   156/259 KB   97/2357 KB   156/259 KB   97/2357 KB   157/259 KB   101/2357 KB   157/259 KB   101/2357 KB   161/259 KB   103/2357 KB   161/259 KB   103/2357 KB   165/259 KB   103/2357 KB   169/259 KB   103/2357 KB   173/259 KB   103/2357 KB   177/259 KB   103/2357 KB   181/259 KB   103/2357 KB   181/259 KB   103/2357 KB   184/259 KB   103/2357 KB   188/259 KB   103/2357 KB   192/259 KB   103/2357 KB   195/259 KB   105/2357 KB   195/259 KB   108/2357 KB   195/259 KB   112/2357 KB   195/259 KB   116/2357 KB   195/259 KB   116/2357 KB   197/259 KB   116/2357 KB   198/259 KB   116/2357 KB   201/259 KB   120/2357 KB   201/259 KB   120/2357 KB   205/259 KB   124/2357 KB   205/259 KB   124/2357 KB   209/259 KB   125/2357 KB   209/259 KB   125/2357 KB   213/259 KB   125/2357 KB   217/259 KB   125/2357 KB   221/259 KB   125/2357 KB   222/259 KB   127/2357 KB   222/259 KB   131/2357 KB   222/259 KB   131/2357 KB   224/259 KB   131/2357 KB   228/259 KB   134/2357 KB   228/259 KB   134/2357 KB   232/259 KB   134/2357 KB   236/259 KB   134/2357 KB   238/259 KB   134/2357 KB   240/259 KB   134/2357 KB   242/259 KB   134/2357 KB   246/259 KB   134/2357 KB   248/259 KB   134/2357 KB   250/259 KB   134/2357 KB   254/259 KB   136/2357 KB   254/259 KB   136/2357 KB   258/259 KB   140/2357 KB   258/259 KB   140/2357 KB   259/259 KB   144/2357 KB   259/259 KB   148/2357 KB   259/259 KB   152/2357 KB   259/259 KB   156/2357 KB   259/259 KB   157/2357 KB   259/259 KB   160/2357 KB   259/259 KB   164/2357 KB   259/259 KB   167/2357 KB   259/259 KB                              Downloaded: http://repo.maven.apache.org/maven2/net/sf/ehcache/ehcache/1.5.0/ehcache-1.5.0.jar (259 KB at 699.7 KB/sec)
170/2357 KB                173/2357 KB   175/2357 KB   179/2357 KB   183/2357 KB   187/2357 KB   190/2357 KB   192/2357 KB   195/2357 KB   198/2357 KB   199/2357 KB   202/2357 KB   205/2357 KB   208/2357 KB   212/2357 KB   216/2357 KB   220/2357 KB   222/2357 KB   225/2357 KB   228/2357 KB   231/2357 KB   233/2357 KB   237/2357 KB   241/2357 KB   243/2357 KB   245/2357 KB   249/2357 KB   253/2357 KB   255/2357 KB   257/2357 KB   260/2357 KB   263/2357 KB   266/2357 KB   269/2357 KB   272/2357 KB   274/2357 KB   277/2357 KB   281/2357 KB   285/2357 KB   287/2357 KB   290/2357 KB   294/2357 KB   297/2357 KB   300/2357 KB   303/2357 KB   306/2357 KB   308/2357 KB   311/2357 KB   315/2357 KB   318/2357 KB   321/2357 KB   324/2357 KB   325/2357 KB   327/2357 KB   330/2357 KB   331/2357 KB   334/2357 KB   335/2357 KB   337/2357 KB   339/2357 KB   341/2357 KB   342/2357 KB   345/2357 KB   348/2357 KB   351/2357 KB   355/2357 KB   355/2357 KB   358/2357 KB   359/2357 KB   361/2357 KB   363/2357 KB   366/2357 KB   368/2357 KB   371/2357 KB   373/2357 KB   376/2357 KB   379/2357 KB   380/2357 KB   382/2357 KB   385/2357 KB   386/2357 KB   388/2357 KB   390/2357 KB   392/2357 KB   395/2357 KB   397/2357 KB   400/2357 KB   403/2357 KB   404/2357 KB   407/2357 KB   410/2357 KB   413/2357 KB   414/2357 KB   416/2357 KB   417/2357 KB   419/2357 KB   421/2357 KB   424/2357 KB   427/2357 KB   429/2357 KB   431/2357 KB   434/2357 KB   436/2357 KB   438/2357 KB   441/2357 KB   443/2357 KB   444/2357 KB   445/2357 KB   448/2357 KB   451/2357 KB   454/2357 KB   455/2357 KB   457/2357 KB   460/2357 KB   462/2357 KB   465/2357 KB   467/2357 KB   467/2357 KB   3/31 KB   467/2357 KB   7/31 KB   467/2357 KB   11/31 KB   467/2357 KB   14/31 KB   470/2357 KB   14/31 KB   472/2357 KB   14/31 KB   474/2357 KB   14/31 KB   477/2357 KB   14/31 KB   478/2357 KB   14/31 KB   479/2357 KB   14/31 KB   482/2357 KB   14/31 KB   484/2357 KB   14/31 KB   485/2357 KB   14/31 KB   487/2357 KB   14/31 KB   489/2357 KB   14/31 KB   492/2357 KB   14/31 KB   495/2357 KB   14/31 KB   498/2357 KB   14/31 KB   501/2357 KB   14/31 KB   501/2357 KB   17/31 KB   501/2357 KB   18/31 KB   501/2357 KB   20/31 KB   501/2357 KB   23/31 KB   501/2357 KB   24/31 KB   501/2357 KB   26/31 KB   501/2357 KB   27/31 KB   501/2357 KB   28/31 KB   501/2357 KB   30/31 KB   501/2357 KB   31/31 KB   503/2357 KB   31/31 KB   505/2357 KB   31/31 KB   508/2357 KB   31/31 KB   511/2357 KB   31/31 KB   512/2357 KB   31/31 KB   515/2357 KB   31/31 KB   518/2357 KB   31/31 KB   520/2357 KB   31/31 KB   523/2357 KB   31/31 KB   525/2357 KB   31/31 KB   526/2357 KB   31/31 KB   528/2357 KB   31/31 KB   530/2357 KB   31/31 KB   533/2357 KB   31/31 KB   536/2357 KB   31/31 KB   539/2357 KB   31/31 KB   542/2357 KB   31/31 KB   543/2357 KB   31/31 KB   546/2357 KB   31/31 KB   547/2357 KB   31/31 KB   549/2357 KB   31/31 KB   552/2357 KB   31/31 KB   553/2357 KB   31/31 KB   554/2357 KB   31/31 KB   556/2357 KB   31/31 KB   559/2357 KB   31/31 KB   560/2357 KB   31/31 KB   561/2357 KB   31/31 KB   564/2357 KB   31/31 KB   566/2357 KB   31/31 KB   569/2357 KB   31/31 KB   571/2357 KB   31/31 KB   574/2357 KB   31/31 KB   577/2357 KB   31/31 KB   580/2357 KB   31/31 KB   581/2357 KB   31/31 KB   583/2357 KB   31/31 KB   584/2357 KB   31/31 KB   587/2357 KB   31/31 KB   588/2357 KB   31/31 KB   590/2357 KB   31/31 KB   593/2357 KB   31/31 KB   594/2357 KB   31/31 KB   595/2357 KB   31/31 KB   597/2357 KB   31/31 KB   600/2357 KB   31/31 KB   602/2357 KB   31/31 KB   605/2357 KB   31/31 KB   607/2357 KB   31/31 KB   610/2357 KB   31/31 KB   612/2357 KB   31/31 KB   615/2357 KB   31/31 KB   617/2357 KB   31/31 KB   618/2357 KB   31/31 KB   621/2357 KB   31/31 KB   622/2357 KB   31/31 KB   624/2357 KB   31/31 KB   625/2357 KB   31/31 KB   628/2357 KB   31/31 KB   631/2357 KB   31/31 KB   634/2357 KB   31/31 KB   635/2357 KB   31/31 KB   636/2357 KB   31/31 KB   638/2357 KB   31/31 KB   641/2357 KB   31/31 KB   643/2357 KB   31/31 KB   645/2357 KB   31/31 KB   646/2357 KB   31/31 KB   649/2357 KB   31/31 KB   652/2357 KB   31/31 KB   655/2357 KB   31/31 KB   658/2357 KB   31/31 KB   659/2357 KB   31/31 KB   660/2357 KB   31/31 KB   663/2357 KB   31/31 KB   665/2357 KB   31/31 KB   666/2357 KB   31/31 KB   668/2357 KB   31/31 KB   670/2357 KB   31/31 KB   672/2357 KB   31/31 KB   673/2357 KB   31/31 KB   676/2357 KB   31/31 KB   677/2357 KB   31/31 KB   680/2357 KB   31/31 KB   683/2357 KB   31/31 KB   686/2357 KB   31/31 KB   689/2357 KB   31/31 KB   692/2357 KB   31/31 KB   694/2357 KB   31/31 KB   697/2357 KB   31/31 KB   700/2357 KB   31/31 KB   701/2357 KB   31/31 KB   703/2357 KB   31/31 KB   706/2357 KB   31/31 KB   707/2357 KB   31/31 KB   709/2357 KB   31/31 KB   710/2357 KB   31/31 KB   713/2357 KB   31/31 KB                            Downloaded: http://repo.maven.apache.org/maven2/org/hibernate/hibernate-testing/3.5.0-Beta-2/hibernate-testing-3.5.0-Beta-2.jar (31 KB at 40.4 KB/sec)
716/2357 KB              718/2357 KB   720/2357 KB   723/2357 KB   725/2357 KB   728/2357 KB   731/2357 KB   733/2357 KB   734/2357 KB   737/2357 KB   740/2357 KB   742/2357 KB   744/2357 KB   745/2357 KB   748/2357 KB   751/2357 KB   752/2357 KB   754/2357 KB   755/2357 KB   758/2357 KB   759/2357 KB   762/2357 KB   765/2357 KB   768/2357 KB   771/2357 KB   774/2357 KB   775/2357 KB   776/2357 KB   779/2357 KB   782/2357 KB   785/2357 KB   788/2357 KB   789/2357 KB   791/2357 KB   792/2357 KB   793/2357 KB   795/2357 KB   798/2357 KB   799/2357 KB   800/2357 KB   802/2357 KB   805/2357 KB   807/2357 KB   810/2357 KB   812/2357 KB   813/2357 KB   816/2357 KB   819/2357 KB   822/2357 KB   824/2357 KB   827/2357 KB   829/2357 KB   830/2357 KB   833/2357 KB   834/2357 KB   836/2357 KB   837/2357 KB   840/2357 KB   841/2357 KB   843/2357 KB   844/2357 KB   847/2357 KB   850/2357 KB   853/2357 KB   854/2357 KB   856/2357 KB   858/2357 KB   861/2357 KB   863/2357 KB   864/2357 KB   865/2357 KB   867/2357 KB   868/2357 KB   870/2357 KB   871/2357 KB   873/2357 KB   874/2357 KB   877/2357 KB   878/2357 KB   880/2357 KB   881/2357 KB   884/2357 KB   885/2357 KB   887/2357 KB   888/2357 KB   891/2357 KB   894/2357 KB   897/2357 KB   899/2357 KB   902/2357 KB   904/2357 KB   905/2357 KB   906/2357 KB   908/2357 KB   909/2357 KB   911/2357 KB   914/2357 KB   915/2357 KB   916/2357 KB   918/2357 KB   921/2357 KB   922/2357 KB   923/2357 KB   925/2357 KB   928/2357 KB   929/2357 KB   932/2357 KB   935/2357 KB   938/2357 KB   940/2357 KB   943/2357 KB   946/2357 KB   947/2357 KB   949/2357 KB   952/2357 KB   953/2357 KB   955/2357 KB   957/2357 KB   959/2357 KB   960/2357 KB   962/2357 KB   964/2357 KB   966/2357 KB   969/2357 KB   970/2357 KB   973/2357 KB   976/2357 KB   979/2357 KB   981/2357 KB   984/2357 KB   987/2357 KB   990/2357 KB   993/2357 KB   996/2357 KB   997/2357 KB   998/2357 KB   1001/2357 KB   1003/2357 KB   1005/2357 KB   1007/2357 KB   1010/2357 KB   1011/2357 KB   1014/2357 KB   1017/2357 KB   1020/2357 KB   1021/2357 KB   1022/2357 KB   1025/2357 KB   1028/2357 KB   1031/2357 KB   1034/2357 KB   1035/2357 KB   1037/2357 KB   1039/2357 KB   1041/2357 KB   1044/2357 KB   1045/2357 KB   1048/2357 KB   1049/2357 KB   1052/2357 KB   1054/2357 KB   1055/2357 KB   1056/2357 KB   1058/2357 KB   1059/2357 KB   1061/2357 KB   1062/2357 KB   1065/2357 KB   1068/2357 KB   1071/2357 KB   1073/2357 KB   1076/2357 KB   1079/2357 KB   1082/2357 KB   1083/2357 KB   1086/2357 KB   1087/2357 KB   1090/2357 KB   1092/2357 KB   1095/2357 KB   1096/2357 KB   1097/2357 KB   1099/2357 KB   1100/2357 KB   1102/2357 KB   1103/2357 KB   1104/2357 KB   1106/2357 KB   1107/2357 KB   1110/2357 KB   1113/2357 KB   1116/2357 KB   1119/2357 KB   1121/2357 KB   1124/2357 KB   1126/2357 KB   1128/2357 KB   1130/2357 KB   1133/2357 KB   1134/2357 KB   1136/2357 KB   1137/2357 KB   1138/2357 KB   1140/2357 KB   1141/2357 KB   1143/2357 KB   1144/2357 KB   1145/2357 KB   1148/2357 KB   1151/2357 KB   1153/2357 KB   1154/2357 KB   1155/2357 KB   1158/2357 KB   1161/2357 KB   1164/2357 KB   1167/2357 KB   1168/2357 KB   1171/2357 KB   1172/2357 KB   1174/2357 KB   1175/2357 KB   1177/2357 KB   1178/2357 KB   1179/2357 KB   1181/2357 KB   1182/2357 KB   1184/2357 KB   1186/2357 KB   1188/2357 KB   1191/2357 KB   1192/2357 KB   1194/2357 KB   1196/2357 KB   1198/2357 KB   1201/2357 KB   1203/2357 KB   1206/2357 KB   1208/2357 KB   1211/2357 KB   1212/2357 KB   1213/2357 KB   1215/2357 KB   1216/2357 KB   1218/2357 KB   1219/2357 KB   1220/2357 KB   1222/2357 KB   1223/2357 KB   1225/2357 KB   1226/2357 KB   1227/2357 KB   1230/2357 KB   1232/2357 KB   1233/2357 KB   1235/2357 KB   1237/2357 KB   1240/2357 KB   1243/2357 KB   1244/2357 KB   1247/2357 KB   1250/2357 KB   1252/2357 KB   1253/2357 KB   1254/2357 KB   1257/2357 KB   1259/2357 KB   1260/2357 KB   1261/2357 KB   1263/2357 KB   1264/2357 KB   1266/2357 KB   1267/2357 KB   1268/2357 KB   1271/2357 KB   1273/2357 KB   1274/2357 KB   1277/2357 KB   1278/2357 KB   1281/2357 KB   1284/2357 KB   1287/2357 KB   1288/2357 KB   1291/2357 KB   1294/2357 KB   1297/2357 KB   1298/2357 KB   1300/2357 KB   1301/2357 KB   1302/2357 KB   1304/2357 KB   1305/2357 KB   1307/2357 KB   1308/2357 KB   1309/2357 KB   1312/2357 KB   1315/2357 KB   1318/2357 KB   1321/2357 KB   1322/2357 KB   1325/2357 KB   1328/2357 KB   1331/2357 KB   1332/2357 KB   1334/2357 KB   1335/2357 KB   1338/2357 KB   1341/2357 KB   1342/2357 KB   1343/2357 KB   1345/2357 KB   1346/2357 KB   1348/2357 KB   1349/2357 KB   1352/2357 KB   1353/2357 KB   1355/2357 KB   1356/2357 KB   1359/2357 KB   1362/2357 KB   1365/2357 KB   1367/2357 KB   1369/2357 KB   1372/2357 KB   1375/2357 KB   1377/2357 KB   1379/2357 KB   1380/2357 KB   1382/2357 KB   1383/2357 KB   1384/2357 KB   1387/2357 KB   1389/2357 KB   1390/2357 KB   1393/2357 KB   1394/2357 KB   1396/2357 KB   1397/2357 KB   1400/2357 KB   1401/2357 KB   1404/2357 KB   1407/2357 KB   1410/2357 KB   1413/2357 KB   1414/2357 KB   1416/2357 KB   1417/2357 KB   1420/2357 KB   1423/2357 KB   1424/2357 KB   1425/2357 KB   1428/2357 KB   1430/2357 KB   1431/2357 KB   1434/2357 KB   1435/2357 KB   1437/2357 KB   1438/2357 KB   1441/2357 KB   1442/2357 KB   1445/2357 KB   1447/2357 KB   1449/2357 KB   1452/2357 KB   1455/2357 KB   1457/2357 KB   1458/2357 KB   1459/2357 KB   1461/2357 KB   1462/2357 KB   1465/2357 KB   1466/2357 KB   1468/2357 KB   1469/2357 KB   1471/2357 KB   1474/2357 KB   1476/2357 KB   1479/2357 KB   1482/2357 KB   1483/2357 KB   1486/2357 KB   1488/2357 KB   1490/2357 KB   1493/2357 KB   1495/2357 KB   1498/2357 KB   1499/2357 KB   1500/2357 KB   1503/2357 KB   1506/2357 KB   1507/2357 KB   1510/2357 KB   1512/2357 KB   1513/2357 KB   1516/2357 KB   1519/2357 KB   1520/2357 KB   1522/2357 KB   1524/2357 KB   1527/2357 KB   1529/2357 KB   1531/2357 KB   1533/2357 KB   1536/2357 KB   1539/2357 KB   1540/2357 KB   1541/2357 KB   1543/2357 KB   1544/2357 KB   1546/2357 KB   1548/2357 KB   1551/2357 KB   1553/2357 KB   1554/2357 KB   1557/2357 KB   1558/2357 KB   1561/2357 KB   1563/2357 KB   1564/2357 KB   1567/2357 KB   1570/2357 KB   1573/2357 KB   1574/2357 KB   1577/2357 KB   1578/2357 KB   1580/2357 KB   1582/2357 KB   1584/2357 KB   1585/2357 KB   1587/2357 KB   1588/2357 KB   1589/2357 KB   1591/2357 KB   1592/2357 KB   1594/2357 KB   1595/2357 KB   1598/2357 KB   1599/2357 KB   1601/2357 KB   1604/2357 KB   1605/2357 KB   1606/2357 KB   1608/2357 KB   1611/2357 KB   1614/2357 KB   1616/2357 KB   1619/2357 KB   1621/2357 KB   1622/2357 KB   1623/2357 KB   1626/2357 KB   1628/2357 KB   1629/2357 KB   1632/2357 KB   1635/2357 KB   1636/2357 KB   1638/2357 KB   1640/2357 KB   1642/2357 KB   1643/2357 KB   1645/2357 KB   1647/2357 KB   1650/2357 KB   1653/2357 KB   1655/2357 KB   1657/2357 KB   1660/2357 KB   1663/2357 KB   1664/2357 KB   1666/2357 KB   1669/2357 KB   1670/2357 KB   1671/2357 KB   1673/2357 KB   1674/2357 KB   1676/2357 KB   1679/2357 KB   1680/2357 KB   1681/2357 KB   1684/2357 KB   1686/2357 KB   1687/2357 KB   1688/2357 KB   1690/2357 KB   1691/2357 KB   1694/2357 KB   1697/2357 KB   1700/2357 KB   1701/2357 KB   1704/2357 KB   1707/2357 KB   1708/2357 KB   1711/2357 KB   1712/2357 KB   1714/2357 KB   1715/2357 KB   1717/2357 KB   1718/2357 KB   1720/2357 KB   1721/2357 KB   1722/2357 KB   1724/2357 KB   1725/2357 KB   1728/2357 KB   1731/2357 KB   1734/2357 KB   1735/2357 KB   1737/2357 KB   1738/2357 KB   1741/2357 KB   1744/2357 KB   1746/2357 KB   1748/2357 KB   1751/2357 KB   1754/2357 KB   1755/2357 KB   1756/2357 KB   1758/2357 KB   1759/2357 KB   1761/2357 KB   1763/2357 KB   1765/2357 KB   1766/2357 KB   1768/2357 KB   1769/2357 KB   1770/2357 KB   1772/2357 KB   1773/2357 KB   1775/2357 KB   1778/2357 KB   1779/2357 KB   1780/2357 KB   1782/2357 KB   1785/2357 KB   1786/2357 KB   1789/2357 KB   1792/2357 KB   1795/2357 KB   1796/2357 KB   1797/2357 KB   1799/2357 KB   1802/2357 KB   1804/2357 KB   1807/2357 KB   1809/2357 KB   1810/2357 KB   1811/2357 KB   1813/2357 KB   1814/2357 KB   1816/2357 KB   1817/2357 KB   1819/2357 KB   1820/2357 KB   1823/2357 KB   1826/2357 KB   1828/2357 KB   1830/2357 KB   1833/2357 KB   1836/2357 KB   1837/2357 KB   1840/2357 KB   1841/2357 KB   1843/2357 KB   1844/2357 KB   1845/2357 KB   1847/2357 KB   1848/2357 KB   1850/2357 KB   1851/2357 KB   1852/2357 KB   1854/2357 KB   1855/2357 KB   1857/2357 KB   1858/2357 KB   1860/2357 KB   1861/2357 KB   1862/2357 KB   1864/2357 KB   1865/2357 KB   1867/2357 KB   1868/2357 KB   1869/2357 KB   1871/2357 KB   1874/2357 KB   1877/2357 KB   1878/2357 KB   1881/2357 KB   1884/2357 KB   1885/2357 KB   1886/2357 KB   1888/2357 KB   1889/2357 KB   1891/2357 KB   1892/2357 KB   1893/2357 KB   1895/2357 KB   1896/2357 KB   1898/2357 KB   1899/2357 KB   1901/2357 KB   1902/2357 KB   1903/2357 KB   1905/2357 KB   1906/2357 KB   1908/2357 KB   1909/2357 KB   1910/2357 KB   1912/2357 KB   1913/2357 KB   1915/2357 KB   1916/2357 KB   1919/2357 KB   1920/2357 KB   1923/2357 KB   1926/2357 KB   1927/2357 KB   1930/2357 KB   1933/2357 KB   1935/2357 KB   1936/2357 KB   1937/2357 KB   1939/2357 KB   1940/2357 KB   1942/2357 KB   1943/2357 KB   1944/2357 KB   1946/2357 KB   1947/2357 KB   1949/2357 KB   1950/2357 KB   1951/2357 KB   1953/2357 KB   1954/2357 KB   1956/2357 KB   1957/2357 KB   1959/2357 KB   1960/2357 KB   1961/2357 KB   1963/2357 KB   1964/2357 KB   1966/2357 KB   1967/2357 KB   1968/2357 KB   1970/2357 KB   1971/2357 KB   1973/2357 KB   1976/2357 KB   1977/2357 KB   1978/2357 KB   1980/2357 KB   1983/2357 KB   1984/2357 KB   1985/2357 KB   1987/2357 KB   1988/2357 KB   1990/2357 KB   1991/2357 KB   1992/2357 KB   1994/2357 KB   1995/2357 KB   1997/2357 KB   1998/2357 KB   2000/2357 KB   2001/2357 KB   2002/2357 KB   2004/2357 KB   2005/2357 KB   2007/2357 KB   2008/2357 KB   2009/2357 KB   2011/2357 KB   2012/2357 KB   2014/2357 KB   2015/2357 KB   2017/2357 KB   2018/2357 KB   2019/2357 KB   2022/2357 KB   2024/2357 KB   2025/2357 KB   2028/2357 KB   2029/2357 KB   2031/2357 KB   2032/2357 KB   2035/2357 KB   2038/2357 KB   2039/2357 KB   2041/2357 KB   2042/2357 KB   2043/2357 KB   2045/2357 KB   2046/2357 KB   2049/2357 KB   2052/2357 KB   2055/2357 KB   2058/2357 KB   2060/2357 KB   2062/2357 KB   2063/2357 KB   2066/2357 KB   2069/2357 KB   2072/2357 KB   2074/2357 KB   2076/2357 KB   2077/2357 KB   2080/2357 KB   2082/2357 KB   2083/2357 KB   2084/2357 KB   2086/2357 KB   2087/2357 KB   2089/2357 KB   2090/2357 KB   2091/2357 KB   2093/2357 KB   2094/2357 KB   2096/2357 KB   2097/2357 KB   2099/2357 KB   2101/2357 KB   2104/2357 KB   2107/2357 KB   2110/2357 KB   2113/2357 KB   2116/2357 KB   2117/2357 KB   2118/2357 KB   2120/2357 KB   2123/2357 KB   2125/2357 KB   2128/2357 KB   2130/2357 KB   2131/2357 KB   2132/2357 KB   2134/2357 KB   2135/2357 KB   2137/2357 KB   2138/2357 KB   2140/2357 KB   2141/2357 KB   2142/2357 KB   2145/2357 KB   2147/2357 KB   2148/2357 KB   2149/2357 KB   2152/2357 KB   2155/2357 KB   2158/2357 KB   2161/2357 KB   2164/2357 KB   2166/2357 KB   2169/2357 KB   2171/2357 KB   2172/2357 KB   2173/2357 KB   2176/2357 KB   2179/2357 KB   2181/2357 KB   2182/2357 KB   2183/2357 KB   2185/2357 KB   2186/2357 KB   2188/2357 KB   2189/2357 KB   2190/2357 KB   2192/2357 KB   2193/2357 KB   2195/2357 KB   2196/2357 KB   2199/2357 KB   2200/2357 KB   2203/2357 KB   2206/2357 KB   2209/2357 KB   2212/2357 KB   2214/2357 KB   2216/2357 KB   2217/2357 KB   2219/2357 KB   2220/2357 KB   2223/2357 KB   2224/2357 KB   2226/2357 KB   2227/2357 KB   2229/2357 KB   2230/2357 KB   2231/2357 KB   2233/2357 KB   2234/2357 KB   2236/2357 KB   2237/2357 KB   2239/2357 KB   2240/2357 KB   2241/2357 KB   2243/2357 KB   2244/2357 KB   2246/2357 KB   2247/2357 KB   2248/2357 KB   2250/2357 KB   2251/2357 KB   2253/2357 KB   2254/2357 KB   2257/2357 KB   2260/2357 KB   2263/2357 KB   2265/2357 KB   2268/2357 KB   2271/2357 KB   2272/2357 KB   2274/2357 KB   2275/2357 KB   2277/2357 KB   2280/2357 KB   2281/2357 KB   2282/2357 KB   2284/2357 KB   2285/2357 KB   2287/2357 KB   2288/2357 KB   2289/2357 KB   2291/2357 KB   2294/2357 KB   2297/2357 KB   2298/2357 KB   2299/2357 KB   2302/2357 KB   2305/2357 KB   2308/2357 KB   2311/2357 KB   2313/2357 KB   2316/2357 KB   2319/2357 KB   2322/2357 KB   2323/2357 KB   2325/2357 KB   2328/2357 KB   2329/2357 KB   2330/2357 KB   2332/2357 KB   2333/2357 KB   2335/2357 KB   2336/2357 KB   2338/2357 KB   2339/2357 KB   2342/2357 KB   2345/2357 KB   2347/2357 KB   2350/2357 KB   2353/2357 KB   2354/2357 KB   2357/2357 KB                  Downloaded: http://repo.maven.apache.org/maven2/org/hibernate/hibernate-core/3.5.0-Beta-2/hibernate-core-3.5.0-Beta-2.jar (2357 KB at 1315.8 KB/sec)
[INFO] ------------------------------------------------------------------------
[INFO] BUILD FAILURE
[INFO] ------------------------------------------------------------------------
[INFO] Total time: 2.643s
[INFO] Finished at: Fri Jan 31 00:40:07 CET 2014
[INFO] Final Memory: 8M/150M
[INFO] ------------------------------------------------------------------------
[ERROR] Failed to execute goal on project hibernate-ehcache: Could not resolve dependencies for project org.hibernate:hibernate-ehcache:jar:3.5.0-Beta-2: The following artifacts could not be resolved: hsqldb:hsqldb:jar:1.8.0.2, commons-logging:commons-logging:jar:99.0-does-not-exist, commons-logging:commons-logging-api:jar:99.0-does-not-exist: Failure to find hsqldb:hsqldb:jar:1.8.0.2 in http://repo.maven.apache.org/maven2 was cached in the local repository, resolution will not be reattempted until the update interval of central has elapsed or updates are forced -> [Help 1]
[ERROR] 
[ERROR] To see the full stack trace of the errors, re-run Maven with the -e switch.
[ERROR] Re-run Maven using the -X switch to enable full debug logging.
[ERROR] 
[ERROR] For more information about the errors and possible solutions, please read the following articles:
[ERROR] [Help 1] http://cwiki.apache.org/confluence/display/MAVEN/DependencyResolutionException
