[INFO] Scanning for projects...
[INFO]                                                                         
[INFO] ------------------------------------------------------------------------
[INFO] Building Hibernate Distribution 3.6.8.Final
[INFO] ------------------------------------------------------------------------
[WARNING] The POM for org.jboss.cache:jbosscache-core:jar:3.2.1.GA is missing, no dependency information available
[WARNING] The POM for org.infinispan:infinispan-core:jar:4.2.1.CR1 is missing, no dependency information available
[WARNING] The POM for commons-logging:commons-logging:jar:99.0-does-not-exist is missing, no dependency information available
[WARNING] The POM for commons-logging:commons-logging-api:jar:99.0-does-not-exist is missing, no dependency information available
Downloading: http://repo.maven.apache.org/maven2/org/hibernate/hibernate-infinispan/3.6.8.Final/hibernate-infinispan-3.6.8.Final.jar
Downloading: http://repo.maven.apache.org/maven2/org/hibernate/hibernate-testing/3.6.8.Final/hibernate-testing-3.6.8.Final.jar
Downloading: http://repo.maven.apache.org/maven2/org/hibernate/hibernate-core/3.6.8.Final/hibernate-core-3.6.8.Final.jar
Downloading: http://repo.maven.apache.org/maven2/org/hibernate/hibernate-ehcache/3.6.8.Final/hibernate-ehcache-3.6.8.Final.jar
Downloading: http://repo.maven.apache.org/maven2/org/hibernate/hibernate-jbosscache/3.6.8.Final/hibernate-jbosscache-3.6.8.Final.jar
2/3047 KB   3/65 KB   1/12 KB   2/3047 KB   3/65 KB   1/12 KB   2/3047 KB   3/65 KB   1/12 KB   2/3047 KB   3/65 KB   5/12 KB   6/3047 KB   3/65 KB   5/12 KB   6/3047 KB   7/65 KB   5/12 KB   6/3047 KB   7/65 KB   9/12 KB   10/3047 KB   7/65 KB   9/12 KB   10/3047 KB   11/65 KB   9/12 KB   10/3047 KB   11/65 KB   12/12 KB   14/3047 KB   11/65 KB   12/12 KB   14/3047 KB   14/65 KB   12/12 KB   14/3047 KB   14/65 KB   12/12 KB   14/3047 KB   17/65 KB   12/12 KB   14/3047 KB   21/65 KB   12/12 KB   14/3047 KB   25/65 KB   12/12 KB   14/3047 KB   29/65 KB   12/12 KB   14/3047 KB   33/65 KB   12/12 KB   14/3047 KB   37/65 KB   12/12 KB   14/3047 KB   41/65 KB   12/12 KB   14/3047 KB   41/65 KB   12/12 KB   17/3047 KB   41/65 KB   12/12 KB   21/3047 KB   41/65 KB   12/12 KB   25/3047 KB   41/65 KB   12/12 KB   29/3047 KB   41/65 KB   12/12 KB   33/3047 KB   41/65 KB   12/12 KB   37/3047 KB   41/65 KB   12/12 KB   41/3047 KB   41/65 KB   12/12 KB   41/3047 KB   41/65 KB   12/12 KB   41/3047 KB   44/65 KB   12/12 KB   41/3047 KB   48/65 KB   12/12 KB   41/3047 KB   52/65 KB   12/12 KB   41/3047 KB   56/65 KB   12/12 KB                                      41/3047 KB   60/65 KB              Downloaded: http://repo.maven.apache.org/maven2/org/hibernate/hibernate-ehcache/3.6.8.Final/hibernate-ehcache-3.6.8.Final.jar (12 KB at 53.5 KB/sec)
41/3047 KB   64/65 KB   Downloading: http://repo.maven.apache.org/maven2/org/hibernate/hibernate-oscache/3.6.8.Final/hibernate-oscache-3.6.8.Final.jar
41/3047 KB   65/65 KB   44/3047 KB   65/65 KB   48/3047 KB   65/65 KB   52/3047 KB   65/65 KB   56/3047 KB   65/65 KB   60/3047 KB   65/65 KB   64/3047 KB   65/65 KB   68/3047 KB   65/65 KB   72/3047 KB   65/65 KB   72/3047 KB   65/65 KB                           Downloaded: http://repo.maven.apache.org/maven2/org/hibernate/hibernate-infinispan/3.6.8.Final/hibernate-infinispan-3.6.8.Final.jar (65 KB at 278.9 KB/sec)
Downloading: http://repo.maven.apache.org/maven2/org/hibernate/hibernate-swarmcache/3.6.8.Final/hibernate-swarmcache-3.6.8.Final.jar
74/3047 KB              78/3047 KB   82/3047 KB   86/3047 KB   90/3047 KB   94/3047 KB   98/3047 KB   100/3047 KB   103/3047 KB   106/3047 KB   3/78 KB   106/3047 KB   7/78 KB   106/3047 KB   11/78 KB   106/3047 KB   14/78 KB   106/3047 KB   14/78 KB   110/3047 KB   14/78 KB   114/3047 KB   14/78 KB   118/3047 KB   14/78 KB   122/3047 KB   14/78 KB   126/3047 KB   16/78 KB   126/3047 KB   20/78 KB   126/3047 KB   20/78 KB   130/3047 KB   24/78 KB   130/3047 KB   24/78 KB   134/3047 KB   28/78 KB   134/3047 KB   28/78 KB   138/3047 KB   32/78 KB   138/3047 KB   32/78 KB   142/3047 KB   36/78 KB   142/3047 KB   36/78 KB   146/3047 KB   40/78 KB   146/3047 KB   40/78 KB   150/3047 KB   41/78 KB   150/3047 KB   41/78 KB   154/3047 KB   41/78 KB   158/3047 KB   41/78 KB   162/3047 KB   41/78 KB   164/3047 KB   41/78 KB   167/3047 KB   41/78 KB   170/3047 KB   41/78 KB   174/3047 KB   41/78 KB   178/3047 KB   41/78 KB   182/3047 KB   41/78 KB   186/3047 KB   41/78 KB   187/3047 KB   42/78 KB   187/3047 KB   46/78 KB   187/3047 KB   50/78 KB   187/3047 KB   54/78 KB   187/3047 KB   58/78 KB   187/3047 KB   62/78 KB   187/3047 KB   66/78 KB   187/3047 KB   66/78 KB   188/3047 KB   66/78 KB   191/3047 KB   70/78 KB   191/3047 KB   70/78 KB   195/3047 KB   72/78 KB   195/3047 KB   72/78 KB   199/3047 KB   72/78 KB   199/3047 KB   72/78 KB   202/3047 KB   72/78 KB   206/3047 KB   72/78 KB   210/3047 KB   72/78 KB   214/3047 KB   72/78 KB   218/3047 KB   74/78 KB   218/3047 KB   76/78 KB   218/3047 KB   76/78 KB   222/3047 KB   78/78 KB   222/3047 KB   78/78 KB   225/3047 KB   78/78 KB   228/3047 KB   78/78 KB   232/3047 KB   78/78 KB   236/3047 KB   78/78 KB   238/3047 KB   78/78 KB   240/3047 KB   78/78 KB   244/3047 KB   78/78 KB   248/3047 KB   78/78 KB   252/3047 KB   78/78 KB   256/3047 KB   78/78 KB   260/3047 KB   78/78 KB   263/3047 KB   78/78 KB   266/3047 KB   78/78 KB   270/3047 KB   78/78 KB   274/3047 KB   78/78 KB   276/3047 KB   78/78 KB   279/3047 KB   78/78 KB   281/3047 KB   78/78 KB   284/3047 KB   78/78 KB   287/3047 KB   78/78 KB   291/3047 KB   78/78 KB   295/3047 KB   78/78 KB   299/3047 KB   78/78 KB   301/3047 KB   78/78 KB   304/3047 KB   78/78 KB   307/3047 KB   78/78 KB   308/3047 KB   78/78 KB   312/3047 KB   78/78 KB   313/3047 KB   78/78 KB   315/3047 KB   78/78 KB   315/3047 KB   3/6 KB   78/78 KB   315/3047 KB   6/6 KB   78/78 KB   319/3047 KB   6/6 KB   78/78 KB   323/3047 KB   6/6 KB   78/78 KB   327/3047 KB   6/6 KB   78/78 KB   331/3047 KB   6/6 KB   78/78 KB   335/3047 KB   6/6 KB   78/78 KB   339/3047 KB   6/6 KB   78/78 KB   343/3047 KB   6/6 KB   78/78 KB   347/3047 KB   6/6 KB   78/78 KB   351/3047 KB   6/6 KB   78/78 KB   355/3047 KB   6/6 KB   78/78 KB   359/3047 KB   6/6 KB   78/78 KB   363/3047 KB   6/6 KB   78/78 KB   367/3047 KB   6/6 KB   78/78 KB   371/3047 KB   6/6 KB   78/78 KB   373/3047 KB   6/6 KB   3/6 KB   78/78 KB   373/3047 KB   6/6 KB   6/6 KB   78/78 KB   373/3047 KB   6/6 KB   6/6 KB   78/78 KB   377/3047 KB   6/6 KB   6/6 KB   78/78 KB   381/3047 KB   6/6 KB   6/6 KB   78/78 KB   385/3047 KB   6/6 KB   6/6 KB   78/78 KB   389/3047 KB   6/6 KB   6/6 KB   78/78 KB   393/3047 KB   6/6 KB   6/6 KB   78/78 KB   397/3047 KB   6/6 KB   6/6 KB   78/78 KB   401/3047 KB   6/6 KB   6/6 KB   78/78 KB   405/3047 KB   6/6 KB   6/6 KB   78/78 KB   409/3047 KB   6/6 KB   6/6 KB   78/78 KB   413/3047 KB   6/6 KB   6/6 KB   78/78 KB   417/3047 KB   6/6 KB   6/6 KB   78/78 KB   419/3047 KB   6/6 KB   6/6 KB   78/78 KB   420/3047 KB   6/6 KB   6/6 KB   78/78 KB   421/3047 KB   6/6 KB   6/6 KB   78/78 KB   423/3047 KB   6/6 KB   6/6 KB   78/78 KB   427/3047 KB   6/6 KB   6/6 KB   78/78 KB   427/3047 KB   6/6 KB   6/6 KB   78/78 KB   429/3047 KB   6/6 KB   6/6 KB   78/78 KB   431/3047 KB   6/6 KB   6/6 KB   78/78 KB   433/3047 KB   6/6 KB   6/6 KB   78/78 KB   434/3047 KB   6/6 KB   6/6 KB   78/78 KB   437/3047 KB   6/6 KB   6/6 KB   78/78 KB   440/3047 KB   6/6 KB   6/6 KB   78/78 KB   441/3047 KB   6/6 KB   6/6 KB   78/78 KB   443/3047 KB   6/6 KB   6/6 KB   78/78 KB   446/3047 KB   6/6 KB   6/6 KB   78/78 KB   447/3047 KB   6/6 KB   6/6 KB   78/78 KB   450/3047 KB   6/6 KB   6/6 KB   78/78 KB   453/3047 KB   6/6 KB   6/6 KB   78/78 KB   455/3047 KB   6/6 KB   6/6 KB   78/78 KB   457/3047 KB   6/6 KB                                              Downloaded: http://repo.maven.apache.org/maven2/org/hibernate/hibernate-jbosscache/3.6.8.Final/hibernate-jbosscache-3.6.8.Final.jar (78 KB at 159.1 KB/sec)
6/6 KB   461/3047 KB   6/6 KB              Downloading: http://repo.maven.apache.org/maven2/org/hibernate/hibernate-c3p0/3.6.8.Final/hibernate-c3p0-3.6.8.Final.jar
6/6 KB   462/3047 KB   6/6 KB   6/6 KB   465/3047 KB   6/6 KB   6/6 KB   468/3047 KB   6/6 KB   6/6 KB   470/3047 KB   6/6 KB   6/6 KB   471/3047 KB   6/6 KB   6/6 KB   474/3047 KB   6/6 KB   6/6 KB   475/3047 KB   6/6 KB   6/6 KB   478/3047 KB   6/6 KB   6/6 KB   481/3047 KB   6/6 KB   6/6 KB   485/3047 KB   6/6 KB   6/6 KB   485/3047 KB   6/6 KB   3/7 KB   6/6 KB   485/3047 KB   6/6 KB   7/7 KB   6/6 KB   485/3047 KB   6/6 KB   7/7 KB   6/6 KB   487/3047 KB   6/6 KB   7/7 KB   6/6 KB   488/3047 KB   6/6 KB   7/7 KB   6/6 KB   491/3047 KB   6/6 KB   7/7 KB   6/6 KB   492/3047 KB   6/6 KB   7/7 KB   6/6 KB   494/3047 KB   6/6 KB   7/7 KB   6/6 KB   496/3047 KB   6/6 KB   7/7 KB   6/6 KB   499/3047 KB   6/6 KB   7/7 KB   6/6 KB   501/3047 KB   6/6 KB   7/7 KB   6/6 KB   504/3047 KB   6/6 KB   7/7 KB   6/6 KB   506/3047 KB   6/6 KB                                            6/6 KB   508/3047 KB   6/6 KB            Downloaded: http://repo.maven.apache.org/maven2/org/hibernate/hibernate-c3p0/3.6.8.Final/hibernate-c3p0-3.6.8.Final.jar (7 KB at 127.8 KB/sec)
6/6 KB   509/3047 KB   6/6 KB   Downloading: http://repo.maven.apache.org/maven2/org/hibernate/hibernate-proxool/3.6.8.Final/hibernate-proxool-3.6.8.Final.jar
6/6 KB   511/3047 KB   6/6 KB   6/6 KB   512/3047 KB   6/6 KB   6/6 KB   513/3047 KB   6/6 KB   6/6 KB   515/3047 KB   6/6 KB   6/6 KB   516/3047 KB   6/6 KB                                   Downloaded: http://repo.maven.apache.org/maven2/org/hibernate/hibernate-oscache/3.6.8.Final/hibernate-oscache-3.6.8.Final.jar (6 KB at 15.4 KB/sec)
Downloading: http://repo.maven.apache.org/maven2/org/hibernate/hibernate-entitymanager/3.6.8.Final/hibernate-entitymanager-3.6.8.Final.jar
6/6 KB   518/3047 KB            6/6 KB   519/3047 KB   6/6 KB   520/3047 KB   6/6 KB   522/3047 KB   6/6 KB   523/3047 KB   6/6 KB   525/3047 KB   6/6 KB   526/3047 KB   6/6 KB   528/3047 KB   6/6 KB   529/3047 KB   6/6 KB   532/3047 KB   6/6 KB   535/3047 KB   6/6 KB   537/3047 KB   6/6 KB   540/3047 KB   6/6 KB   543/3047 KB   6/6 KB   546/3047 KB   6/6 KB   549/3047 KB   6/6 KB   550/3047 KB   6/6 KB   552/3047 KB   6/6 KB   3/417 KB   552/3047 KB   6/6 KB   7/417 KB   552/3047 KB   6/6 KB   11/417 KB   552/3047 KB   6/6 KB   15/417 KB   552/3047 KB   6/6 KB   17/417 KB   552/3047 KB   6/6 KB   17/417 KB   554/3047 KB                                      Downloaded: http://repo.maven.apache.org/maven2/org/hibernate/hibernate-swarmcache/3.6.8.Final/hibernate-swarmcache-3.6.8.Final.jar (6 KB at 14.1 KB/sec)
Downloading: http://repo.maven.apache.org/maven2/org/hibernate/hibernate-envers/3.6.8.Final/hibernate-envers-3.6.8.Final.jar
17/417 KB   557/3047 KB            17/417 KB   559/3047 KB   17/417 KB   560/3047 KB   17/417 KB   563/3047 KB   17/417 KB   566/3047 KB   17/417 KB   567/3047 KB   17/417 KB   569/3047 KB   17/417 KB   570/3047 KB   17/417 KB   571/3047 KB   17/417 KB   573/3047 KB   17/417 KB   574/3047 KB   18/417 KB   574/3047 KB   20/417 KB   574/3047 KB   21/417 KB   574/3047 KB   24/417 KB   574/3047 KB   26/417 KB   574/3047 KB   27/417 KB   574/3047 KB   28/417 KB   574/3047 KB   30/417 KB   574/3047 KB   31/417 KB   574/3047 KB   33/417 KB   574/3047 KB   34/417 KB   574/3047 KB   35/417 KB   574/3047 KB   37/417 KB   574/3047 KB   38/417 KB   574/3047 KB   38/417 KB   577/3047 KB   38/417 KB   580/3047 KB   38/417 KB   583/3047 KB   38/417 KB   584/3047 KB   38/417 KB   586/3047 KB   38/417 KB   588/3047 KB   38/417 KB   591/3047 KB   38/417 KB   594/3047 KB   38/417 KB   595/3047 KB   38/417 KB   597/3047 KB   40/417 KB   597/3047 KB   43/417 KB   597/3047 KB   45/417 KB   597/3047 KB   47/417 KB   597/3047 KB   48/417 KB   597/3047 KB   50/417 KB   597/3047 KB   51/417 KB   597/3047 KB   52/417 KB   597/3047 KB   54/417 KB   597/3047 KB   55/417 KB   597/3047 KB   57/417 KB   597/3047 KB   58/417 KB   597/3047 KB   59/417 KB   597/3047 KB   61/417 KB   597/3047 KB   62/417 KB   597/3047 KB   65/417 KB   597/3047 KB   67/417 KB   597/3047 KB   68/417 KB   597/3047 KB   68/417 KB   600/3047 KB   68/417 KB   602/3047 KB   68/417 KB   604/3047 KB   68/417 KB   605/3047 KB   68/417 KB   607/3047 KB   68/417 KB   608/3047 KB   68/417 KB   611/3047 KB   68/417 KB   614/3047 KB   68/417 KB   617/3047 KB   68/417 KB   618/3047 KB   68/417 KB   619/3047 KB   69/417 KB   619/3047 KB   71/417 KB   619/3047 KB   74/417 KB   619/3047 KB   75/417 KB   619/3047 KB   78/417 KB   619/3047 KB   79/417 KB   619/3047 KB   81/417 KB   619/3047 KB   82/417 KB   619/3047 KB   84/417 KB   619/3047 KB   85/417 KB   619/3047 KB   86/417 KB   619/3047 KB   88/417 KB   619/3047 KB   89/417 KB   619/3047 KB   91/417 KB   619/3047 KB   92/417 KB   619/3047 KB   93/417 KB   619/3047 KB   95/417 KB   619/3047 KB   96/417 KB   619/3047 KB   99/417 KB   619/3047 KB   100/417 KB   619/3047 KB   102/417 KB   619/3047 KB   103/417 KB   619/3047 KB   105/417 KB   619/3047 KB   106/417 KB   619/3047 KB   108/417 KB   619/3047 KB   109/417 KB   619/3047 KB   110/417 KB   619/3047 KB   112/417 KB   619/3047 KB   112/417 KB   622/3047 KB   112/417 KB   624/3047 KB   112/417 KB   627/3047 KB   112/417 KB   628/3047 KB   112/417 KB   629/3047 KB   112/417 KB   632/3047 KB   112/417 KB   635/3047 KB   112/417 KB   638/3047 KB   112/417 KB   641/3047 KB   112/417 KB   643/3047 KB   115/417 KB   643/3047 KB   116/417 KB   643/3047 KB   117/417 KB   643/3047 KB   119/417 KB   643/3047 KB   120/417 KB   643/3047 KB   122/417 KB   643/3047 KB   123/417 KB   643/3047 KB   125/417 KB   643/3047 KB   126/417 KB   643/3047 KB   127/417 KB   643/3047 KB   129/417 KB   643/3047 KB   130/417 KB   643/3047 KB   132/417 KB   643/3047 KB   133/417 KB   643/3047 KB   134/417 KB   643/3047 KB   136/417 KB   643/3047 KB   137/417 KB   643/3047 KB   139/417 KB   643/3047 KB   140/417 KB   643/3047 KB   142/417 KB   643/3047 KB   143/417 KB   643/3047 KB   144/417 KB   643/3047 KB   146/417 KB   643/3047 KB   147/417 KB   643/3047 KB   149/417 KB   643/3047 KB   150/417 KB   643/3047 KB   151/417 KB   643/3047 KB   153/417 KB   643/3047 KB   154/417 KB   643/3047 KB   156/417 KB   643/3047 KB   157/417 KB   643/3047 KB   158/417 KB   643/3047 KB   160/417 KB   643/3047 KB   161/417 KB   643/3047 KB   163/417 KB   643/3047 KB   164/417 KB   643/3047 KB   166/417 KB   643/3047 KB   167/417 KB   643/3047 KB   168/417 KB   643/3047 KB   170/417 KB   643/3047 KB   171/417 KB   643/3047 KB   171/417 KB   646/3047 KB   171/417 KB   649/3047 KB   171/417 KB   651/3047 KB   171/417 KB   652/3047 KB   171/417 KB   653/3047 KB   171/417 KB   655/3047 KB   171/417 KB   656/3047 KB   171/417 KB   659/3047 KB   171/417 KB   662/3047 KB   171/417 KB   665/3047 KB   174/417 KB   665/3047 KB   175/417 KB   665/3047 KB   177/417 KB   665/3047 KB   178/417 KB   665/3047 KB   180/417 KB   665/3047 KB   181/417 KB   665/3047 KB   183/417 KB   665/3047 KB   184/417 KB   665/3047 KB   185/417 KB   665/3047 KB   187/417 KB   665/3047 KB   188/417 KB   665/3047 KB   190/417 KB   665/3047 KB   191/417 KB   665/3047 KB   192/417 KB   665/3047 KB   194/417 KB   665/3047 KB   195/417 KB   665/3047 KB   197/417 KB   665/3047 KB   198/417 KB   665/3047 KB   199/417 KB   665/3047 KB   201/417 KB   665/3047 KB   202/417 KB   665/3047 KB   204/417 KB   665/3047 KB   205/417 KB   665/3047 KB   207/417 KB   665/3047 KB   208/417 KB   665/3047 KB   209/417 KB   665/3047 KB   211/417 KB   665/3047 KB   212/417 KB   665/3047 KB   214/417 KB   665/3047 KB   215/417 KB   665/3047 KB   216/417 KB   665/3047 KB   218/417 KB   665/3047 KB   219/417 KB   665/3047 KB   221/417 KB   665/3047 KB   222/417 KB   665/3047 KB   224/417 KB   665/3047 KB   225/417 KB   665/3047 KB   226/417 KB   665/3047 KB   228/417 KB   665/3047 KB   229/417 KB   665/3047 KB   231/417 KB   665/3047 KB   232/417 KB   665/3047 KB   233/417 KB   665/3047 KB   235/417 KB   665/3047 KB   236/417 KB   665/3047 KB   238/417 KB   665/3047 KB   239/417 KB   665/3047 KB   240/417 KB   665/3047 KB   242/417 KB   665/3047 KB   243/417 KB   665/3047 KB   245/417 KB   665/3047 KB   246/417 KB   665/3047 KB   248/417 KB   665/3047 KB   249/417 KB   665/3047 KB   250/417 KB   665/3047 KB   252/417 KB   665/3047 KB   253/417 KB   665/3047 KB   255/417 KB   665/3047 KB   1/44 KB   255/417 KB   665/3047 KB   5/44 KB   255/417 KB   665/3047 KB   9/44 KB   255/417 KB   665/3047 KB   13/44 KB   255/417 KB   665/3047 KB   14/44 KB   255/417 KB   665/3047 KB   14/44 KB   255/417 KB   669/3047 KB   14/44 KB   255/417 KB   673/3047 KB   14/44 KB   255/417 KB   677/3047 KB   14/44 KB   255/417 KB   681/3047 KB   14/44 KB   255/417 KB   685/3047 KB   14/44 KB   255/417 KB   689/3047 KB   14/44 KB   255/417 KB   692/3047 KB   14/44 KB   255/417 KB   693/3047 KB   14/44 KB   255/417 KB   694/3047 KB   14/44 KB   255/417 KB   696/3047 KB   14/44 KB   255/417 KB   697/3047 KB   14/44 KB   255/417 KB   699/3047 KB   14/44 KB   255/417 KB   700/3047 KB   14/44 KB   255/417 KB   703/3047 KB   14/44 KB   256/417 KB   703/3047 KB   14/44 KB   257/417 KB   703/3047 KB   14/44 KB   259/417 KB   703/3047 KB   14/44 KB   259/417 KB   704/3047 KB   14/44 KB   260/417 KB   704/3047 KB   14/44 KB   264/417 KB   704/3047 KB   14/44 KB   268/417 KB   704/3047 KB   14/44 KB   272/417 KB   704/3047 KB   16/44 KB   272/417 KB   704/3047 KB   16/44 KB   276/417 KB   704/3047 KB   17/44 KB   276/417 KB   704/3047 KB   18/44 KB   280/417 KB   704/3047 KB   18/44 KB   280/417 KB   704/3047 KB   20/44 KB   280/417 KB   704/3047 KB   21/44 KB   284/417 KB   704/3047 KB   21/44 KB   284/417 KB   704/3047 KB   23/44 KB   288/417 KB   704/3047 KB   23/44 KB   288/417 KB   704/3047 KB   24/44 KB   288/417 KB   704/3047 KB   26/44 KB   292/417 KB   704/3047 KB   26/44 KB   292/417 KB   704/3047 KB   27/44 KB   292/417 KB   704/3047 KB   27/44 KB   296/417 KB   704/3047 KB   28/44 KB   296/417 KB   704/3047 KB   28/44 KB   300/417 KB   704/3047 KB   31/44 KB   300/417 KB   704/3047 KB   31/44 KB   301/417 KB   704/3047 KB   33/44 KB   301/417 KB   704/3047 KB   34/44 KB   301/417 KB   704/3047 KB   35/44 KB   301/417 KB   704/3047 KB   37/44 KB   301/417 KB   704/3047 KB   38/44 KB   301/417 KB   704/3047 KB   40/44 KB   301/417 KB   704/3047 KB   41/44 KB   301/417 KB   704/3047 KB   42/44 KB   301/417 KB   704/3047 KB   42/44 KB   303/417 KB   704/3047 KB   42/44 KB   304/417 KB   704/3047 KB   42/44 KB   306/417 KB   704/3047 KB   42/44 KB   307/417 KB   704/3047 KB   42/44 KB   308/417 KB   704/3047 KB   42/44 KB   310/417 KB   704/3047 KB   42/44 KB   311/417 KB   704/3047 KB   42/44 KB   313/417 KB   704/3047 KB   42/44 KB   314/417 KB   704/3047 KB   42/44 KB   315/417 KB   704/3047 KB   42/44 KB   317/417 KB   704/3047 KB   42/44 KB   318/417 KB   704/3047 KB   42/44 KB   320/417 KB   704/3047 KB   42/44 KB   321/417 KB   704/3047 KB   42/44 KB   325/417 KB   704/3047 KB   42/44 KB   329/417 KB   704/3047 KB   42/44 KB   333/417 KB   704/3047 KB   42/44 KB   337/417 KB   704/3047 KB   42/44 KB   341/417 KB   704/3047 KB   42/44 KB   345/417 KB   704/3047 KB   42/44 KB   349/417 KB   704/3047 KB   42/44 KB   353/417 KB   704/3047 KB   42/44 KB   357/417 KB   704/3047 KB   42/44 KB   361/417 KB   704/3047 KB   42/44 KB   365/417 KB   704/3047 KB   42/44 KB   369/417 KB   704/3047 KB   42/44 KB   373/417 KB   704/3047 KB   42/44 KB   373/417 KB   704/3047 KB   42/44 KB   373/417 KB   706/3047 KB   42/44 KB   373/417 KB   707/3047 KB   42/44 KB   373/417 KB   709/3047 KB   42/44 KB   373/417 KB   710/3047 KB   42/44 KB   373/417 KB   713/3047 KB   42/44 KB   373/417 KB   714/3047 KB   42/44 KB   373/417 KB   716/3047 KB   42/44 KB   373/417 KB   717/3047 KB   42/44 KB   373/417 KB   720/3047 KB   42/44 KB   373/417 KB   721/3047 KB   42/44 KB   373/417 KB   723/3047 KB   42/44 KB   376/417 KB   723/3047 KB   42/44 KB   378/417 KB   723/3047 KB   42/44 KB   379/417 KB   723/3047 KB   42/44 KB   380/417 KB   723/3047 KB   42/44 KB   382/417 KB   723/3047 KB   42/44 KB   383/417 KB   723/3047 KB   42/44 KB   385/417 KB   723/3047 KB   42/44 KB   386/417 KB   723/3047 KB   42/44 KB   388/417 KB   723/3047 KB   42/44 KB   389/417 KB   723/3047 KB   42/44 KB   390/417 KB   723/3047 KB   42/44 KB   392/417 KB   723/3047 KB   42/44 KB   395/417 KB   723/3047 KB   42/44 KB   396/417 KB   723/3047 KB   42/44 KB   397/417 KB   723/3047 KB   42/44 KB   399/417 KB   723/3047 KB   42/44 KB   400/417 KB   723/3047 KB   42/44 KB   402/417 KB   723/3047 KB   42/44 KB   403/417 KB   723/3047 KB   42/44 KB   405/417 KB   723/3047 KB   42/44 KB   406/417 KB   723/3047 KB   42/44 KB   407/417 KB   723/3047 KB   42/44 KB   409/417 KB   723/3047 KB   42/44 KB   412/417 KB   723/3047 KB   42/44 KB   413/417 KB   723/3047 KB   42/44 KB   414/417 KB   723/3047 KB   42/44 KB   417/417 KB   723/3047 KB   42/44 KB   417/417 KB   723/3047 KB   1/6 KB   42/44 KB   417/417 KB   723/3047 KB   5/6 KB   42/44 KB   417/417 KB   723/3047 KB   6/6 KB   42/44 KB   417/417 KB   726/3047 KB   6/6 KB   42/44 KB   417/417 KB   728/3047 KB   6/6 KB   42/44 KB   417/417 KB   731/3047 KB   6/6 KB   42/44 KB   417/417 KB   733/3047 KB   6/6 KB   42/44 KB   417/417 KB   735/3047 KB   6/6 KB   42/44 KB   417/417 KB   738/3047 KB   6/6 KB   42/44 KB   417/417 KB   741/3047 KB   6/6 KB                                                  Downloaded: http://repo.maven.apache.org/maven2/org/hibernate/hibernate-entitymanager/3.6.8.Final/hibernate-entitymanager-3.6.8.Final.jar (417 KB at 1883.7 KB/sec)
42/44 KB   742/3047 KB   6/6 KB                42/44 KB   744/3047 KB   6/6 KB   42/44 KB   747/3047 KB   6/6 KB   42/44 KB   750/3047 KB   6/6 KB   42/44 KB   752/3047 KB   6/6 KB   42/44 KB   754/3047 KB   6/6 KB   42/44 KB   757/3047 KB   6/6 KB   42/44 KB   758/3047 KB   6/6 KB   42/44 KB   759/3047 KB   6/6 KB   42/44 KB   762/3047 KB   6/6 KB   42/44 KB   765/3047 KB   6/6 KB   42/44 KB   768/3047 KB   6/6 KB   42/44 KB   768/3047 KB   6/6 KB   3/318 KB   42/44 KB   768/3047 KB   6/6 KB   7/318 KB   42/44 KB   768/3047 KB   6/6 KB   11/318 KB   42/44 KB   768/3047 KB   6/6 KB   15/318 KB   42/44 KB   768/3047 KB   6/6 KB   19/318 KB   42/44 KB   768/3047 KB   6/6 KB   21/318 KB   42/44 KB   768/3047 KB   6/6 KB   24/318 KB   42/44 KB   768/3047 KB   6/6 KB   26/318 KB   42/44 KB   768/3047 KB   6/6 KB   27/318 KB   42/44 KB   768/3047 KB   6/6 KB   30/318 KB   42/44 KB   768/3047 KB   6/6 KB   31/318 KB   42/44 KB   768/3047 KB   6/6 KB   33/318 KB   42/44 KB   768/3047 KB   6/6 KB   34/318 KB   42/44 KB   768/3047 KB   6/6 KB   35/318 KB   44/44 KB   768/3047 KB   6/6 KB   35/318 KB   44/44 KB   769/3047 KB   6/6 KB   35/318 KB   44/44 KB   773/3047 KB   6/6 KB   35/318 KB   44/44 KB   777/3047 KB   6/6 KB   35/318 KB   44/44 KB   781/3047 KB   6/6 KB   35/318 KB   44/44 KB   785/3047 KB   6/6 KB   35/318 KB   44/44 KB   788/3047 KB   6/6 KB   35/318 KB   44/44 KB   789/3047 KB   6/6 KB   35/318 KB   44/44 KB   791/3047 KB   6/6 KB   35/318 KB   44/44 KB   793/3047 KB   6/6 KB   35/318 KB   44/44 KB   796/3047 KB   6/6 KB   35/318 KB   44/44 KB   796/3047 KB   6/6 KB   39/318 KB   44/44 KB   796/3047 KB   6/6 KB   43/318 KB   44/44 KB   796/3047 KB   6/6 KB   47/318 KB   44/44 KB   796/3047 KB   6/6 KB   51/318 KB   44/44 KB   796/3047 KB   6/6 KB   55/318 KB   44/44 KB   796/3047 KB   6/6 KB   59/318 KB   44/44 KB   796/3047 KB   6/6 KB   63/318 KB   44/44 KB   796/3047 KB   6/6 KB   67/318 KB   44/44 KB   796/3047 KB   6/6 KB   71/318 KB   44/44 KB   796/3047 KB   6/6 KB   75/318 KB   44/44 KB   796/3047 KB   6/6 KB   79/318 KB   44/44 KB   796/3047 KB   6/6 KB   83/318 KB   44/44 KB   796/3047 KB   6/6 KB   87/318 KB   44/44 KB   796/3047 KB   6/6 KB   89/318 KB   44/44 KB   799/3047 KB   6/6 KB   89/318 KB   44/44 KB   800/3047 KB   6/6 KB   89/318 KB   44/44 KB   803/3047 KB   6/6 KB   89/318 KB   44/44 KB   805/3047 KB   6/6 KB   89/318 KB   44/44 KB   808/3047 KB   6/6 KB   89/318 KB   44/44 KB   810/3047 KB   6/6 KB   89/318 KB   44/44 KB   810/3047 KB   6/6 KB   92/318 KB   44/44 KB   810/3047 KB   6/6 KB   93/318 KB   44/44 KB   810/3047 KB   6/6 KB   95/318 KB   44/44 KB   810/3047 KB   6/6 KB   96/318 KB   44/44 KB   810/3047 KB   6/6 KB   98/318 KB   44/44 KB   810/3047 KB   6/6 KB   99/318 KB   44/44 KB   810/3047 KB   6/6 KB   102/318 KB   44/44 KB   810/3047 KB   6/6 KB   103/318 KB   44/44 KB   810/3047 KB   6/6 KB   105/318 KB   44/44 KB   810/3047 KB   6/6 KB   106/318 KB   44/44 KB   810/3047 KB   6/6 KB   108/318 KB   44/44 KB   810/3047 KB   6/6 KB   109/318 KB   44/44 KB   810/3047 KB   6/6 KB   112/318 KB   44/44 KB   810/3047 KB   6/6 KB   113/318 KB   44/44 KB   810/3047 KB   6/6 KB   115/318 KB   44/44 KB   810/3047 KB   6/6 KB   116/318 KB   44/44 KB   810/3047 KB   6/6 KB   117/318 KB   44/44 KB   810/3047 KB   6/6 KB   119/318 KB   44/44 KB   810/3047 KB   6/6 KB   120/318 KB   44/44 KB   810/3047 KB   6/6 KB   122/318 KB   44/44 KB   810/3047 KB   6/6 KB   123/318 KB   44/44 KB   813/3047 KB   6/6 KB   123/318 KB   44/44 KB   815/3047 KB   6/6 KB   123/318 KB   44/44 KB   817/3047 KB   6/6 KB   123/318 KB   44/44 KB   819/3047 KB   6/6 KB   123/318 KB   44/44 KB   820/3047 KB   6/6 KB   123/318 KB   44/44 KB   823/3047 KB   6/6 KB   123/318 KB   44/44 KB   826/3047 KB   6/6 KB   123/318 KB   44/44 KB   826/3047 KB   6/6 KB   126/318 KB   44/44 KB   826/3047 KB   6/6 KB   127/318 KB   44/44 KB   826/3047 KB   6/6 KB   129/318 KB   44/44 KB   826/3047 KB   6/6 KB   130/318 KB   44/44 KB   826/3047 KB   6/6 KB   132/318 KB   44/44 KB   826/3047 KB   6/6 KB   133/318 KB   44/44 KB   826/3047 KB   6/6 KB   134/318 KB   44/44 KB   826/3047 KB   6/6 KB   136/318 KB   44/44 KB   826/3047 KB   6/6 KB   137/318 KB   44/44 KB   826/3047 KB   6/6 KB   139/318 KB   44/44 KB   826/3047 KB   6/6 KB   140/318 KB   44/44 KB   826/3047 KB   6/6 KB   141/318 KB   44/44 KB   826/3047 KB   6/6 KB   144/318 KB   44/44 KB   826/3047 KB   6/6 KB   146/318 KB   44/44 KB   826/3047 KB   6/6 KB   147/318 KB   44/44 KB   826/3047 KB   6/6 KB   149/318 KB   44/44 KB   826/3047 KB   6/6 KB   150/318 KB   44/44 KB   826/3047 KB   6/6 KB   151/318 KB   44/44 KB   826/3047 KB   6/6 KB   153/318 KB   44/44 KB   826/3047 KB   6/6 KB   156/318 KB   44/44 KB   826/3047 KB   6/6 KB   157/318 KB   44/44 KB   826/3047 KB   6/6 KB   158/318 KB   44/44 KB   826/3047 KB   6/6 KB   161/318 KB   44/44 KB   829/3047 KB   6/6 KB   161/318 KB   44/44 KB   830/3047 KB   6/6 KB   161/318 KB   44/44 KB   832/3047 KB   6/6 KB   161/318 KB   44/44 KB   833/3047 KB   6/6 KB   161/318 KB   44/44 KB   834/3047 KB   6/6 KB   161/318 KB   44/44 KB   836/3047 KB   6/6 KB   161/318 KB   44/44 KB   839/3047 KB   6/6 KB   161/318 KB   44/44 KB   841/3047 KB   6/6 KB   161/318 KB   44/44 KB   841/3047 KB   6/6 KB   164/318 KB   44/44 KB   841/3047 KB   6/6 KB   166/318 KB   44/44 KB   841/3047 KB   6/6 KB   167/318 KB   44/44 KB   841/3047 KB   6/6 KB   168/318 KB   44/44 KB   841/3047 KB   6/6 KB   170/318 KB   44/44 KB   841/3047 KB   6/6 KB   173/318 KB   44/44 KB   841/3047 KB   6/6 KB   174/318 KB   44/44 KB   841/3047 KB   6/6 KB   175/318 KB   44/44 KB   841/3047 KB   6/6 KB   177/318 KB   44/44 KB   841/3047 KB   6/6 KB   178/318 KB   44/44 KB   841/3047 KB   6/6 KB   180/318 KB   44/44 KB   841/3047 KB   6/6 KB   181/318 KB   44/44 KB   841/3047 KB   6/6 KB   182/318 KB   44/44 KB   841/3047 KB   6/6 KB   184/318 KB   44/44 KB   841/3047 KB   6/6 KB   185/318 KB   44/44 KB   841/3047 KB   6/6 KB   187/318 KB   44/44 KB   841/3047 KB   6/6 KB   188/318 KB   44/44 KB   841/3047 KB   6/6 KB   190/318 KB   44/44 KB   841/3047 KB   6/6 KB   191/318 KB   44/44 KB   841/3047 KB   6/6 KB   192/318 KB   44/44 KB   841/3047 KB   6/6 KB   194/318 KB   44/44 KB   841/3047 KB   6/6 KB   195/318 KB   44/44 KB   841/3047 KB   6/6 KB   197/318 KB   44/44 KB   841/3047 KB   6/6 KB   198/318 KB   44/44 KB   844/3047 KB   6/6 KB   198/318 KB   44/44 KB   847/3047 KB   6/6 KB   198/318 KB   44/44 KB   849/3047 KB   6/6 KB   198/318 KB   44/44 KB   850/3047 KB   6/6 KB   198/318 KB   44/44 KB   853/3047 KB   6/6 KB   198/318 KB   44/44 KB   854/3047 KB   6/6 KB   198/318 KB   44/44 KB   857/3047 KB   6/6 KB   198/318 KB   44/44 KB   857/3047 KB   6/6 KB   201/318 KB   44/44 KB   857/3047 KB   6/6 KB   202/318 KB   44/44 KB   857/3047 KB   6/6 KB   204/318 KB   44/44 KB   857/3047 KB   6/6 KB   205/318 KB   44/44 KB   857/3047 KB   6/6 KB   207/318 KB   44/44 KB   857/3047 KB   6/6 KB   208/318 KB   44/44 KB   857/3047 KB   6/6 KB   211/318 KB   44/44 KB   857/3047 KB   6/6 KB   212/318 KB   44/44 KB   857/3047 KB   6/6 KB   214/318 KB   44/44 KB   857/3047 KB   6/6 KB   215/318 KB   44/44 KB   857/3047 KB   6/6 KB   216/318 KB   44/44 KB   857/3047 KB   6/6 KB   218/318 KB   44/44 KB   857/3047 KB   6/6 KB   219/318 KB   44/44 KB   857/3047 KB   6/6 KB   221/318 KB   44/44 KB   857/3047 KB   6/6 KB   222/318 KB   44/44 KB   857/3047 KB   6/6 KB   223/318 KB   44/44 KB   857/3047 KB   6/6 KB   226/318 KB   44/44 KB   857/3047 KB   6/6 KB   228/318 KB   44/44 KB   857/3047 KB   6/6 KB   229/318 KB   44/44 KB   857/3047 KB   6/6 KB   231/318 KB   44/44 KB   857/3047 KB   6/6 KB   232/318 KB   44/44 KB   857/3047 KB   6/6 KB   233/318 KB   44/44 KB   857/3047 KB   6/6 KB   235/318 KB   44/44 KB   857/3047 KB   6/6 KB   236/318 KB   44/44 KB   860/3047 KB   6/6 KB   236/318 KB   44/44 KB   863/3047 KB   6/6 KB   236/318 KB   44/44 KB   864/3047 KB   6/6 KB   236/318 KB   44/44 KB   866/3047 KB   6/6 KB   236/318 KB                                                  Downloaded: http://repo.maven.apache.org/maven2/org/hibernate/hibernate-testing/3.6.8.Final/hibernate-testing-3.6.8.Final.jar (44 KB at 46.2 KB/sec)
867/3047 KB   6/6 KB   236/318 KB              868/3047 KB   6/6 KB   236/318 KB   871/3047 KB   6/6 KB   236/318 KB   873/3047 KB   6/6 KB   236/318 KB   873/3047 KB   6/6 KB   238/318 KB   873/3047 KB   6/6 KB   239/318 KB   873/3047 KB   6/6 KB   240/318 KB   873/3047 KB   6/6 KB   242/318 KB   873/3047 KB   6/6 KB   243/318 KB   873/3047 KB   6/6 KB   245/318 KB   873/3047 KB   6/6 KB   248/318 KB   873/3047 KB   6/6 KB   249/318 KB   873/3047 KB   6/6 KB   250/318 KB   873/3047 KB   6/6 KB   252/318 KB   873/3047 KB   6/6 KB   253/318 KB   873/3047 KB   6/6 KB   255/318 KB   873/3047 KB   6/6 KB   256/318 KB   873/3047 KB   6/6 KB   257/318 KB   873/3047 KB   6/6 KB   259/318 KB   873/3047 KB   6/6 KB   260/318 KB   873/3047 KB   6/6 KB   263/318 KB   873/3047 KB   6/6 KB   265/318 KB   873/3047 KB   6/6 KB   266/318 KB   873/3047 KB   6/6 KB   267/318 KB   873/3047 KB   6/6 KB   269/318 KB   873/3047 KB   6/6 KB   270/318 KB   873/3047 KB   6/6 KB   272/318 KB   873/3047 KB   6/6 KB   273/318 KB   874/3047 KB   6/6 KB   273/318 KB   875/3047 KB   6/6 KB   273/318 KB   878/3047 KB   6/6 KB   273/318 KB   881/3047 KB   6/6 KB   273/318 KB                                       Downloaded: http://repo.maven.apache.org/maven2/org/hibernate/hibernate-proxool/3.6.8.Final/hibernate-proxool-3.6.8.Final.jar (6 KB at 12.3 KB/sec)
882/3047 KB   273/318 KB            884/3047 KB   273/318 KB   885/3047 KB   273/318 KB   887/3047 KB   273/318 KB   887/3047 KB   276/318 KB   887/3047 KB   277/318 KB   887/3047 KB   279/318 KB   887/3047 KB   280/318 KB   887/3047 KB   281/318 KB   887/3047 KB   283/318 KB   887/3047 KB   286/318 KB   887/3047 KB   287/318 KB   887/3047 KB   289/318 KB   887/3047 KB   291/318 KB   887/3047 KB   293/318 KB   887/3047 KB   296/318 KB   887/3047 KB   297/318 KB   887/3047 KB   298/318 KB   887/3047 KB   300/318 KB   887/3047 KB   301/318 KB   887/3047 KB   303/318 KB   887/3047 KB   304/318 KB   887/3047 KB   306/318 KB   887/3047 KB   307/318 KB   887/3047 KB   308/318 KB   887/3047 KB   310/318 KB   887/3047 KB   311/318 KB   890/3047 KB   311/318 KB   892/3047 KB   311/318 KB   894/3047 KB   311/318 KB   895/3047 KB   311/318 KB   897/3047 KB   311/318 KB   899/3047 KB   311/318 KB   902/3047 KB   311/318 KB   902/3047 KB   314/318 KB   902/3047 KB   315/318 KB   902/3047 KB   318/318 KB   905/3047 KB   318/318 KB   908/3047 KB   318/318 KB   911/3047 KB   318/318 KB   914/3047 KB   318/318 KB   915/3047 KB   318/318 KB   918/3047 KB   318/318 KB                              Downloaded: http://repo.maven.apache.org/maven2/org/hibernate/hibernate-envers/3.6.8.Final/hibernate-envers-3.6.8.Final.jar (318 KB at 746.7 KB/sec)
921/3047 KB                922/3047 KB   925/3047 KB   928/3047 KB   931/3047 KB   933/3047 KB   935/3047 KB   938/3047 KB   940/3047 KB   942/3047 KB   943/3047 KB   945/3047 KB   948/3047 KB   950/3047 KB   953/3047 KB   955/3047 KB   957/3047 KB   960/3047 KB   963/3047 KB   964/3047 KB   967/3047 KB   970/3047 KB   973/3047 KB   974/3047 KB   976/3047 KB   977/3047 KB   980/3047 KB   983/3047 KB   984/3047 KB   987/3047 KB   990/3047 KB   991/3047 KB   993/3047 KB   996/3047 KB   997/3047 KB   998/3047 KB   1000/3047 KB   1003/3047 KB   1004/3047 KB   1005/3047 KB   1008/3047 KB   1011/3047 KB   1014/3047 KB   1017/3047 KB   1018/3047 KB   1020/3047 KB   1021/3047 KB   1022/3047 KB   1024/3047 KB   1027/3047 KB   1028/3047 KB   1030/3047 KB   1032/3047 KB   1034/3047 KB   1035/3047 KB   1038/3047 KB   1039/3047 KB   1041/3047 KB   1044/3047 KB   1045/3047 KB   1047/3047 KB   1048/3047 KB   1051/3047 KB   1054/3047 KB   1056/3047 KB   1058/3047 KB   1059/3047 KB   1062/3047 KB   1065/3047 KB   1068/3047 KB   1069/3047 KB   1072/3047 KB   1075/3047 KB   1078/3047 KB   1080/3047 KB   1083/3047 KB   1086/3047 KB   1089/3047 KB   1090/3047 KB   1093/3047 KB   1095/3047 KB   1096/3047 KB   1097/3047 KB   1100/3047 KB   1103/3047 KB   1106/3047 KB   1109/3047 KB   1112/3047 KB   1113/3047 KB   1114/3047 KB   1116/3047 KB   1119/3047 KB   1120/3047 KB   1121/3047 KB   1123/3047 KB   1126/3047 KB   1129/3047 KB   1131/3047 KB   1133/3047 KB   1134/3047 KB   1137/3047 KB   1138/3047 KB   1140/3047 KB   1141/3047 KB   1144/3047 KB   1145/3047 KB   1148/3047 KB   1151/3047 KB   1153/3047 KB   1154/3047 KB   1157/3047 KB   1158/3047 KB   1160/3047 KB   1161/3047 KB   1164/3047 KB   1165/3047 KB   1168/3047 KB   1170/3047 KB   1172/3047 KB   1174/3047 KB   1175/3047 KB   1178/3047 KB   1181/3047 KB   1184/3047 KB   1185/3047 KB   1186/3047 KB   1188/3047 KB   1189/3047 KB   1192/3047 KB   1194/3047 KB   1195/3047 KB   1196/3047 KB   1199/3047 KB   1202/3047 KB   1205/3047 KB   1206/3047 KB   1208/3047 KB   1211/3047 KB   1213/3047 KB   1215/3047 KB   1216/3047 KB   1219/3047 KB   1220/3047 KB   1223/3047 KB   1226/3047 KB   1229/3047 KB   1230/3047 KB   1232/3047 KB   1235/3047 KB   1237/3047 KB   1240/3047 KB   1242/3047 KB   1243/3047 KB   1244/3047 KB   1248/3047 KB   1252/3047 KB   1256/3047 KB   1260/3047 KB   1264/3047 KB   1268/3047 KB   1271/3047 KB   1274/3047 KB   1276/3047 KB   1277/3047 KB   1278/3047 KB   1280/3047 KB   1283/3047 KB   1284/3047 KB   1285/3047 KB   1287/3047 KB   1288/3047 KB   1291/3047 KB   1293/3047 KB   1295/3047 KB   1297/3047 KB   1298/3047 KB   1301/3047 KB   1302/3047 KB   1304/3047 KB   1305/3047 KB   1307/3047 KB   1310/3047 KB   1312/3047 KB   1314/3047 KB   1315/3047 KB   1317/3047 KB   1319/3047 KB   1321/3047 KB   1322/3047 KB   1324/3047 KB   1325/3047 KB   1328/3047 KB   1331/3047 KB   1334/3047 KB   1336/3047 KB   1338/3047 KB   1341/3047 KB   1342/3047 KB   1343/3047 KB   1346/3047 KB   1349/3047 KB   1352/3047 KB   1355/3047 KB   1358/3047 KB   1359/3047 KB   1360/3047 KB   1362/3047 KB   1365/3047 KB   1367/3047 KB   1369/3047 KB   1370/3047 KB   1373/3047 KB   1376/3047 KB   1377/3047 KB   1379/3047 KB   1382/3047 KB   1383/3047 KB   1386/3047 KB   1389/3047 KB   1392/3047 KB   1394/3047 KB   1396/3047 KB   1397/3047 KB   1400/3047 KB   1403/3047 KB   1404/3047 KB   1406/3047 KB   1407/3047 KB   1410/3047 KB   1413/3047 KB   1416/3047 KB   1418/3047 KB   1420/3047 KB   1423/3047 KB   1425/3047 KB   1428/3047 KB   1430/3047 KB   1433/3047 KB   1435/3047 KB   1438/3047 KB   1441/3047 KB   1442/3047 KB   1444/3047 KB   1445/3047 KB   1448/3047 KB   1451/3047 KB   1452/3047 KB   1455/3047 KB   1458/3047 KB   1461/3047 KB   1464/3047 KB   1466/3047 KB   1468/3047 KB   1469/3047 KB   1471/3047 KB   1474/3047 KB   1475/3047 KB   1478/3047 KB   1481/3047 KB   1483/3047 KB   1486/3047 KB   1489/3047 KB   1492/3047 KB   1493/3047 KB   1496/3047 KB   1498/3047 KB   1500/3047 KB   1503/3047 KB   1506/3047 KB   1507/3047 KB   1509/3047 KB   1512/3047 KB   1515/3047 KB   1516/3047 KB   1519/3047 KB   1520/3047 KB   1522/3047 KB   1523/3047 KB   1524/3047 KB   1527/3047 KB   1530/3047 KB   1533/3047 KB   1536/3047 KB   1539/3047 KB   1540/3047 KB   1541/3047 KB   1543/3047 KB   1544/3047 KB   1546/3047 KB   1548/3047 KB   1551/3047 KB   1554/3047 KB   1557/3047 KB   1560/3047 KB   1564/3047 KB   1568/3047 KB   1568/3047 KB   1572/3047 KB   1576/3047 KB   1580/3047 KB   1584/3047 KB   1588/3047 KB   1590/3047 KB   1592/3047 KB   1595/3047 KB   1597/3047 KB   1598/3047 KB   1601/3047 KB   1604/3047 KB   1605/3047 KB   1608/3047 KB   1611/3047 KB   1612/3047 KB   1615/3047 KB   1616/3047 KB   1618/3047 KB   1621/3047 KB   1622/3047 KB   1625/3047 KB   1628/3047 KB   1629/3047 KB   1632/3047 KB   1633/3047 KB   1635/3047 KB   1638/3047 KB   1640/3047 KB   1642/3047 KB   1643/3047 KB   1645/3047 KB   1647/3047 KB   1649/3047 KB   1650/3047 KB   1652/3047 KB   1655/3047 KB   1657/3047 KB   1659/3047 KB   1660/3047 KB   1663/3047 KB   1664/3047 KB   1666/3047 KB   1667/3047 KB   1670/3047 KB   1672/3047 KB   1674/3047 KB   1676/3047 KB   1677/3047 KB   1680/3047 KB   1683/3047 KB   1686/3047 KB   1687/3047 KB   1690/3047 KB   1691/3047 KB   1693/3047 KB   1694/3047 KB   1697/3047 KB   1698/3047 KB   1700/3047 KB   1703/3047 KB   1705/3047 KB   1707/3047 KB   1708/3047 KB   1710/3047 KB   1713/3047 KB   1714/3047 KB   1715/3047 KB   1717/3047 KB   1720/3047 KB   1722/3047 KB   1725/3047 KB   1728/3047 KB   1729/3047 KB   1731/3047 KB   1732/3047 KB   1735/3047 KB   1737/3047 KB   1739/3047 KB   1742/3047 KB   1745/3047 KB   1746/3047 KB   1748/3047 KB   1749/3047 KB   1752/3047 KB   1754/3047 KB   1756/3047 KB   1758/3047 KB   1761/3047 KB   1763/3047 KB   1766/3047 KB   1769/3047 KB   1771/3047 KB   1773/3047 KB   1775/3047 KB   1778/3047 KB   1779/3047 KB   1782/3047 KB   1785/3047 KB   1787/3047 KB   1790/3047 KB   1792/3047 KB   1795/3047 KB   1796/3047 KB   1799/3047 KB   1800/3047 KB   1802/3047 KB   1803/3047 KB   1806/3047 KB   1809/3047 KB   1812/3047 KB   1813/3047 KB   1816/3047 KB   1817/3047 KB   1819/3047 KB   1820/3047 KB   1823/3047 KB   1824/3047 KB   1827/3047 KB   1830/3047 KB   1833/3047 KB   1834/3047 KB   1836/3047 KB   1837/3047 KB   1838/3047 KB   1841/3047 KB   1843/3047 KB   1845/3047 KB   1847/3047 KB   1850/3047 KB   1853/3047 KB   1854/3047 KB   1855/3047 KB   1858/3047 KB   1861/3047 KB   1864/3047 KB   1865/3047 KB   1868/3047 KB   1869/3047 KB   1872/3047 KB   1875/3047 KB   1877/3047 KB   1878/3047 KB   1881/3047 KB   1884/3047 KB   1886/3047 KB   1888/3047 KB   1891/3047 KB   1892/3047 KB   1894/3047 KB   1895/3047 KB   1896/3047 KB   1898/3047 KB   1901/3047 KB   1903/3047 KB   1906/3047 KB   1909/3047 KB   1910/3047 KB   1912/3047 KB   1913/3047 KB   1915/3047 KB   1916/3047 KB   1919/3047 KB   1922/3047 KB   1923/3047 KB   1926/3047 KB   1929/3047 KB   1930/3047 KB   1932/3047 KB   1933/3047 KB   1935/3047 KB   1936/3047 KB   1939/3047 KB   1940/3047 KB   1943/3047 KB   1946/3047 KB   1947/3047 KB   1950/3047 KB   1952/3047 KB   1953/3047 KB   1954/3047 KB   1956/3047 KB   1959/3047 KB   1960/3047 KB   1963/3047 KB   1964/3047 KB   1967/3047 KB   1970/3047 KB   1971/3047 KB   1973/3047 KB   1974/3047 KB   1977/3047 KB   1980/3047 KB   1983/3047 KB   1984/3047 KB   1985/3047 KB   1987/3047 KB   1988/3047 KB   1991/3047 KB   1993/3047 KB   1994/3047 KB   1995/3047 KB   1997/3047 KB   1998/3047 KB   2001/3047 KB   2004/3047 KB   2007/3047 KB   2008/3047 KB   2009/3047 KB   2012/3047 KB   2014/3047 KB   2015/3047 KB   2018/3047 KB   2021/3047 KB   2022/3047 KB   2025/3047 KB   2028/3047 KB   2031/3047 KB   2034/3047 KB   2035/3047 KB   2036/3047 KB   2038/3047 KB   2039/3047 KB   2041/3047 KB   2043/3047 KB   2046/3047 KB   2048/3047 KB   2050/3047 KB   2053/3047 KB   2056/3047 KB   2058/3047 KB   2059/3047 KB   2060/3047 KB   2062/3047 KB   2065/3047 KB   2066/3047 KB   2069/3047 KB   2072/3047 KB   2073/3047 KB   2075/3047 KB   2076/3047 KB   2079/3047 KB   2082/3047 KB   2083/3047 KB   2084/3047 KB   2087/3047 KB   2090/3047 KB   2091/3047 KB   2094/3047 KB   2096/3047 KB   2097/3047 KB   2100/3047 KB   2101/3047 KB   2103/3047 KB   2104/3047 KB   2106/3047 KB   2107/3047 KB   2110/3047 KB   2111/3047 KB   2114/3047 KB   2117/3047 KB   2118/3047 KB   2120/3047 KB   2121/3047 KB   2124/3047 KB   2125/3047 KB   2127/3047 KB   2128/3047 KB   2130/3047 KB   2133/3047 KB   2134/3047 KB   2137/3047 KB   2138/3047 KB   2141/3047 KB   2142/3047 KB   2144/3047 KB   2147/3047 KB   2148/3047 KB   2149/3047 KB   2151/3047 KB   2152/3047 KB   2154/3047 KB   2157/3047 KB   2159/3047 KB   2161/3047 KB   2164/3047 KB   2165/3047 KB   2166/3047 KB   2168/3047 KB   2171/3047 KB   2172/3047 KB   2174/3047 KB   2175/3047 KB   2176/3047 KB   2179/3047 KB   2181/3047 KB   2183/3047 KB   2185/3047 KB   2186/3047 KB   2188/3047 KB   2189/3047 KB   2190/3047 KB   2193/3047 KB   2195/3047 KB   2196/3047 KB   2198/3047 KB   2199/3047 KB   2200/3047 KB   2203/3047 KB   2206/3047 KB   2207/3047 KB   2209/3047 KB   2210/3047 KB   2212/3047 KB   2213/3047 KB   2216/3047 KB   2217/3047 KB   2219/3047 KB   2220/3047 KB   2222/3047 KB   2223/3047 KB   2226/3047 KB   2227/3047 KB   2229/3047 KB   2231/3047 KB   2234/3047 KB   2236/3047 KB   2237/3047 KB   2240/3047 KB   2241/3047 KB   2243/3047 KB   2244/3047 KB   2246/3047 KB   2247/3047 KB   2248/3047 KB   2251/3047 KB   2253/3047 KB   2254/3047 KB   2257/3047 KB   2260/3047 KB   2263/3047 KB   2265/3047 KB   2268/3047 KB   2270/3047 KB   2271/3047 KB   2272/3047 KB   2274/3047 KB   2277/3047 KB   2280/3047 KB   2282/3047 KB   2284/3047 KB   2285/3047 KB   2287/3047 KB   2288/3047 KB   2291/3047 KB   2294/3047 KB   2295/3047 KB   2297/3047 KB   2298/3047 KB   2299/3047 KB   2302/3047 KB   2304/3047 KB   2305/3047 KB   2308/3047 KB   2311/3047 KB   2314/3047 KB   2316/3047 KB   2318/3047 KB   2319/3047 KB   2321/3047 KB   2323/3047 KB   2326/3047 KB   2329/3047 KB   2332/3047 KB   2335/3047 KB   2336/3047 KB   2338/3047 KB   2339/3047 KB   2340/3047 KB   2343/3047 KB   2346/3047 KB   2349/3047 KB   2350/3047 KB   2352/3047 KB   2353/3047 KB   2356/3047 KB   2359/3047 KB   2362/3047 KB   2363/3047 KB   2364/3047 KB   2366/3047 KB   2367/3047 KB   2370/3047 KB   2373/3047 KB   2376/3047 KB   2377/3047 KB   2379/3047 KB   2381/3047 KB   2383/3047 KB   2384/3047 KB   2386/3047 KB   2388/3047 KB   2390/3047 KB   2391/3047 KB   2393/3047 KB   2394/3047 KB   2397/3047 KB   2400/3047 KB   2403/3047 KB   2405/3047 KB   2408/3047 KB   2410/3047 KB   2411/3047 KB   2412/3047 KB   2415/3047 KB   2417/3047 KB   2418/3047 KB   2420/3047 KB   2422/3047 KB   2425/3047 KB   2428/3047 KB   2431/3047 KB   2434/3047 KB   2437/3047 KB   2439/3047 KB   2442/3047 KB   2444/3047 KB   2445/3047 KB   2446/3047 KB   2449/3047 KB   2452/3047 KB   2453/3047 KB   2455/3047 KB   2456/3047 KB   2459/3047 KB   2462/3047 KB   2465/3047 KB   2466/3047 KB   2468/3047 KB   2470/3047 KB   2473/3047 KB   2476/3047 KB   2478/3047 KB   2480/3047 KB   2482/3047 KB   2483/3047 KB   2486/3047 KB   2487/3047 KB   2490/3047 KB   2493/3047 KB   2496/3047 KB   2499/3047 KB   2502/3047 KB   2504/3047 KB   2507/3047 KB   2509/3047 KB   2510/3047 KB   2511/3047 KB   2514/3047 KB   2517/3047 KB   2519/3047 KB   2521/3047 KB   2524/3047 KB   2527/3047 KB   2530/3047 KB   2531/3047 KB   2533/3047 KB   2536/3047 KB   2537/3047 KB   2538/3047 KB   2541/3047 KB   2543/3047 KB   2545/3047 KB   2548/3047 KB   2550/3047 KB   2551/3047 KB   2552/3047 KB   2554/3047 KB   2557/3047 KB   2560/3047 KB   2562/3047 KB   2565/3047 KB   2568/3047 KB   2571/3047 KB   2572/3047 KB   2575/3047 KB   2578/3047 KB   2581/3047 KB   2582/3047 KB   2584/3047 KB   2586/3047 KB   2589/3047 KB   2592/3047 KB   2595/3047 KB   2596/3047 KB   2598/3047 KB   2599/3047 KB   2601/3047 KB   2603/3047 KB   2605/3047 KB   2608/3047 KB   2610/3047 KB   2613/3047 KB   2616/3047 KB   2619/3047 KB   2622/3047 KB   2625/3047 KB   2627/3047 KB   2629/3047 KB   2630/3047 KB   2633/3047 KB   2636/3047 KB   2637/3047 KB   2639/3047 KB   2640/3047 KB   2643/3047 KB   2646/3047 KB   2647/3047 KB   2649/3047 KB   2650/3047 KB   2653/3047 KB   2656/3047 KB   2659/3047 KB   2660/3047 KB   2661/3047 KB   2664/3047 KB   2667/3047 KB   2670/3047 KB   2673/3047 KB   2674/3047 KB   2677/3047 KB   2680/3047 KB   2683/3047 KB   2684/3047 KB   2687/3047 KB   2690/3047 KB   2692/3047 KB   2695/3047 KB   2698/3047 KB   2701/3047 KB   2702/3047 KB   2704/3047 KB   2707/3047 KB   2708/3047 KB   2711/3047 KB   2714/3047 KB   2717/3047 KB   2718/3047 KB   2719/3047 KB   2721/3047 KB   2724/3047 KB   2726/3047 KB   2729/3047 KB   2732/3047 KB   2733/3047 KB   2735/3047 KB   2738/3047 KB   2741/3047 KB   2742/3047 KB   2745/3047 KB   2748/3047 KB   2749/3047 KB   2750/3047 KB   2753/3047 KB   2755/3047 KB   2758/3047 KB   2760/3047 KB   2763/3047 KB   2766/3047 KB   2769/3047 KB   2772/3047 KB   2774/3047 KB   2776/3047 KB   2779/3047 KB   2782/3047 KB   2784/3047 KB   2787/3047 KB   2789/3047 KB   2791/3047 KB   2794/3047 KB   2797/3047 KB   2800/3047 KB   2801/3047 KB   2804/3047 KB   2807/3047 KB   2810/3047 KB   2811/3047 KB   2813/3047 KB   2814/3047 KB   2815/3047 KB   2817/3047 KB   2820/3047 KB   2823/3047 KB   2824/3047 KB   2827/3047 KB   2828/3047 KB   2830/3047 KB   2832/3047 KB   2835/3047 KB   2837/3047 KB   2840/3047 KB   2842/3047 KB   2845/3047 KB   2847/3047 KB   2848/3047 KB   2851/3047 KB   2852/3047 KB   2855/3047 KB   2858/3047 KB   2862/3047 KB   2862/3047 KB   2865/3047 KB   2868/3047 KB   2871/3047 KB   2872/3047 KB   2875/3047 KB   2876/3047 KB   2878/3047 KB   2881/3047 KB   2883/3047 KB   2886/3047 KB   2888/3047 KB   2890/3047 KB   2892/3047 KB   2893/3047 KB   2896/3047 KB   2898/3047 KB   2899/3047 KB   2900/3047 KB   2903/3047 KB   2906/3047 KB   2907/3047 KB   2909/3047 KB   2910/3047 KB   2912/3047 KB   2914/3047 KB   2917/3047 KB   2920/3047 KB   2923/3047 KB   2924/3047 KB   2926/3047 KB   2927/3047 KB   2930/3047 KB   2933/3047 KB   2936/3047 KB   2937/3047 KB   2940/3047 KB   2941/3047 KB   2943/3047 KB   2944/3047 KB   2946/3047 KB   2947/3047 KB   2948/3047 KB   2951/3047 KB   2954/3047 KB   2957/3047 KB   2958/3047 KB   2960/3047 KB   2963/3047 KB   2964/3047 KB   2965/3047 KB   2967/3047 KB   2970/3047 KB   2972/3047 KB   2974/3047 KB   2975/3047 KB   2977/3047 KB   2978/3047 KB   2980/3047 KB   2981/3047 KB   2982/3047 KB   2985/3047 KB   2988/3047 KB   2991/3047 KB   2994/3047 KB   2996/3047 KB   2999/3047 KB   3002/3047 KB   3004/3047 KB   3006/3047 KB   3009/3047 KB   3011/3047 KB   3012/3047 KB   3013/3047 KB   3015/3047 KB   3018/3047 KB   3019/3047 KB   3022/3047 KB   3025/3047 KB   3028/3047 KB   3030/3047 KB   3032/3047 KB   3033/3047 KB   3036/3047 KB   3039/3047 KB   3040/3047 KB   3042/3047 KB   3043/3047 KB   3045/3047 KB   3047/3047 KB                  Downloaded: http://repo.maven.apache.org/maven2/org/hibernate/hibernate-core/3.6.8.Final/hibernate-core-3.6.8.Final.jar (3047 KB at 997.2 KB/sec)
[INFO] ------------------------------------------------------------------------
[INFO] BUILD FAILURE
[INFO] ------------------------------------------------------------------------
[INFO] Total time: 4.005s
[INFO] Finished at: Fri Jan 31 00:47:27 CET 2014
[INFO] Final Memory: 6M/119M
[INFO] ------------------------------------------------------------------------
[ERROR] Failed to execute goal on project hibernate-distribution: Could not resolve dependencies for project org.hibernate:hibernate-distribution:pom:3.6.8.Final: The following artifacts could not be resolved: org.jboss.cache:jbosscache-core:jar:3.2.1.GA, org.infinispan:infinispan-core:jar:4.2.1.CR1, commons-logging:commons-logging:jar:99.0-does-not-exist, commons-logging:commons-logging-api:jar:99.0-does-not-exist: Failure to find org.jboss.cache:jbosscache-core:jar:3.2.1.GA in http://repo.maven.apache.org/maven2 was cached in the local repository, resolution will not be reattempted until the update interval of central has elapsed or updates are forced -> [Help 1]
[ERROR] 
[ERROR] To see the full stack trace of the errors, re-run Maven with the -e switch.
[ERROR] Re-run Maven using the -X switch to enable full debug logging.
[ERROR] 
[ERROR] For more information about the errors and possible solutions, please read the following articles:
[ERROR] [Help 1] http://cwiki.apache.org/confluence/display/MAVEN/DependencyResolutionException
