[INFO] Scanning for projects...
[WARNING] 
[WARNING] Some problems were encountered while building the effective model for org.springframework:spring-orm:jar:3.0.5.RELEASE
[WARNING] 'build.plugins.plugin.version' for org.apache.maven.plugins:maven-compiler-plugin is missing. @ org.springframework:spring-parent:3.0.5.RELEASE, /home/kamilos/qualitas_corpus/QualitasCorpus-20120401f/Systems/springframework/springframework-3.0.5/src/spring-framework-3.0.5.RELEASE/projects/org.springframework.spring-parent/pom.xml, line 232, column 15
[WARNING] 'build.plugins.plugin.version' for org.apache.maven.plugins:maven-surefire-plugin is missing. @ org.springframework:spring-parent:3.0.5.RELEASE, /home/kamilos/qualitas_corpus/QualitasCorpus-20120401f/Systems/springframework/springframework-3.0.5/src/spring-framework-3.0.5.RELEASE/projects/org.springframework.spring-parent/pom.xml, line 240, column 15
[WARNING] 
[WARNING] It is highly recommended to fix these problems because they threaten the stability of your build.
[WARNING] 
[WARNING] For this reason, future Maven versions might no longer support building such malformed projects.
[WARNING] 
[INFO]                                                                         
[INFO] ------------------------------------------------------------------------
[INFO] Building spring-orm 3.0.5.RELEASE
[INFO] ------------------------------------------------------------------------
Downloading: http://repo.maven.apache.org/maven2/org/eclipse/persistence/org.eclipse.persistence.core/1.0.1/org.eclipse.persistence.core-1.0.1.pom
[WARNING] The POM for org.eclipse.persistence:org.eclipse.persistence.core:jar:1.0.1 is missing, no dependency information available
[WARNING] The POM for org.eclipse.persistence:org.eclipse.persistence.jpa:jar:1.0.1 is missing, no dependency information available
Downloading: http://repo.maven.apache.org/maven2/org/eclipse/persistence/org.eclipse.persistence.asm/1.0.1/org.eclipse.persistence.asm-1.0.1.pom
[WARNING] The POM for org.eclipse.persistence:org.eclipse.persistence.asm:jar:1.0.1 is missing, no dependency information available
Downloading: http://repo.maven.apache.org/maven2/org/eclipse/persistence/org.eclipse.persistence.antlr/1.0.1/org.eclipse.persistence.antlr-1.0.1.pom
[WARNING] The POM for org.eclipse.persistence:org.eclipse.persistence.antlr:jar:1.0.1 is missing, no dependency information available
Downloading: http://repo.maven.apache.org/maven2/toplink/essentials/toplink-essentials/2.0-41/toplink-essentials-2.0-41.jar
Downloading: http://repo.maven.apache.org/maven2/org/apache/openjpa/openjpa/1.1.0/openjpa-1.1.0.jar
Downloading: http://repo.maven.apache.org/maven2/net/sourceforge/serp/serp/1.13.1/serp-1.13.1.jar
Downloading: http://repo.maven.apache.org/maven2/org/apache/geronimo/specs/geronimo-jms_1.1_spec/1.0.1/geronimo-jms_1.1_spec-1.0.1.jar
Downloading: http://repo.maven.apache.org/maven2/org/apache/geronimo/specs/geronimo-jpa_3.0_spec/1.0/geronimo-jpa_3.0_spec-1.0.jar
3/31 KB   7/31 KB   11/31 KB   1/2913 KB   11/31 KB   1/2913 KB   14/31 KB   3/2913 KB   14/31 KB   7/2913 KB   14/31 KB   11/2913 KB   14/31 KB   2/202 KB   11/2913 KB   14/31 KB   6/202 KB   11/2913 KB   14/31 KB   6/202 KB   14/2913 KB   14/31 KB   2/52 KB   6/202 KB   14/2913 KB   14/31 KB   6/52 KB   6/202 KB   14/2913 KB   14/31 KB   6/52 KB   10/202 KB   14/2913 KB   14/31 KB   10/52 KB   10/202 KB   14/2913 KB   14/31 KB   10/52 KB   14/202 KB   14/2913 KB   14/31 KB   14/52 KB   14/202 KB   14/2913 KB   14/31 KB   14/52 KB   14/202 KB   14/2913 KB   14/31 KB   14/52 KB   14/202 KB   14/2913 KB   14/31 KB   14/52 KB   14/202 KB   14/2913 KB   16/31 KB   14/52 KB   14/202 KB   14/2913 KB   18/31 KB   14/52 KB   14/202 KB   14/2913 KB   22/31 KB   14/52 KB   14/202 KB   14/2913 KB   26/31 KB   14/52 KB   14/202 KB   14/2913 KB   30/31 KB   14/52 KB   14/202 KB   14/2913 KB   31/31 KB   14/52 KB   14/202 KB   17/2913 KB   31/31 KB   14/52 KB   14/202 KB   20/2913 KB   31/31 KB   14/52 KB   14/202 KB   24/2913 KB   31/31 KB   14/52 KB   14/202 KB   28/2913 KB   31/31 KB   14/52 KB   16/202 KB   28/2913 KB   31/31 KB   14/52 KB   20/202 KB   28/2913 KB   31/31 KB   14/52 KB   20/202 KB   32/2913 KB   31/31 KB   14/52 KB   24/202 KB   32/2913 KB   31/31 KB   14/52 KB   24/202 KB   36/2913 KB   31/31 KB   14/52 KB   28/202 KB   36/2913 KB   31/31 KB   16/52 KB   28/202 KB   36/2913 KB   31/31 KB   20/52 KB   28/202 KB   40/2913 KB   31/31 KB   20/52 KB   28/202 KB   40/2913 KB   31/31 KB   20/52 KB   32/202 KB   40/2913 KB   31/31 KB   24/52 KB   32/202 KB   40/2913 KB   31/31 KB   24/52 KB   36/202 KB   40/2913 KB   31/31 KB   24/52 KB   36/202 KB   40/2913 KB   31/31 KB   24/52 KB   40/202 KB   40/2913 KB   31/31 KB   24/52 KB   43/202 KB   40/2913 KB   31/31 KB                                                  Downloaded: http://repo.maven.apache.org/maven2/org/apache/geronimo/specs/geronimo-jms_1.1_spec/1.0.1/geronimo-jms_1.1_spec-1.0.1.jar (31 KB at 348.4 KB/sec)
Downloading: http://repo.maven.apache.org/maven2/org/eclipse/persistence/org.eclipse.persistence.core/1.0.1/org.eclipse.persistence.core-1.0.1.jar
24/52 KB   43/202 KB   43/2913 KB              24/52 KB   43/202 KB   45/2913 KB   24/52 KB   43/202 KB   48/2913 KB   24/52 KB   43/202 KB   52/2913 KB   24/52 KB   43/202 KB   56/2913 KB   24/52 KB   44/202 KB   56/2913 KB   24/52 KB   48/202 KB   56/2913 KB   24/52 KB   48/202 KB   60/2913 KB   24/52 KB   52/202 KB   60/2913 KB   24/52 KB   52/202 KB   64/2913 KB   24/52 KB   56/202 KB   64/2913 KB   24/52 KB   56/202 KB   68/2913 KB   24/52 KB   60/202 KB   68/2913 KB   24/52 KB   60/202 KB   71/2913 KB   24/52 KB   64/202 KB   71/2913 KB   24/52 KB   68/202 KB   71/2913 KB   24/52 KB   69/202 KB   71/2913 KB                                       Downloading: http://repo.maven.apache.org/maven2/org/eclipse/persistence/org.eclipse.persistence.asm/1.0.1/org.eclipse.persistence.asm-1.0.1.jar
24/52 KB   69/202 KB   74/2913 KB   24/52 KB   69/202 KB   78/2913 KB   24/52 KB   69/202 KB   82/2913 KB   24/52 KB   69/202 KB   86/2913 KB   24/52 KB   69/202 KB   90/2913 KB   24/52 KB   71/202 KB   90/2913 KB   24/52 KB   75/202 KB   94/2913 KB   24/52 KB   75/202 KB   94/2913 KB   24/52 KB   79/202 KB   98/2913 KB   24/52 KB   79/202 KB   98/2913 KB   24/52 KB   83/202 KB   98/2913 KB   24/52 KB   83/202 KB   102/2913 KB   26/52 KB   83/202 KB   102/2913 KB   26/52 KB   87/202 KB   102/2913 KB   26/52 KB   87/202 KB   106/2913 KB   27/52 KB   87/202 KB   106/2913 KB   31/52 KB   87/202 KB   106/2913 KB   31/52 KB   91/202 KB   106/2913 KB   31/52 KB   91/202 KB   108/2913 KB   35/52 KB   91/202 KB   108/2913 KB   35/52 KB   95/202 KB   108/2913 KB   39/52 KB   95/202 KB   108/2913 KB   39/52 KB   99/202 KB   108/2913 KB   43/52 KB   99/202 KB   108/2913 KB   43/52 KB   103/202 KB   108/2913 KB   47/52 KB   103/202 KB   108/2913 KB   47/52 KB   107/202 KB   108/2913 KB   51/52 KB   107/202 KB   108/2913 KB   51/52 KB   109/202 KB   108/2913 KB   52/52 KB   109/202 KB   108/2913 KB   52/52 KB   109/202 KB   110/2913 KB   52/52 KB   109/202 KB   114/2913 KB   52/52 KB   109/202 KB   118/2913 KB   52/52 KB   109/202 KB   122/2913 KB                                         Downloading: http://repo.maven.apache.org/maven2/org/eclipse/persistence/org.eclipse.persistence.antlr/1.0.1/org.eclipse.persistence.antlr-1.0.1.jar
52/52 KB   109/202 KB   126/2913 KB   52/52 KB   110/202 KB   126/2913 KB   52/52 KB   114/202 KB   126/2913 KB   52/52 KB   114/202 KB   130/2913 KB   52/52 KB   118/202 KB   130/2913 KB   52/52 KB   118/202 KB   134/2913 KB   52/52 KB   122/202 KB   134/2913 KB   52/52 KB   122/202 KB   138/2913 KB   52/52 KB   126/202 KB   138/2913 KB   52/52 KB   126/202 KB   142/2913 KB   52/52 KB   130/202 KB   142/2913 KB   52/52 KB   130/202 KB   146/2913 KB   52/52 KB   134/202 KB   146/2913 KB   52/52 KB   134/202 KB   147/2913 KB   52/52 KB   138/202 KB   147/2913 KB   52/52 KB   140/202 KB   147/2913 KB                                         Downloaded: http://repo.maven.apache.org/maven2/org/apache/geronimo/specs/geronimo-jpa_3.0_spec/1.0/geronimo-jpa_3.0_spec-1.0.jar (52 KB at 305.5 KB/sec)
Downloading: http://repo.maven.apache.org/maven2/org/hibernate/hibernate-entitymanager/3.4.0.GA/hibernate-entitymanager-3.4.0.GA.jar
140/202 KB   150/2913 KB              140/202 KB   154/2913 KB   140/202 KB   158/2913 KB   140/202 KB   162/2913 KB   140/202 KB   166/2913 KB   142/202 KB   166/2913 KB   142/202 KB   170/2913 KB   146/202 KB   170/2913 KB   150/202 KB   174/2913 KB   150/202 KB   174/2913 KB   154/202 KB   174/2913 KB   154/202 KB   178/2913 KB   158/202 KB   178/2913 KB   158/202 KB   182/2913 KB   162/202 KB   182/2913 KB   162/202 KB   186/2913 KB   166/202 KB   186/2913 KB   166/202 KB   190/2913 KB   170/202 KB   190/2913 KB   170/202 KB   194/2913 KB   174/202 KB   194/2913 KB   174/202 KB   197/2913 KB   174/202 KB   197/2913 KB                              Downloading: http://repo.maven.apache.org/maven2/javax/jdo/jdo2-api/2.1/jdo2-api-2.1.jar
174/202 KB   2/117 KB   197/2913 KB   174/202 KB   6/117 KB   197/2913 KB   174/202 KB   10/117 KB   197/2913 KB   174/202 KB   14/117 KB   197/2913 KB   174/202 KB   18/117 KB   197/2913 KB   174/202 KB   18/117 KB   198/2913 KB   174/202 KB   22/117 KB   198/2913 KB   174/202 KB   22/117 KB   202/2913 KB   174/202 KB   26/117 KB   206/2913 KB   174/202 KB   26/117 KB   206/2913 KB   174/202 KB   26/117 KB   210/2913 KB   174/202 KB   26/117 KB   210/2913 KB   174/202 KB   26/117 KB   214/2913 KB   174/202 KB   26/117 KB   218/2913 KB   174/202 KB   26/117 KB   222/2913 KB   174/202 KB   26/117 KB   226/2913 KB   174/202 KB   26/117 KB   230/2913 KB   174/202 KB   26/117 KB   234/2913 KB   175/202 KB   26/117 KB   234/2913 KB   178/202 KB   26/117 KB   234/2913 KB   178/202 KB   26/117 KB   238/2913 KB   182/202 KB   26/117 KB   238/2913 KB   182/202 KB   26/117 KB   242/2913 KB   186/202 KB   26/117 KB   242/2913 KB   186/202 KB   26/117 KB   246/2913 KB   190/202 KB   26/117 KB   246/2913 KB   190/202 KB   26/117 KB   246/2913 KB   194/202 KB   26/117 KB   246/2913 KB   198/202 KB   26/117 KB   246/2913 KB   202/202 KB   26/117 KB   246/2913 KB   202/202 KB   28/117 KB   246/2913 KB   202/202 KB   32/117 KB   246/2913 KB   202/202 KB   36/117 KB   246/2913 KB   202/202 KB   40/117 KB   246/2913 KB   202/202 KB   44/117 KB   246/2913 KB   202/202 KB   44/117 KB   248/2913 KB   202/202 KB   44/117 KB   252/2913 KB   202/202 KB   48/117 KB   252/2913 KB   202/202 KB   48/117 KB   256/2913 KB   202/202 KB   52/117 KB   256/2913 KB   202/202 KB   52/117 KB   260/2913 KB   202/202 KB   52/117 KB   260/2913 KB   202/202 KB   52/117 KB   264/2913 KB   202/202 KB   52/117 KB   268/2913 KB   202/202 KB   52/117 KB   272/2913 KB   202/202 KB   52/117 KB   276/2913 KB   202/202 KB   52/117 KB   280/2913 KB   202/202 KB   52/117 KB   281/2913 KB                                          Downloaded: http://repo.maven.apache.org/maven2/net/sourceforge/serp/serp/1.13.1/serp-1.13.1.jar (202 KB at 830.8 KB/sec)
Downloading: http://repo.maven.apache.org/maven2/javax/transaction/transaction-api/1.1/transaction-api-1.1.jar
55/117 KB   281/2913 KB                58/117 KB   281/2913 KB   61/117 KB   281/2913 KB   65/117 KB   281/2913 KB   69/117 KB   281/2913 KB   73/117 KB   281/2913 KB   77/117 KB   281/2913 KB   79/117 KB   281/2913 KB   79/117 KB   283/2913 KB   79/117 KB   286/2913 KB   79/117 KB   290/2913 KB   79/117 KB   294/2913 KB   79/117 KB   298/2913 KB   79/117 KB   298/2913 KB   79/117 KB   298/2913 KB   2/15 KB   79/117 KB   298/2913 KB   6/15 KB   79/117 KB   298/2913 KB   10/15 KB   79/117 KB   298/2913 KB   14/15 KB   79/117 KB   298/2913 KB   15/15 KB   82/117 KB   298/2913 KB   15/15 KB   84/117 KB   298/2913 KB   15/15 KB   85/117 KB   298/2913 KB   15/15 KB   86/117 KB   298/2913 KB   15/15 KB   89/117 KB   298/2913 KB   15/15 KB   92/117 KB   298/2913 KB   15/15 KB   95/117 KB   298/2913 KB   15/15 KB   96/117 KB   298/2913 KB   15/15 KB   98/117 KB   298/2913 KB   15/15 KB   99/117 KB   298/2913 KB   15/15 KB   100/117 KB   298/2913 KB   15/15 KB   102/117 KB   298/2913 KB   15/15 KB   103/117 KB   298/2913 KB   15/15 KB   105/117 KB   298/2913 KB   15/15 KB   108/117 KB   298/2913 KB   15/15 KB   108/117 KB   302/2913 KB   15/15 KB   108/117 KB   306/2913 KB   15/15 KB   108/117 KB   310/2913 KB   15/15 KB   108/117 KB   314/2913 KB   15/15 KB   108/117 KB   318/2913 KB   15/15 KB   108/117 KB   322/2913 KB   15/15 KB   108/117 KB   326/2913 KB   15/15 KB   108/117 KB   330/2913 KB   15/15 KB   108/117 KB   334/2913 KB   15/15 KB   108/117 KB   338/2913 KB   15/15 KB   108/117 KB   342/2913 KB   15/15 KB   108/117 KB   346/2913 KB   15/15 KB   108/117 KB   350/2913 KB   15/15 KB   108/117 KB   354/2913 KB   15/15 KB   108/117 KB   358/2913 KB   15/15 KB   108/117 KB   362/2913 KB   15/15 KB   108/117 KB   366/2913 KB   15/15 KB   108/117 KB   370/2913 KB   15/15 KB   108/117 KB   373/2913 KB   15/15 KB   108/117 KB   375/2913 KB   15/15 KB                                         Downloaded: http://repo.maven.apache.org/maven2/javax/transaction/transaction-api/1.1/transaction-api-1.1.jar (15 KB at 258.2 KB/sec)
Downloading: http://repo.maven.apache.org/maven2/org/springframework/spring-web/3.0.5.RELEASE/spring-web-3.0.5.RELEASE.jar
109/117 KB   375/2913 KB              110/117 KB   375/2913 KB   112/117 KB   375/2913 KB   113/117 KB   375/2913 KB   115/117 KB   375/2913 KB   117/117 KB   375/2913 KB   117/117 KB   378/2913 KB   117/117 KB   379/2913 KB   117/117 KB   380/2913 KB   117/117 KB   382/2913 KB   117/117 KB   385/2913 KB   117/117 KB   386/2913 KB   117/117 KB   388/2913 KB   117/117 KB   389/2913 KB   117/117 KB   390/2913 KB   117/117 KB   392/2913 KB   117/117 KB   395/2913 KB   117/117 KB   396/2913 KB   117/117 KB   397/2913 KB   117/117 KB   399/2913 KB   117/117 KB   400/2913 KB   117/117 KB   402/2913 KB   117/117 KB   405/2913 KB   117/117 KB   406/2913 KB   117/117 KB   407/2913 KB   117/117 KB   409/2913 KB   117/117 KB   410/2913 KB                              Downloaded: http://repo.maven.apache.org/maven2/org/hibernate/hibernate-entitymanager/3.4.0.GA/hibernate-entitymanager-3.4.0.GA.jar (117 KB at 732.7 KB/sec)
413/2913 KB                414/2913 KB   416/2913 KB   417/2913 KB   419/2913 KB   420/2913 KB   421/2913 KB   423/2913 KB   426/2913 KB   427/2913 KB   429/2913 KB   430/2913 KB   431/2913 KB   433/2913 KB   434/2913 KB   436/2913 KB   440/2913 KB   444/2913 KB   448/2913 KB   452/2913 KB   456/2913 KB   460/2913 KB   464/2913 KB   468/2913 KB   472/2913 KB   476/2913 KB   480/2913 KB   484/2913 KB   488/2913 KB   492/2913 KB   494/2913 KB   496/2913 KB   498/2913 KB   499/2913 KB   501/2913 KB   502/2913 KB   503/2913 KB   505/2913 KB   506/2913 KB   508/2913 KB   509/2913 KB   511/2913 KB   512/2913 KB   513/2913 KB   515/2913 KB   516/2913 KB   518/2913 KB   519/2913 KB   520/2913 KB   523/2913 KB   525/2913 KB   526/2913 KB   528/2913 KB   529/2913 KB   530/2913 KB   532/2913 KB   533/2913 KB   535/2913 KB   536/2913 KB   537/2913 KB   539/2913 KB   542/2913 KB   543/2913 KB   544/2913 KB   546/2913 KB   547/2913 KB   549/2913 KB   550/2913 KB   552/2913 KB   553/2913 KB   554/2913 KB   556/2913 KB   557/2913 KB   559/2913 KB   560/2913 KB   561/2913 KB   563/2913 KB   564/2913 KB   566/2913 KB   569/2913 KB   570/2913 KB   571/2913 KB   573/2913 KB   574/2913 KB   576/2913 KB   577/2913 KB   578/2913 KB   580/2913 KB   581/2913 KB   583/2913 KB   584/2913 KB   586/2913 KB   3/138 KB   586/2913 KB   7/138 KB   586/2913 KB   11/138 KB   586/2913 KB   14/138 KB   586/2913 KB   14/138 KB   588/2913 KB   14/138 KB   590/2913 KB   14/138 KB   591/2913 KB   14/138 KB   593/2913 KB   14/138 KB   594/2913 KB   14/138 KB   595/2913 KB   16/138 KB   595/2913 KB   17/138 KB   595/2913 KB   17/138 KB   598/2913 KB   18/138 KB   598/2913 KB   21/138 KB   598/2913 KB   21/138 KB   600/2913 KB   21/138 KB   601/2913 KB   23/138 KB   601/2913 KB   26/138 KB   601/2913 KB   27/138 KB   601/2913 KB   28/138 KB   601/2913 KB   30/138 KB   601/2913 KB   30/138 KB   602/2913 KB   30/138 KB   604/2913 KB   33/138 KB   604/2913 KB   34/138 KB   604/2913 KB   34/138 KB   605/2913 KB   34/138 KB   607/2913 KB   35/138 KB   607/2913 KB   37/138 KB   607/2913 KB   38/138 KB   607/2913 KB   40/138 KB   607/2913 KB   41/138 KB   607/2913 KB   41/138 KB   608/2913 KB   41/138 KB   611/2913 KB   41/138 KB   612/2913 KB   41/138 KB   614/2913 KB   41/138 KB   615/2913 KB   41/138 KB   617/2913 KB   41/138 KB   619/2913 KB   41/138 KB   621/2913 KB   41/138 KB   622/2913 KB   41/138 KB   624/2913 KB   41/138 KB   625/2913 KB   41/138 KB   627/2913 KB   41/138 KB   628/2913 KB   41/138 KB   629/2913 KB   41/138 KB   631/2913 KB   41/138 KB   632/2913 KB   41/138 KB   634/2913 KB                             Downloaded: http://repo.maven.apache.org/maven2/org/springframework/spring-web/3.0.5.RELEASE/spring-web-3.0.5.RELEASE.jar (0 B at 0.0 KB/sec)
44/138 KB   634/2913 KB   45/138 KB   634/2913 KB   47/138 KB   634/2913 KB   48/138 KB   634/2913 KB   50/138 KB   634/2913 KB   51/138 KB   634/2913 KB   52/138 KB   634/2913 KB   54/138 KB   634/2913 KB   55/138 KB   634/2913 KB   57/138 KB   634/2913 KB   58/138 KB   634/2913 KB   61/138 KB   634/2913 KB   62/138 KB   634/2913 KB   64/138 KB   634/2913 KB   65/138 KB   634/2913 KB   67/138 KB   634/2913 KB   68/138 KB   634/2913 KB   69/138 KB   634/2913 KB   71/138 KB   634/2913 KB   72/138 KB   634/2913 KB   74/138 KB   634/2913 KB   75/138 KB   634/2913 KB   76/138 KB   634/2913 KB   78/138 KB   634/2913 KB   79/138 KB   634/2913 KB   81/138 KB   634/2913 KB   82/138 KB   634/2913 KB   84/138 KB   634/2913 KB   85/138 KB   634/2913 KB   86/138 KB   634/2913 KB   88/138 KB   634/2913 KB   88/138 KB   635/2913 KB   88/138 KB   638/2913 KB   88/138 KB   641/2913 KB   88/138 KB   642/2913 KB   88/138 KB   643/2913 KB   88/138 KB   645/2913 KB   88/138 KB   646/2913 KB   88/138 KB   648/2913 KB   88/138 KB   649/2913 KB   88/138 KB   652/2913 KB   88/138 KB   655/2913 KB   88/138 KB   658/2913 KB   88/138 KB   659/2913 KB   88/138 KB   660/2913 KB   88/138 KB   662/2913 KB   88/138 KB   663/2913 KB   88/138 KB   665/2913 KB   88/138 KB   666/2913 KB   88/138 KB   668/2913 KB   88/138 KB   669/2913 KB   88/138 KB   670/2913 KB   88/138 KB   672/2913 KB   88/138 KB   673/2913 KB   88/138 KB   675/2913 KB   88/138 KB   676/2913 KB   88/138 KB   677/2913 KB   88/138 KB   679/2913 KB   88/138 KB   680/2913 KB   88/138 KB   682/2913 KB   91/138 KB   682/2913 KB   92/138 KB   682/2913 KB   93/138 KB   682/2913 KB   95/138 KB   682/2913 KB   96/138 KB   682/2913 KB   98/138 KB   682/2913 KB   99/138 KB   682/2913 KB   100/138 KB   682/2913 KB   102/138 KB   682/2913 KB   103/138 KB   682/2913 KB   105/138 KB   682/2913 KB   106/138 KB   682/2913 KB   108/138 KB   682/2913 KB   109/138 KB   682/2913 KB   110/138 KB   682/2913 KB   112/138 KB   682/2913 KB   113/138 KB   682/2913 KB   116/138 KB   682/2913 KB   117/138 KB   682/2913 KB   119/138 KB   682/2913 KB   120/138 KB   682/2913 KB   122/138 KB   682/2913 KB   123/138 KB   682/2913 KB   126/138 KB   682/2913 KB   129/138 KB   682/2913 KB   130/138 KB   682/2913 KB   132/138 KB   682/2913 KB   133/138 KB   682/2913 KB   134/138 KB   682/2913 KB   136/138 KB   682/2913 KB   138/138 KB   682/2913 KB   138/138 KB   684/2913 KB   138/138 KB   687/2913 KB   138/138 KB   689/2913 KB   138/138 KB   690/2913 KB   138/138 KB   692/2913 KB   138/138 KB   693/2913 KB   138/138 KB   694/2913 KB   138/138 KB   696/2913 KB   138/138 KB   697/2913 KB   138/138 KB   700/2913 KB   138/138 KB   703/2913 KB   138/138 KB   706/2913 KB   138/138 KB   709/2913 KB   138/138 KB   710/2913 KB   138/138 KB   713/2913 KB   138/138 KB   714/2913 KB   138/138 KB   717/2913 KB   138/138 KB   718/2913 KB   138/138 KB   720/2913 KB   138/138 KB   721/2913 KB   138/138 KB   723/2913 KB   138/138 KB   724/2913 KB   138/138 KB   725/2913 KB   138/138 KB   727/2913 KB   138/138 KB   728/2913 KB   138/138 KB   731/2913 KB   138/138 KB   733/2913 KB   138/138 KB   734/2913 KB   138/138 KB   735/2913 KB   138/138 KB   738/2913 KB   138/138 KB   740/2913 KB   138/138 KB   741/2913 KB   138/138 KB   742/2913 KB   138/138 KB   744/2913 KB   138/138 KB   747/2913 KB   138/138 KB   748/2913 KB   138/138 KB   751/2913 KB   138/138 KB   754/2913 KB   138/138 KB   757/2913 KB   138/138 KB   759/2913 KB   138/138 KB   761/2913 KB   138/138 KB   762/2913 KB   138/138 KB   764/2913 KB   138/138 KB   765/2913 KB   138/138 KB   767/2913 KB   138/138 KB   768/2913 KB   138/138 KB   769/2913 KB   138/138 KB   771/2913 KB   138/138 KB   772/2913 KB   138/138 KB   774/2913 KB   138/138 KB   776/2913 KB   138/138 KB   779/2913 KB   138/138 KB   781/2913 KB   138/138 KB   782/2913 KB   138/138 KB   783/2913 KB   138/138 KB   786/2913 KB   138/138 KB   788/2913 KB   138/138 KB   789/2913 KB   138/138 KB   791/2913 KB   138/138 KB   792/2913 KB   138/138 KB   793/2913 KB   138/138 KB   796/2913 KB   138/138 KB   799/2913 KB   138/138 KB   800/2913 KB   138/138 KB   803/2913 KB   138/138 KB   806/2913 KB   138/138 KB   808/2913 KB   138/138 KB   809/2913 KB   138/138 KB   812/2913 KB   138/138 KB   815/2913 KB   138/138 KB   816/2913 KB   138/138 KB   817/2913 KB   138/138 KB   819/2913 KB   138/138 KB   820/2913 KB   138/138 KB   822/2913 KB   138/138 KB   823/2913 KB   138/138 KB   824/2913 KB   138/138 KB   826/2913 KB   138/138 KB   829/2913 KB   138/138 KB   832/2913 KB   138/138 KB   834/2913 KB   138/138 KB   836/2913 KB   138/138 KB   837/2913 KB   138/138 KB   839/2913 KB   138/138 KB   840/2913 KB   138/138 KB   841/2913 KB   138/138 KB   844/2913 KB   138/138 KB   846/2913 KB   138/138 KB   849/2913 KB   138/138 KB   851/2913 KB   138/138 KB   853/2913 KB   138/138 KB   854/2913 KB   138/138 KB   856/2913 KB   138/138 KB   858/2913 KB   138/138 KB   860/2913 KB   138/138 KB   861/2913 KB   138/138 KB   863/2913 KB   138/138 KB   864/2913 KB   138/138 KB   865/2913 KB   138/138 KB   867/2913 KB   138/138 KB   870/2913 KB   138/138 KB   873/2913 KB   138/138 KB   874/2913 KB   138/138 KB   875/2913 KB   138/138 KB   878/2913 KB   138/138 KB   880/2913 KB   138/138 KB   881/2913 KB   138/138 KB   884/2913 KB   138/138 KB   885/2913 KB   138/138 KB   887/2913 KB   138/138 KB   888/2913 KB   138/138 KB   890/2913 KB   138/138 KB   892/2913 KB   138/138 KB   894/2913 KB   138/138 KB   897/2913 KB   138/138 KB   898/2913 KB   138/138 KB   901/2913 KB   138/138 KB   902/2913 KB   138/138 KB   904/2913 KB   138/138 KB   906/2913 KB   138/138 KB   908/2913 KB   138/138 KB   909/2913 KB   138/138 KB   911/2913 KB   138/138 KB   912/2913 KB   138/138 KB   914/2913 KB   138/138 KB   915/2913 KB   138/138 KB   916/2913 KB   138/138 KB   918/2913 KB   138/138 KB   919/2913 KB                              Downloaded: http://repo.maven.apache.org/maven2/javax/jdo/jdo2-api/2.1/jdo2-api-2.1.jar (138 KB at 351.7 KB/sec)
921/2913 KB                923/2913 KB   925/2913 KB   928/2913 KB   929/2913 KB   931/2913 KB   932/2913 KB   933/2913 KB   936/2913 KB   938/2913 KB   939/2913 KB   940/2913 KB   942/2913 KB   943/2913 KB   945/2913 KB   946/2913 KB   949/2913 KB   950/2913 KB   952/2913 KB   953/2913 KB   955/2913 KB   956/2913 KB   957/2913 KB   959/2913 KB   960/2913 KB   962/2913 KB   963/2913 KB   964/2913 KB   966/2913 KB   967/2913 KB   969/2913 KB   970/2913 KB   972/2913 KB   973/2913 KB   976/2913 KB   977/2913 KB   979/2913 KB   980/2913 KB   983/2913 KB   984/2913 KB   986/2913 KB   989/2913 KB   991/2913 KB   994/2913 KB   997/2913 KB   998/2913 KB   1000/2913 KB   1001/2913 KB   1004/2913 KB   1007/2913 KB   1008/2913 KB   1010/2913 KB   1011/2913 KB   1013/2913 KB   1014/2913 KB   1015/2913 KB   1018/2913 KB   1020/2913 KB   1021/2913 KB   1024/2913 KB   1025/2913 KB   1027/2913 KB   1028/2913 KB   1031/2913 KB   1032/2913 KB   1034/2913 KB   1035/2913 KB   1037/2913 KB   1038/2913 KB   1041/2913 KB   1044/2913 KB   1046/2913 KB   1049/2913 KB   1052/2913 KB   1054/2913 KB   1055/2913 KB   1056/2913 KB   1058/2913 KB   1059/2913 KB   1061/2913 KB   1062/2913 KB   1065/2913 KB   1066/2913 KB   1068/2913 KB   1069/2913 KB   1071/2913 KB   1073/2913 KB   1075/2913 KB   1076/2913 KB   1079/2913 KB   1080/2913 KB   1082/2913 KB   1083/2913 KB   1085/2913 KB   1086/2913 KB   1089/2913 KB   1090/2913 KB   1093/2913 KB   1096/2913 KB   1099/2913 KB   1102/2913 KB   1104/2913 KB   1106/2913 KB   1107/2913 KB   1109/2913 KB   1110/2913 KB   1112/2913 KB   1113/2913 KB   1114/2913 KB   1116/2913 KB   1117/2913 KB   1119/2913 KB   1120/2913 KB   1121/2913 KB   1124/2913 KB   1127/2913 KB   1130/2913 KB   1131/2913 KB   1133/2913 KB   1134/2913 KB   1136/2913 KB   1138/2913 KB   1140/2913 KB   1143/2913 KB   1144/2913 KB   1147/2913 KB   1150/2913 KB   1153/2913 KB   1155/2913 KB   1158/2913 KB   1160/2913 KB   1161/2913 KB   1162/2913 KB   1164/2913 KB   1165/2913 KB   1167/2913 KB   1168/2913 KB   1170/2913 KB   1171/2913 KB   1172/2913 KB   1175/2913 KB   1178/2913 KB   1179/2913 KB   1181/2913 KB   1184/2913 KB   1185/2913 KB   1186/2913 KB   1189/2913 KB   1192/2913 KB   1194/2913 KB   1196/2913 KB   1198/2913 KB   1199/2913 KB   1201/2913 KB   1202/2913 KB   1203/2913 KB   1206/2913 KB   1209/2913 KB   1211/2913 KB   1212/2913 KB   1215/2913 KB   1216/2913 KB   1218/2913 KB   1219/2913 KB   1220/2913 KB   1222/2913 KB   1223/2913 KB   1226/2913 KB   1229/2913 KB   1232/2913 KB   1233/2913 KB   1235/2913 KB   1237/2913 KB   1240/2913 KB   1243/2913 KB   1246/2913 KB   1247/2913 KB   1249/2913 KB   1250/2913 KB   1252/2913 KB   1253/2913 KB   1256/2913 KB   1257/2913 KB   1260/2913 KB   1261/2913 KB   1263/2913 KB   1264/2913 KB   1266/2913 KB   1267/2913 KB   1268/2913 KB   1270/2913 KB   1271/2913 KB   1273/2913 KB   1274/2913 KB   1277/2913 KB   1280/2913 KB   1283/2913 KB   1285/2913 KB   1287/2913 KB   1288/2913 KB   1291/2913 KB   1294/2913 KB   1297/2913 KB   1300/2913 KB   1301/2913 KB   1302/2913 KB   1305/2913 KB   1307/2913 KB   1310/2913 KB   1311/2913 KB   1312/2913 KB   1314/2913 KB   1315/2913 KB   1317/2913 KB   1319/2913 KB   1321/2913 KB   1322/2913 KB   1324/2913 KB   1325/2913 KB   1328/2913 KB   1329/2913 KB   1332/2913 KB   1335/2913 KB   1336/2913 KB   1338/2913 KB   1341/2913 KB   1343/2913 KB   1346/2913 KB   1349/2913 KB   1351/2913 KB   1352/2913 KB   1355/2913 KB   1358/2913 KB   1360/2913 KB   1362/2913 KB   1363/2913 KB   1365/2913 KB   1366/2913 KB   1367/2913 KB   1370/2913 KB   1373/2913 KB   1375/2913 KB   1376/2913 KB   1377/2913 KB   1380/2913 KB   1383/2913 KB   1384/2913 KB   1387/2913 KB   1390/2913 KB   1392/2913 KB   1393/2913 KB   1396/2913 KB   1397/2913 KB   1399/2913 KB   1401/2913 KB   1403/2913 KB   1404/2913 KB   1407/2913 KB   1410/2913 KB   1413/2913 KB   1414/2913 KB   1416/2913 KB   1417/2913 KB   1418/2913 KB   1421/2913 KB   1423/2913 KB   1424/2913 KB   1425/2913 KB   1428/2913 KB   1431/2913 KB   1433/2913 KB   1434/2913 KB   1435/2913 KB   1438/2913 KB   1440/2913 KB   1441/2913 KB   1442/2913 KB   1444/2913 KB   1445/2913 KB   1448/2913 KB   1451/2913 KB   1454/2913 KB   1457/2913 KB   1458/2913 KB   1459/2913 KB   1462/2913 KB   1465/2913 KB   1466/2913 KB   1468/2913 KB   1469/2913 KB   1471/2913 KB   1472/2913 KB   1474/2913 KB   1476/2913 KB   1479/2913 KB   1481/2913 KB   1483/2913 KB   1486/2913 KB   1489/2913 KB   1491/2913 KB   1492/2913 KB   1493/2913 KB   1496/2913 KB   1499/2913 KB   1500/2913 KB   1503/2913 KB   1506/2913 KB   1509/2913 KB   1510/2913 KB   1512/2913 KB   1515/2913 KB   1517/2913 KB   1520/2913 KB   1522/2913 KB   1523/2913 KB   1524/2913 KB   1526/2913 KB   1527/2913 KB   1529/2913 KB   1532/2913 KB   1534/2913 KB   1536/2913 KB   1537/2913 KB   1539/2913 KB   1541/2913 KB   1543/2913 KB   1544/2913 KB   1547/2913 KB   1548/2913 KB   1551/2913 KB   1554/2913 KB   1556/2913 KB   1558/2913 KB   1561/2913 KB   1564/2913 KB   1567/2913 KB   1570/2913 KB   1573/2913 KB   1574/2913 KB   1575/2913 KB   1577/2913 KB   1578/2913 KB   1580/2913 KB   1581/2913 KB   1582/2913 KB   1584/2913 KB   1585/2913 KB   1588/2913 KB   1589/2913 KB   1591/2913 KB   1592/2913 KB   1594/2913 KB   1595/2913 KB   1597/2913 KB   1598/2913 KB   1599/2913 KB   1601/2913 KB   1602/2913 KB   1604/2913 KB   1605/2913 KB   1606/2913 KB   1608/2913 KB   1609/2913 KB   1612/2913 KB   1614/2913 KB   1615/2913 KB   1616/2913 KB   1618/2913 KB   1619/2913 KB   1621/2913 KB   1622/2913 KB   1623/2913 KB   1625/2913 KB   1626/2913 KB   1628/2913 KB   1629/2913 KB   1630/2913 KB   1632/2913 KB   1633/2913 KB   1635/2913 KB   1636/2913 KB   1638/2913 KB   1639/2913 KB   1640/2913 KB   1642/2913 KB   1643/2913 KB   1645/2913 KB   1647/2913 KB   1649/2913 KB   1650/2913 KB   1652/2913 KB   1653/2913 KB   1656/2913 KB   1657/2913 KB   1659/2913 KB   1662/2913 KB   1664/2913 KB   1666/2913 KB   1667/2913 KB   1669/2913 KB   1670/2913 KB   1672/2913 KB   1674/2913 KB   1676/2913 KB   1677/2913 KB   1680/2913 KB   1683/2913 KB   1684/2913 KB   1686/2913 KB   1687/2913 KB   1688/2913 KB   1690/2913 KB   1691/2913 KB   1694/2913 KB   1697/2913 KB   1700/2913 KB   1701/2913 KB   1703/2913 KB   1704/2913 KB   1705/2913 KB   1707/2913 KB   1708/2913 KB   1710/2913 KB   1713/2913 KB   1715/2913 KB   1718/2913 KB   1721/2913 KB   1722/2913 KB   1724/2913 KB   1727/2913 KB   1728/2913 KB   1731/2913 KB   1732/2913 KB   1734/2913 KB   1737/2913 KB   1739/2913 KB   1741/2913 KB   1742/2913 KB   1744/2913 KB   1745/2913 KB   1748/2913 KB   1751/2913 KB   1754/2913 KB   1756/2913 KB   1758/2913 KB   1759/2913 KB   1761/2913 KB   1762/2913 KB   1765/2913 KB   1766/2913 KB   1769/2913 KB   1772/2913 KB   1775/2913 KB   1778/2913 KB   1779/2913 KB   1780/2913 KB   1783/2913 KB   1785/2913 KB   1786/2913 KB   1787/2913 KB   1790/2913 KB   1792/2913 KB   1793/2913 KB   1796/2913 KB   1799/2913 KB   1802/2913 KB   1803/2913 KB   1804/2913 KB   1806/2913 KB   1809/2913 KB   1810/2913 KB   1811/2913 KB   1814/2913 KB   1816/2913 KB   1817/2913 KB   1819/2913 KB   1820/2913 KB   1821/2913 KB   1823/2913 KB   1824/2913 KB   1827/2913 KB   1828/2913 KB   1830/2913 KB   1831/2913 KB   1833/2913 KB   1836/2913 KB   1838/2913 KB   1841/2913 KB   1844/2913 KB   1845/2913 KB   1847/2913 KB   1848/2913 KB   1850/2913 KB   1851/2913 KB   1853/2913 KB   1854/2913 KB   1857/2913 KB   1860/2913 KB   1862/2913 KB   1864/2913 KB   1867/2913 KB   1869/2913 KB   1871/2913 KB   1872/2913 KB   1874/2913 KB   1875/2913 KB   1877/2913 KB   1878/2913 KB   1881/2913 KB   1884/2913 KB   1885/2913 KB   1886/2913 KB   1888/2913 KB   1889/2913 KB   1891/2913 KB   1894/2913 KB   1895/2913 KB   1896/2913 KB   1899/2913 KB   1901/2913 KB   1902/2913 KB   1905/2913 KB   1906/2913 KB   1908/2913 KB   1910/2913 KB   1912/2913 KB   1913/2913 KB   1915/2913 KB   1918/2913 KB   1920/2913 KB   1922/2913 KB   1925/2913 KB   1927/2913 KB   1929/2913 KB   1930/2913 KB   1932/2913 KB   1933/2913 KB   1935/2913 KB   1936/2913 KB   1939/2913 KB   1942/2913 KB   1943/2913 KB   1944/2913 KB   1947/2913 KB   1949/2913 KB   1950/2913 KB   1951/2913 KB   1954/2913 KB   1957/2913 KB   1959/2913 KB   1960/2913 KB   1963/2913 KB   1966/2913 KB   1967/2913 KB   1968/2913 KB   1970/2913 KB   1973/2913 KB   1976/2913 KB   1977/2913 KB   1980/2913 KB   1981/2913 KB   1983/2913 KB   1984/2913 KB   1985/2913 KB   1987/2913 KB   1988/2913 KB   1990/2913 KB   1992/2913 KB   1995/2913 KB   1998/2913 KB   2001/2913 KB   2004/2913 KB   2005/2913 KB   2007/2913 KB   2009/2913 KB   2011/2913 KB   2012/2913 KB   2014/2913 KB   2015/2913 KB   2017/2913 KB   2018/2913 KB   2019/2913 KB   2022/2913 KB   2025/2913 KB   2028/2913 KB   2029/2913 KB   2032/2913 KB   2035/2913 KB   2036/2913 KB   2038/2913 KB   2039/2913 KB   2041/2913 KB   2042/2913 KB   2043/2913 KB   2045/2913 KB   2048/2913 KB   2049/2913 KB   2052/2913 KB   2053/2913 KB   2055/2913 KB   2058/2913 KB   2060/2913 KB   2063/2913 KB   2066/2913 KB   2069/2913 KB   2070/2913 KB   2072/2913 KB   2073/2913 KB   2075/2913 KB   2077/2913 KB   2079/2913 KB   2080/2913 KB   2082/2913 KB   2084/2913 KB   2087/2913 KB   2089/2913 KB   2091/2913 KB   2094/2913 KB   2096/2913 KB   2097/2913 KB   2099/2913 KB   2100/2913 KB   2101/2913 KB   2103/2913 KB   2104/2913 KB   2107/2913 KB   2108/2913 KB   2110/2913 KB   2111/2913 KB   2114/2913 KB   2117/2913 KB   2118/2913 KB   2120/2913 KB   2123/2913 KB   2124/2913 KB   2125/2913 KB   2128/2913 KB   2130/2913 KB   2131/2913 KB   2134/2913 KB   2135/2913 KB   2137/2913 KB   2140/2913 KB   2141/2913 KB   2144/2913 KB   2147/2913 KB   2148/2913 KB   2149/2913 KB   2151/2913 KB   2152/2913 KB   2154/2913 KB   2155/2913 KB   2157/2913 KB   2159/2913 KB   2161/2913 KB   2162/2913 KB   2164/2913 KB   2166/2913 KB   2169/2913 KB   2171/2913 KB   2173/2913 KB   2175/2913 KB   2176/2913 KB   2179/2913 KB   2182/2913 KB   2185/2913 KB   2186/2913 KB   2188/2913 KB   2190/2913 KB   2192/2913 KB   2193/2913 KB   2196/2913 KB   2199/2913 KB   2200/2913 KB   2203/2913 KB   2205/2913 KB   2206/2913 KB   2207/2913 KB   2209/2913 KB   2210/2913 KB   2212/2913 KB   2213/2913 KB   2215/2913 KB   2216/2913 KB   2217/2913 KB   2220/2913 KB   2222/2913 KB   2223/2913 KB   2224/2913 KB   2226/2913 KB   2227/2913 KB   2230/2913 KB   2231/2913 KB   2233/2913 KB   2234/2913 KB   2237/2913 KB   2239/2913 KB   2240/2913 KB   2243/2913 KB   2244/2913 KB   2246/2913 KB   2248/2913 KB   2251/2913 KB   2254/2913 KB   2257/2913 KB   2260/2913 KB   2261/2913 KB   2263/2913 KB   2264/2913 KB   2267/2913 KB   2268/2913 KB   2270/2913 KB   2271/2913 KB   2272/2913 KB   2274/2913 KB   2275/2913 KB   2278/2913 KB   2281/2913 KB   2282/2913 KB   2284/2913 KB   2287/2913 KB   2288/2913 KB   2289/2913 KB   2291/2913 KB   2294/2913 KB   2295/2913 KB   2297/2913 KB   2298/2913 KB   2299/2913 KB   2301/2913 KB   2304/2913 KB   2306/2913 KB   2309/2913 KB   2312/2913 KB   2315/2913 KB   2318/2913 KB   2321/2913 KB   2323/2913 KB   2325/2913 KB   2326/2913 KB   2328/2913 KB   2329/2913 KB   2330/2913 KB   2332/2913 KB   2333/2913 KB   2335/2913 KB   2336/2913 KB   2339/2913 KB   2342/2913 KB   2343/2913 KB   2345/2913 KB   2347/2913 KB   2350/2913 KB   2352/2913 KB   2353/2913 KB   2354/2913 KB   2356/2913 KB   2357/2913 KB   2360/2913 KB   2362/2913 KB   2364/2913 KB   2367/2913 KB   2370/2913 KB   2373/2913 KB   2376/2913 KB   2379/2913 KB   2381/2913 KB   2383/2913 KB   2384/2913 KB   2386/2913 KB   2387/2913 KB   2388/2913 KB   2390/2913 KB   2391/2913 KB   2393/2913 KB   2396/2913 KB   2397/2913 KB   2400/2913 KB   2403/2913 KB   2404/2913 KB   2405/2913 KB   2408/2913 KB   2410/2913 KB   2411/2913 KB   2412/2913 KB   2414/2913 KB   2417/2913 KB   2418/2913 KB   2421/2913 KB   2422/2913 KB   2425/2913 KB   2428/2913 KB   2431/2913 KB   2434/2913 KB   2437/2913 KB   2439/2913 KB   2441/2913 KB   2442/2913 KB   2444/2913 KB   2445/2913 KB   2446/2913 KB   2448/2913 KB   2449/2913 KB   2451/2913 KB   2453/2913 KB   2456/2913 KB   2458/2913 KB   2461/2913 KB   2463/2913 KB   2466/2913 KB   2468/2913 KB   2469/2913 KB   2470/2913 KB   2472/2913 KB   2475/2913 KB   2478/2913 KB   2479/2913 KB   2480/2913 KB   2482/2913 KB   2483/2913 KB   2485/2913 KB   2487/2913 KB   2489/2913 KB   2492/2913 KB   2493/2913 KB   2496/2913 KB   2499/2913 KB   2500/2913 KB   2502/2913 KB   2504/2913 KB   2506/2913 KB   2507/2913 KB   2509/2913 KB   2510/2913 KB   2511/2913 KB   2513/2913 KB   2516/2913 KB   2519/2913 KB   2520/2913 KB   2521/2913 KB   2523/2913 KB   2526/2913 KB   2527/2913 KB   2528/2913 KB   2531/2913 KB   2534/2913 KB   2537/2913 KB   2538/2913 KB   2540/2913 KB   2541/2913 KB   2543/2913 KB   2545/2913 KB   2547/2913 KB   2550/2913 KB   2551/2913 KB   2552/2913 KB   2554/2913 KB   2555/2913 KB   2558/2913 KB   2560/2913 KB   2561/2913 KB   2562/2913 KB   2564/2913 KB   2567/2913 KB   2568/2913 KB   2569/2913 KB   2571/2913 KB   2572/2913 KB   2575/2913 KB   2578/2913 KB   2579/2913 KB   2581/2913 KB   2584/2913 KB   2585/2913 KB   2586/2913 KB   2588/2913 KB   2589/2913 KB   2591/2913 KB   2593/2913 KB   2596/2913 KB   2599/2913 KB   2601/2913 KB   2602/2913 KB   2605/2913 KB   2608/2913 KB   2609/2913 KB   2610/2913 KB   2612/2913 KB   2613/2913 KB   2615/2913 KB   2618/2913 KB   2620/2913 KB   2622/2913 KB   2623/2913 KB   2625/2913 KB   2626/2913 KB   2627/2913 KB   2629/2913 KB   2630/2913 KB   2632/2913 KB   2633/2913 KB   2634/2913 KB   2637/2913 KB   2640/2913 KB   2643/2913 KB   2646/2913 KB   2647/2913 KB   2649/2913 KB   2651/2913 KB   2653/2913 KB   2654/2913 KB   2656/2913 KB   2659/2913 KB   2661/2913 KB   2664/2913 KB   2667/2913 KB   2668/2913 KB   2670/2913 KB   2671/2913 KB   2673/2913 KB   2674/2913 KB   2675/2913 KB   2677/2913 KB   2678/2913 KB   2680/2913 KB   2681/2913 KB   2683/2913 KB   2684/2913 KB   2685/2913 KB   2687/2913 KB   2688/2913 KB   2690/2913 KB   2691/2913 KB   2692/2913 KB   2694/2913 KB   2695/2913 KB   2697/2913 KB   2698/2913 KB   2700/2913 KB   2702/2913 KB   2704/2913 KB   2705/2913 KB   2707/2913 KB   2708/2913 KB   2709/2913 KB   2711/2913 KB   2714/2913 KB   2716/2913 KB   2719/2913 KB   2721/2913 KB   2724/2913 KB   2726/2913 KB   2728/2913 KB   2729/2913 KB   2732/2913 KB   2735/2913 KB   2736/2913 KB   2738/2913 KB   2741/2913 KB   2742/2913 KB   2743/2913 KB   2745/2913 KB   2746/2913 KB   2748/2913 KB   2749/2913 KB   2750/2913 KB   2753/2913 KB   2755/2913 KB   2756/2913 KB   2758/2913 KB   2759/2913 KB   2760/2913 KB   2762/2913 KB   2763/2913 KB   2765/2913 KB   2766/2913 KB   2769/2913 KB   2772/2913 KB   2774/2913 KB   2777/2913 KB   2779/2913 KB   2780/2913 KB   2783/2913 KB   2784/2913 KB   2787/2913 KB   2790/2913 KB   2791/2913 KB   2793/2913 KB   2796/2913 KB   2799/2913 KB   2800/2913 KB   2801/2913 KB   2804/2913 KB   2806/2913 KB   2807/2913 KB   2808/2913 KB   2810/2913 KB   2811/2913 KB   2813/2913 KB   2814/2913 KB   2817/2913 KB   2820/2913 KB   2823/2913 KB   2825/2913 KB   2827/2913 KB   2828/2913 KB   2830/2913 KB   2831/2913 KB   2832/2913 KB   2835/2913 KB   2838/2913 KB   2841/2913 KB   2844/2913 KB   2847/2913 KB   2848/2913 KB   2849/2913 KB   2851/2913 KB   2852/2913 KB   2854/2913 KB   2856/2913 KB   2859/2913 KB   2862/2913 KB   2864/2913 KB   2865/2913 KB   2866/2913 KB   2868/2913 KB   2871/2913 KB   2872/2913 KB   2873/2913 KB   2876/2913 KB   2878/2913 KB   2879/2913 KB   2881/2913 KB   2883/2913 KB   2885/2913 KB   2886/2913 KB   2889/2913 KB   2890/2913 KB   2892/2913 KB   2895/2913 KB   2896/2913 KB   2899/2913 KB   2900/2913 KB   2902/2913 KB   2905/2913 KB   2907/2913 KB   2909/2913 KB   2910/2913 KB   2913/2913 KB                  Downloaded: http://repo.maven.apache.org/maven2/org/apache/openjpa/openjpa/1.1.0/openjpa-1.1.0.jar (2913 KB at 1880.3 KB/sec)
3/2410 KB      7/2410 KB   11/2410 KB   14/2410 KB   17/2410 KB   18/2410 KB   20/2410 KB   21/2410 KB   23/2410 KB   24/2410 KB   26/2410 KB   27/2410 KB   28/2410 KB   31/2410 KB   33/2410 KB   34/2410 KB   35/2410 KB   37/2410 KB   38/2410 KB   40/2410 KB   41/2410 KB   44/2410 KB   45/2410 KB   47/2410 KB   48/2410 KB   50/2410 KB   51/2410 KB   52/2410 KB   54/2410 KB   55/2410 KB   57/2410 KB   58/2410 KB   59/2410 KB   61/2410 KB   62/2410 KB   64/2410 KB   65/2410 KB   67/2410 KB   68/2410 KB   69/2410 KB   71/2410 KB   72/2410 KB   74/2410 KB   75/2410 KB   76/2410 KB   78/2410 KB   79/2410 KB   81/2410 KB   82/2410 KB   84/2410 KB   85/2410 KB   86/2410 KB   88/2410 KB   89/2410 KB   91/2410 KB   92/2410 KB   93/2410 KB   95/2410 KB   96/2410 KB   98/2410 KB   99/2410 KB   100/2410 KB   102/2410 KB   103/2410 KB   105/2410 KB   106/2410 KB   108/2410 KB   109/2410 KB   110/2410 KB   112/2410 KB   113/2410 KB   115/2410 KB   116/2410 KB   117/2410 KB   119/2410 KB   120/2410 KB   122/2410 KB   123/2410 KB   125/2410 KB   126/2410 KB   127/2410 KB   129/2410 KB   130/2410 KB   132/2410 KB   133/2410 KB   134/2410 KB   136/2410 KB   137/2410 KB   139/2410 KB   140/2410 KB   141/2410 KB   143/2410 KB   144/2410 KB   146/2410 KB   147/2410 KB   149/2410 KB   150/2410 KB   151/2410 KB   153/2410 KB   154/2410 KB   156/2410 KB   157/2410 KB   158/2410 KB   160/2410 KB   161/2410 KB   163/2410 KB   164/2410 KB   166/2410 KB   167/2410 KB   168/2410 KB   170/2410 KB   171/2410 KB   173/2410 KB   174/2410 KB   175/2410 KB   177/2410 KB   178/2410 KB   180/2410 KB   181/2410 KB   182/2410 KB   184/2410 KB   185/2410 KB   187/2410 KB   188/2410 KB   190/2410 KB   191/2410 KB   192/2410 KB   194/2410 KB   195/2410 KB   197/2410 KB   198/2410 KB   199/2410 KB   201/2410 KB   202/2410 KB   204/2410 KB   205/2410 KB   207/2410 KB   208/2410 KB   209/2410 KB   211/2410 KB   212/2410 KB   214/2410 KB   215/2410 KB   216/2410 KB   218/2410 KB   219/2410 KB   221/2410 KB   222/2410 KB   223/2410 KB   225/2410 KB   226/2410 KB   228/2410 KB   229/2410 KB   231/2410 KB   232/2410 KB   233/2410 KB   235/2410 KB   236/2410 KB   238/2410 KB   239/2410 KB   240/2410 KB   242/2410 KB   243/2410 KB   245/2410 KB   246/2410 KB   248/2410 KB   249/2410 KB   250/2410 KB   252/2410 KB   253/2410 KB   255/2410 KB   256/2410 KB   257/2410 KB   259/2410 KB   260/2410 KB   262/2410 KB   263/2410 KB   265/2410 KB   266/2410 KB   267/2410 KB   269/2410 KB   270/2410 KB   272/2410 KB   273/2410 KB   274/2410 KB   276/2410 KB   277/2410 KB   279/2410 KB   280/2410 KB   281/2410 KB   283/2410 KB   284/2410 KB   286/2410 KB   287/2410 KB   291/2410 KB   295/2410 KB   299/2410 KB   303/2410 KB   307/2410 KB   311/2410 KB   315/2410 KB   319/2410 KB   323/2410 KB   327/2410 KB   331/2410 KB   335/2410 KB   339/2410 KB   343/2410 KB   347/2410 KB   351/2410 KB   355/2410 KB   359/2410 KB   363/2410 KB   367/2410 KB   371/2410 KB   375/2410 KB   379/2410 KB   383/2410 KB   387/2410 KB   391/2410 KB   395/2410 KB   397/2410 KB   399/2410 KB   400/2410 KB   402/2410 KB   403/2410 KB   404/2410 KB   406/2410 KB   407/2410 KB   409/2410 KB   410/2410 KB   412/2410 KB   413/2410 KB   414/2410 KB   416/2410 KB   417/2410 KB   419/2410 KB   420/2410 KB   421/2410 KB   423/2410 KB   424/2410 KB   426/2410 KB   427/2410 KB   429/2410 KB   430/2410 KB   431/2410 KB   433/2410 KB   434/2410 KB   436/2410 KB   437/2410 KB   438/2410 KB   440/2410 KB   441/2410 KB   443/2410 KB   444/2410 KB   446/2410 KB   447/2410 KB   448/2410 KB   450/2410 KB   451/2410 KB   453/2410 KB   454/2410 KB   455/2410 KB   459/2410 KB   463/2410 KB   467/2410 KB   471/2410 KB   475/2410 KB   479/2410 KB   483/2410 KB   487/2410 KB   491/2410 KB   495/2410 KB   499/2410 KB   503/2410 KB   507/2410 KB   511/2410 KB   515/2410 KB   519/2410 KB   523/2410 KB   527/2410 KB   531/2410 KB   535/2410 KB   536/2410 KB   537/2410 KB   539/2410 KB   540/2410 KB   542/2410 KB   543/2410 KB   544/2410 KB   546/2410 KB   547/2410 KB   549/2410 KB   550/2410 KB   552/2410 KB   553/2410 KB   556/2410 KB   557/2410 KB   559/2410 KB   560/2410 KB   563/2410 KB   564/2410 KB   566/2410 KB   567/2410 KB   569/2410 KB   570/2410 KB   571/2410 KB   573/2410 KB   574/2410 KB   576/2410 KB   577/2410 KB   578/2410 KB   580/2410 KB   581/2410 KB   583/2410 KB   584/2410 KB   585/2410 KB   587/2410 KB   588/2410 KB   590/2410 KB   591/2410 KB   593/2410 KB   594/2410 KB   595/2410 KB   597/2410 KB   598/2410 KB   600/2410 KB   601/2410 KB   602/2410 KB   604/2410 KB   605/2410 KB   607/2410 KB   608/2410 KB   610/2410 KB   611/2410 KB   612/2410 KB   614/2410 KB   615/2410 KB   617/2410 KB   618/2410 KB   619/2410 KB   621/2410 KB   622/2410 KB   624/2410 KB   625/2410 KB   627/2410 KB   628/2410 KB   629/2410 KB   631/2410 KB   632/2410 KB   634/2410 KB   635/2410 KB   636/2410 KB   638/2410 KB   639/2410 KB   641/2410 KB   642/2410 KB   643/2410 KB   645/2410 KB   646/2410 KB   648/2410 KB   649/2410 KB   651/2410 KB   652/2410 KB   653/2410 KB   655/2410 KB   656/2410 KB   658/2410 KB   659/2410 KB   660/2410 KB   662/2410 KB   663/2410 KB   665/2410 KB   666/2410 KB   668/2410 KB   669/2410 KB   670/2410 KB   672/2410 KB   673/2410 KB   675/2410 KB   676/2410 KB   677/2410 KB   679/2410 KB   680/2410 KB   682/2410 KB   683/2410 KB   684/2410 KB   686/2410 KB   687/2410 KB   689/2410 KB   690/2410 KB   692/2410 KB   693/2410 KB   694/2410 KB   696/2410 KB   697/2410 KB   699/2410 KB   700/2410 KB   701/2410 KB   703/2410 KB   704/2410 KB   706/2410 KB   707/2410 KB   709/2410 KB   710/2410 KB   711/2410 KB   713/2410 KB   714/2410 KB   716/2410 KB   717/2410 KB   718/2410 KB   720/2410 KB   721/2410 KB   723/2410 KB   724/2410 KB   725/2410 KB   727/2410 KB   728/2410 KB   730/2410 KB   731/2410 KB   733/2410 KB   734/2410 KB   735/2410 KB   737/2410 KB   738/2410 KB   740/2410 KB   741/2410 KB   742/2410 KB   744/2410 KB   745/2410 KB   747/2410 KB   748/2410 KB   750/2410 KB   751/2410 KB   752/2410 KB   754/2410 KB   755/2410 KB   757/2410 KB   758/2410 KB   759/2410 KB   761/2410 KB   762/2410 KB   764/2410 KB   765/2410 KB   766/2410 KB   768/2410 KB   769/2410 KB   771/2410 KB   772/2410 KB   774/2410 KB   775/2410 KB   776/2410 KB   778/2410 KB   779/2410 KB   782/2410 KB   783/2410 KB   785/2410 KB   786/2410 KB   788/2410 KB   789/2410 KB   791/2410 KB   792/2410 KB   793/2410 KB   795/2410 KB   796/2410 KB   798/2410 KB   799/2410 KB   800/2410 KB   802/2410 KB   803/2410 KB   805/2410 KB   806/2410 KB   808/2410 KB   809/2410 KB   810/2410 KB   812/2410 KB   813/2410 KB   815/2410 KB   816/2410 KB   817/2410 KB   819/2410 KB   820/2410 KB   822/2410 KB   823/2410 KB   824/2410 KB   827/2410 KB   829/2410 KB   830/2410 KB   832/2410 KB   833/2410 KB   834/2410 KB   836/2410 KB   837/2410 KB   839/2410 KB   840/2410 KB   841/2410 KB   843/2410 KB   844/2410 KB   846/2410 KB   847/2410 KB   849/2410 KB   850/2410 KB   851/2410 KB   853/2410 KB   854/2410 KB   856/2410 KB   857/2410 KB   858/2410 KB   860/2410 KB   861/2410 KB   863/2410 KB   864/2410 KB   865/2410 KB   867/2410 KB   868/2410 KB   870/2410 KB   871/2410 KB   873/2410 KB   874/2410 KB   875/2410 KB   877/2410 KB   878/2410 KB   880/2410 KB   881/2410 KB   882/2410 KB   884/2410 KB   885/2410 KB   887/2410 KB   888/2410 KB   890/2410 KB   891/2410 KB   892/2410 KB   894/2410 KB   895/2410 KB   897/2410 KB   898/2410 KB   899/2410 KB   901/2410 KB   902/2410 KB   904/2410 KB   905/2410 KB   906/2410 KB   908/2410 KB   909/2410 KB   911/2410 KB   912/2410 KB   914/2410 KB   915/2410 KB   916/2410 KB   918/2410 KB   919/2410 KB   921/2410 KB   922/2410 KB   923/2410 KB   925/2410 KB   926/2410 KB   928/2410 KB   929/2410 KB   931/2410 KB   932/2410 KB   933/2410 KB   935/2410 KB   936/2410 KB   938/2410 KB   939/2410 KB   940/2410 KB   942/2410 KB   943/2410 KB   945/2410 KB   946/2410 KB   947/2410 KB   949/2410 KB   950/2410 KB   952/2410 KB   953/2410 KB   955/2410 KB   956/2410 KB   957/2410 KB   959/2410 KB   960/2410 KB   962/2410 KB   963/2410 KB   964/2410 KB   966/2410 KB   967/2410 KB   969/2410 KB   970/2410 KB   972/2410 KB   973/2410 KB   974/2410 KB   976/2410 KB   977/2410 KB   979/2410 KB   980/2410 KB   981/2410 KB   983/2410 KB   984/2410 KB   986/2410 KB   987/2410 KB   989/2410 KB   990/2410 KB   991/2410 KB   993/2410 KB   994/2410 KB   996/2410 KB   997/2410 KB   998/2410 KB   1000/2410 KB   1001/2410 KB   1003/2410 KB   1004/2410 KB   1005/2410 KB   1007/2410 KB   1008/2410 KB   1010/2410 KB   1011/2410 KB   1013/2410 KB   1014/2410 KB   1015/2410 KB   1017/2410 KB   1018/2410 KB   1020/2410 KB   1021/2410 KB   1022/2410 KB   1024/2410 KB   1025/2410 KB   1027/2410 KB   1028/2410 KB   1030/2410 KB   1031/2410 KB   1032/2410 KB   1034/2410 KB   1035/2410 KB   1037/2410 KB   1038/2410 KB   1039/2410 KB   1041/2410 KB   1042/2410 KB   1045/2410 KB   1046/2410 KB   1048/2410 KB   1049/2410 KB   1051/2410 KB   1052/2410 KB   1054/2410 KB   1055/2410 KB   1056/2410 KB   1058/2410 KB   1059/2410 KB   1061/2410 KB   1062/2410 KB   1063/2410 KB   1065/2410 KB   1066/2410 KB   1068/2410 KB   1069/2410 KB   1071/2410 KB   1072/2410 KB   1073/2410 KB   1075/2410 KB   1076/2410 KB   1078/2410 KB   1079/2410 KB   1080/2410 KB   1082/2410 KB   1083/2410 KB   1085/2410 KB   1086/2410 KB   1087/2410 KB   1089/2410 KB   1090/2410 KB   1092/2410 KB   1093/2410 KB   1095/2410 KB   1096/2410 KB   1097/2410 KB   1099/2410 KB   1100/2410 KB   1102/2410 KB   1103/2410 KB   1106/2410 KB   1107/2410 KB   1109/2410 KB   1110/2410 KB   1113/2410 KB   1116/2410 KB   1117/2410 KB   1119/2410 KB   1120/2410 KB   1121/2410 KB   1123/2410 KB   1124/2410 KB   1126/2410 KB   1127/2410 KB   1128/2410 KB   1130/2410 KB   1131/2410 KB   1133/2410 KB   1134/2410 KB   1136/2410 KB   1137/2410 KB   1138/2410 KB   1140/2410 KB   1141/2410 KB   1143/2410 KB   1144/2410 KB   1145/2410 KB   1147/2410 KB   1148/2410 KB   1150/2410 KB   1151/2410 KB   1153/2410 KB   1154/2410 KB   1155/2410 KB   1157/2410 KB   1158/2410 KB   1160/2410 KB   1161/2410 KB   1162/2410 KB   1164/2410 KB   1165/2410 KB   1167/2410 KB   1168/2410 KB   1170/2410 KB   1171/2410 KB   1172/2410 KB   1174/2410 KB   1175/2410 KB   1177/2410 KB   1178/2410 KB   1179/2410 KB   1181/2410 KB   1182/2410 KB   1184/2410 KB   1185/2410 KB   1186/2410 KB   1188/2410 KB   1189/2410 KB   1191/2410 KB   1192/2410 KB   1194/2410 KB   1195/2410 KB   1196/2410 KB   1198/2410 KB   1199/2410 KB   1201/2410 KB   1202/2410 KB   1203/2410 KB   1205/2410 KB   1206/2410 KB   1208/2410 KB   1209/2410 KB   1211/2410 KB   1212/2410 KB   1213/2410 KB   1215/2410 KB   1216/2410 KB   1218/2410 KB   1219/2410 KB   1220/2410 KB   1222/2410 KB   1223/2410 KB   1225/2410 KB   1226/2410 KB   1227/2410 KB   1229/2410 KB   1230/2410 KB   1232/2410 KB   1233/2410 KB   1235/2410 KB   1236/2410 KB   1237/2410 KB   1239/2410 KB   1240/2410 KB   1242/2410 KB   1243/2410 KB   1244/2410 KB   1246/2410 KB   1247/2410 KB   1249/2410 KB   1250/2410 KB   1252/2410 KB   1253/2410 KB   1254/2410 KB   1256/2410 KB   1259/2410 KB   1261/2410 KB   1264/2410 KB   1266/2410 KB   1267/2410 KB   1268/2410 KB   1271/2410 KB   1273/2410 KB   1274/2410 KB   1276/2410 KB   1277/2410 KB   1278/2410 KB   1280/2410 KB   1281/2410 KB   1283/2410 KB   1284/2410 KB   1285/2410 KB   1287/2410 KB   1290/2410 KB   1291/2410 KB   1293/2410 KB   1294/2410 KB   1295/2410 KB   1297/2410 KB   1298/2410 KB   1300/2410 KB   1301/2410 KB   1302/2410 KB   1304/2410 KB   1305/2410 KB   1307/2410 KB   1308/2410 KB   1309/2410 KB   1311/2410 KB   1312/2410 KB   1314/2410 KB   1315/2410 KB   1317/2410 KB   1318/2410 KB   1319/2410 KB   1321/2410 KB   1322/2410 KB   1324/2410 KB   1325/2410 KB   1326/2410 KB   1328/2410 KB   1329/2410 KB   1331/2410 KB   1332/2410 KB   1334/2410 KB   1335/2410 KB   1336/2410 KB   1338/2410 KB   1339/2410 KB   1341/2410 KB   1342/2410 KB   1343/2410 KB   1345/2410 KB   1346/2410 KB   1348/2410 KB   1349/2410 KB   1351/2410 KB   1352/2410 KB   1353/2410 KB   1355/2410 KB   1356/2410 KB   1358/2410 KB   1359/2410 KB   1360/2410 KB   1362/2410 KB   1363/2410 KB   1365/2410 KB   1366/2410 KB   1367/2410 KB   1369/2410 KB   1370/2410 KB   1372/2410 KB   1373/2410 KB   1375/2410 KB   1376/2410 KB   1377/2410 KB   1379/2410 KB   1380/2410 KB   1382/2410 KB   1383/2410 KB   1384/2410 KB   1386/2410 KB   1387/2410 KB   1389/2410 KB   1390/2410 KB   1392/2410 KB   1393/2410 KB   1394/2410 KB   1396/2410 KB   1397/2410 KB   1399/2410 KB   1400/2410 KB   1401/2410 KB   1403/2410 KB   1404/2410 KB   1406/2410 KB   1407/2410 KB   1410/2410 KB   1413/2410 KB   1414/2410 KB   1416/2410 KB   1417/2410 KB   1418/2410 KB   1420/2410 KB   1421/2410 KB   1423/2410 KB   1424/2410 KB   1425/2410 KB   1427/2410 KB   1428/2410 KB   1430/2410 KB   1431/2410 KB   1433/2410 KB   1434/2410 KB   1435/2410 KB   1437/2410 KB   1438/2410 KB   1440/2410 KB   1441/2410 KB   1442/2410 KB   1444/2410 KB   1445/2410 KB   1447/2410 KB   1448/2410 KB   1449/2410 KB   1451/2410 KB   1452/2410 KB   1454/2410 KB   1455/2410 KB   1457/2410 KB   1458/2410 KB   1459/2410 KB   1461/2410 KB   1462/2410 KB   1464/2410 KB   1465/2410 KB   1466/2410 KB   1468/2410 KB   1469/2410 KB   1471/2410 KB   1472/2410 KB   1474/2410 KB   1475/2410 KB   1476/2410 KB   1478/2410 KB   1479/2410 KB   1481/2410 KB   1482/2410 KB   1483/2410 KB   1485/2410 KB   1486/2410 KB   1488/2410 KB   1489/2410 KB   1490/2410 KB   1492/2410 KB   1493/2410 KB   1495/2410 KB   1496/2410 KB   1498/2410 KB   1499/2410 KB   1500/2410 KB   1502/2410 KB   1503/2410 KB   1505/2410 KB   1506/2410 KB   1507/2410 KB   1509/2410 KB   1510/2410 KB   1512/2410 KB   1513/2410 KB   1515/2410 KB   1516/2410 KB   1517/2410 KB   1519/2410 KB   1520/2410 KB   1522/2410 KB   1523/2410 KB   1524/2410 KB   1526/2410 KB   1527/2410 KB   1529/2410 KB   1530/2410 KB   1532/2410 KB   1533/2410 KB   1534/2410 KB   1536/2410 KB   1537/2410 KB   1539/2410 KB   1540/2410 KB   1541/2410 KB   1543/2410 KB   1544/2410 KB   1546/2410 KB   1547/2410 KB   1548/2410 KB   1550/2410 KB   1551/2410 KB   1553/2410 KB   1554/2410 KB   1556/2410 KB   1557/2410 KB   1558/2410 KB   1560/2410 KB   1561/2410 KB   1563/2410 KB   1564/2410 KB   1565/2410 KB   1567/2410 KB   1568/2410 KB   1570/2410 KB   1571/2410 KB   1573/2410 KB   1574/2410 KB   1575/2410 KB   1577/2410 KB   1578/2410 KB   1580/2410 KB   1581/2410 KB   1582/2410 KB   1584/2410 KB   1585/2410 KB   1587/2410 KB   1588/2410 KB   1589/2410 KB   1591/2410 KB   1592/2410 KB   1594/2410 KB   1595/2410 KB   1597/2410 KB   1598/2410 KB   1599/2410 KB   1601/2410 KB   1602/2410 KB   1604/2410 KB   1606/2410 KB   1608/2410 KB   1609/2410 KB   1611/2410 KB   1612/2410 KB   1614/2410 KB   1615/2410 KB   1616/2410 KB   1618/2410 KB   1619/2410 KB   1621/2410 KB   1622/2410 KB   1625/2410 KB   1628/2410 KB   1629/2410 KB   1630/2410 KB   1633/2410 KB   1635/2410 KB   1636/2410 KB   1638/2410 KB   1639/2410 KB   1642/2410 KB   1645/2410 KB   1646/2410 KB   1647/2410 KB   1649/2410 KB   1650/2410 KB   1652/2410 KB   1653/2410 KB   1655/2410 KB   1656/2410 KB   1657/2410 KB   1659/2410 KB   1660/2410 KB   1662/2410 KB   1663/2410 KB   1664/2410 KB   1666/2410 KB   1667/2410 KB   1669/2410 KB   1670/2410 KB   1671/2410 KB   1673/2410 KB   1674/2410 KB   1676/2410 KB   1677/2410 KB   1679/2410 KB   1680/2410 KB   1681/2410 KB   1683/2410 KB   1684/2410 KB   1686/2410 KB   1687/2410 KB   1688/2410 KB   1690/2410 KB   1691/2410 KB   1693/2410 KB   1694/2410 KB   1696/2410 KB   1697/2410 KB   1698/2410 KB   1700/2410 KB   1701/2410 KB   1703/2410 KB   1704/2410 KB   1705/2410 KB   1707/2410 KB   1708/2410 KB   1710/2410 KB   1711/2410 KB   1713/2410 KB   1714/2410 KB   1715/2410 KB   1717/2410 KB   1718/2410 KB   1720/2410 KB   1721/2410 KB   1722/2410 KB   1724/2410 KB   1725/2410 KB   1727/2410 KB   1728/2410 KB   1729/2410 KB   1731/2410 KB   1732/2410 KB   1734/2410 KB   1735/2410 KB   1737/2410 KB   1738/2410 KB   1739/2410 KB   1741/2410 KB   1742/2410 KB   1744/2410 KB   1745/2410 KB   1746/2410 KB   1748/2410 KB   1749/2410 KB   1751/2410 KB   1752/2410 KB   1754/2410 KB   1755/2410 KB   1756/2410 KB   1758/2410 KB   1759/2410 KB   1761/2410 KB   1762/2410 KB   1763/2410 KB   1765/2410 KB   1766/2410 KB   1768/2410 KB   1769/2410 KB   1770/2410 KB   1772/2410 KB   1773/2410 KB   1775/2410 KB   1776/2410 KB   1778/2410 KB   1779/2410 KB   1780/2410 KB   1782/2410 KB   1783/2410 KB   1785/2410 KB   1786/2410 KB   1787/2410 KB   1789/2410 KB   1790/2410 KB   1792/2410 KB   1793/2410 KB   1795/2410 KB   1796/2410 KB   1797/2410 KB   1799/2410 KB   1800/2410 KB   1802/2410 KB   1803/2410 KB   1804/2410 KB   1806/2410 KB   1807/2410 KB   1809/2410 KB   1810/2410 KB   1811/2410 KB   1813/2410 KB   1814/2410 KB   1816/2410 KB   1817/2410 KB   1819/2410 KB   1820/2410 KB   1821/2410 KB   1823/2410 KB   1824/2410 KB   1827/2410 KB   1828/2410 KB   1830/2410 KB   1831/2410 KB   1834/2410 KB   1837/2410 KB   1840/2410 KB   1843/2410 KB   1844/2410 KB   1845/2410 KB   1848/2410 KB   1850/2410 KB   1851/2410 KB   1852/2410 KB   1854/2410 KB   1857/2410 KB   1860/2410 KB   1861/2410 KB   1862/2410 KB   1864/2410 KB   1865/2410 KB   1867/2410 KB   1868/2410 KB   1869/2410 KB   1871/2410 KB   1872/2410 KB   1874/2410 KB   1875/2410 KB   1877/2410 KB   1878/2410 KB   1879/2410 KB   1881/2410 KB   1882/2410 KB   1884/2410 KB   1885/2410 KB   1886/2410 KB   1888/2410 KB   1889/2410 KB   1891/2410 KB   1892/2410 KB   1894/2410 KB   1895/2410 KB   1896/2410 KB   1898/2410 KB   1899/2410 KB   1901/2410 KB   1902/2410 KB   1903/2410 KB   1905/2410 KB   1906/2410 KB   1908/2410 KB   1909/2410 KB   1910/2410 KB   1912/2410 KB   1913/2410 KB   1915/2410 KB   1916/2410 KB   1918/2410 KB   1919/2410 KB   1920/2410 KB   1922/2410 KB   1923/2410 KB   1925/2410 KB   1926/2410 KB   1927/2410 KB   1929/2410 KB   1930/2410 KB   1932/2410 KB   1933/2410 KB   1935/2410 KB   1936/2410 KB   1937/2410 KB   1939/2410 KB   1940/2410 KB   1942/2410 KB   1943/2410 KB   1944/2410 KB   1946/2410 KB   1947/2410 KB   1949/2410 KB   1950/2410 KB   1951/2410 KB   1953/2410 KB   1954/2410 KB   1956/2410 KB   1957/2410 KB   1959/2410 KB   1960/2410 KB   1961/2410 KB   1963/2410 KB   1964/2410 KB   1966/2410 KB   1967/2410 KB   1968/2410 KB   1970/2410 KB   1971/2410 KB   1973/2410 KB   1974/2410 KB   1976/2410 KB   1977/2410 KB   1978/2410 KB   1981/2410 KB   1984/2410 KB   1985/2410 KB   1987/2410 KB   1988/2410 KB   1991/2410 KB   1992/2410 KB   1994/2410 KB   1995/2410 KB   1997/2410 KB   1998/2410 KB   2000/2410 KB   2001/2410 KB   2002/2410 KB   2004/2410 KB   2005/2410 KB   2007/2410 KB   2008/2410 KB   2009/2410 KB   2011/2410 KB   2012/2410 KB   2014/2410 KB   2015/2410 KB   2017/2410 KB   2018/2410 KB   2019/2410 KB   2021/2410 KB   2022/2410 KB   2024/2410 KB   2025/2410 KB   2026/2410 KB   2028/2410 KB   2029/2410 KB   2031/2410 KB   2032/2410 KB   2033/2410 KB   2035/2410 KB   2036/2410 KB   2038/2410 KB   2039/2410 KB   2041/2410 KB   2042/2410 KB   2043/2410 KB   2045/2410 KB   2046/2410 KB   2048/2410 KB   2049/2410 KB   2050/2410 KB   2052/2410 KB   2053/2410 KB   2055/2410 KB   2056/2410 KB   2058/2410 KB   2059/2410 KB   2060/2410 KB   2062/2410 KB   2063/2410 KB   2065/2410 KB   2066/2410 KB   2067/2410 KB   2069/2410 KB   2070/2410 KB   2072/2410 KB   2073/2410 KB   2075/2410 KB   2076/2410 KB   2077/2410 KB   2079/2410 KB   2080/2410 KB   2082/2410 KB   2083/2410 KB   2084/2410 KB   2086/2410 KB   2087/2410 KB   2089/2410 KB   2090/2410 KB   2091/2410 KB   2093/2410 KB   2094/2410 KB   2096/2410 KB   2097/2410 KB   2099/2410 KB   2100/2410 KB   2101/2410 KB   2103/2410 KB   2104/2410 KB   2106/2410 KB   2107/2410 KB   2108/2410 KB   2110/2410 KB   2111/2410 KB   2113/2410 KB   2114/2410 KB   2116/2410 KB   2117/2410 KB   2118/2410 KB   2120/2410 KB   2121/2410 KB   2123/2410 KB   2124/2410 KB   2125/2410 KB   2128/2410 KB   2130/2410 KB   2131/2410 KB   2132/2410 KB   2134/2410 KB   2135/2410 KB   2137/2410 KB   2138/2410 KB   2140/2410 KB   2141/2410 KB   2142/2410 KB   2144/2410 KB   2145/2410 KB   2147/2410 KB   2148/2410 KB   2149/2410 KB   2151/2410 KB   2152/2410 KB   2154/2410 KB   2155/2410 KB   2157/2410 KB   2158/2410 KB   2159/2410 KB   2161/2410 KB   2162/2410 KB   2164/2410 KB   2165/2410 KB   2166/2410 KB   2168/2410 KB   2169/2410 KB   2171/2410 KB   2172/2410 KB   2173/2410 KB   2175/2410 KB   2176/2410 KB   2178/2410 KB   2179/2410 KB   2181/2410 KB   2182/2410 KB   2183/2410 KB   2185/2410 KB   2186/2410 KB   2188/2410 KB   2189/2410 KB   2190/2410 KB   2192/2410 KB   2193/2410 KB   2195/2410 KB   2198/2410 KB   2199/2410 KB   2200/2410 KB   2202/2410 KB   2203/2410 KB   2205/2410 KB   2206/2410 KB   2207/2410 KB   2209/2410 KB   2210/2410 KB   2212/2410 KB   2213/2410 KB   2214/2410 KB   2216/2410 KB   2217/2410 KB   2219/2410 KB   2220/2410 KB   2222/2410 KB   2223/2410 KB   2224/2410 KB   2226/2410 KB   2227/2410 KB   2229/2410 KB   2230/2410 KB   2231/2410 KB   2233/2410 KB   2234/2410 KB   2236/2410 KB   2237/2410 KB   2239/2410 KB   2240/2410 KB   2241/2410 KB   2243/2410 KB   2244/2410 KB   2246/2410 KB   2247/2410 KB   2248/2410 KB   2250/2410 KB   2251/2410 KB   2253/2410 KB   2254/2410 KB   2256/2410 KB   2257/2410 KB   2258/2410 KB   2260/2410 KB   2261/2410 KB   2263/2410 KB   2264/2410 KB   2265/2410 KB   2267/2410 KB   2268/2410 KB   2270/2410 KB   2271/2410 KB   2272/2410 KB   2274/2410 KB   2275/2410 KB   2277/2410 KB   2278/2410 KB   2280/2410 KB   2281/2410 KB   2282/2410 KB   2284/2410 KB   2285/2410 KB   2287/2410 KB   2288/2410 KB   2289/2410 KB   2291/2410 KB   2292/2410 KB   2294/2410 KB   2295/2410 KB   2297/2410 KB   2298/2410 KB   2299/2410 KB   2301/2410 KB   2302/2410 KB   2304/2410 KB   2305/2410 KB   2306/2410 KB   2308/2410 KB   2309/2410 KB   2311/2410 KB   2312/2410 KB   2313/2410 KB   2315/2410 KB   2316/2410 KB   2318/2410 KB   2319/2410 KB   2321/2410 KB   2322/2410 KB   2323/2410 KB   2325/2410 KB   2326/2410 KB   2328/2410 KB   2329/2410 KB   2330/2410 KB   2332/2410 KB   2333/2410 KB   2335/2410 KB   2336/2410 KB   2338/2410 KB   2339/2410 KB   2340/2410 KB   2342/2410 KB   2343/2410 KB   2345/2410 KB   2346/2410 KB   2347/2410 KB   2349/2410 KB   2350/2410 KB   2352/2410 KB   2353/2410 KB   2354/2410 KB   2356/2410 KB   2357/2410 KB   2359/2410 KB   2360/2410 KB   2362/2410 KB   2363/2410 KB   2364/2410 KB   2366/2410 KB   2367/2410 KB   2369/2410 KB   2370/2410 KB   2371/2410 KB   2373/2410 KB   2374/2410 KB   2376/2410 KB   2377/2410 KB   2379/2410 KB   2380/2410 KB   2381/2410 KB   2383/2410 KB   2384/2410 KB   2386/2410 KB   2387/2410 KB   2388/2410 KB   2390/2410 KB   2391/2410 KB   2393/2410 KB   2394/2410 KB   2395/2410 KB   2397/2410 KB   2398/2410 KB   2400/2410 KB   2401/2410 KB   2403/2410 KB   2404/2410 KB   2405/2410 KB   2407/2410 KB   2408/2410 KB   2410/2410 KB                  Downloaded: http://repo.maven.apache.org/maven2/toplink/essentials/toplink-essentials/2.0-41/toplink-essentials-2.0-41.jar (2410 KB at 795.9 KB/sec)
[INFO] ------------------------------------------------------------------------
[INFO] BUILD FAILURE
[INFO] ------------------------------------------------------------------------
[INFO] Total time: 4.148s
[INFO] Finished at: Fri Jan 31 00:53:11 CET 2014
[INFO] Final Memory: 6M/150M
[INFO] ------------------------------------------------------------------------
[ERROR] Failed to execute goal on project spring-orm: Could not resolve dependencies for project org.springframework:spring-orm:jar:3.0.5.RELEASE: The following artifacts could not be resolved: org.eclipse.persistence:org.eclipse.persistence.core:jar:1.0.1, org.eclipse.persistence:org.eclipse.persistence.jpa:jar:1.0.1, org.eclipse.persistence:org.eclipse.persistence.asm:jar:1.0.1, org.eclipse.persistence:org.eclipse.persistence.antlr:jar:1.0.1: Could not find artifact org.eclipse.persistence:org.eclipse.persistence.core:jar:1.0.1 in central (http://repo.maven.apache.org/maven2) -> [Help 1]
[ERROR] 
[ERROR] To see the full stack trace of the errors, re-run Maven with the -e switch.
[ERROR] Re-run Maven using the -X switch to enable full debug logging.
[ERROR] 
[ERROR] For more information about the errors and possible solutions, please read the following articles:
[ERROR] [Help 1] http://cwiki.apache.org/confluence/display/MAVEN/DependencyResolutionException
